PTC/Cwiczenie5_4/simulation/qsim/Cwiczenie5_4.msim.vcd
$comment
	File created using the following command:
		vcd file Cwiczenie5_4.msim.vcd -direction
$end
$date
	Fri Dec 29 18:08:33 2017
$end
$version
	ModelSim Version 10.1d
$end
$timescale
	1ps
$end
$scope module Cwiczenie5_4_vlg_vec_tst $end
$var reg 18 ! iSW [17:0] $end
$var reg 1 " KEY [0:0] $end
$var wire 1 # HEX0 [0] $end
$var wire 1 $ HEX0 [1] $end
$var wire 1 % HEX0 [2] $end
$var wire 1 & HEX0 [3] $end
$var wire 1 ' HEX0 [4] $end
$var wire 1 ( HEX0 [5] $end
$var wire 1 ) HEX0 [6] $end
$var wire 1 * HEX1 [0] $end
$var wire 1 + HEX1 [1] $end
$var wire 1 , HEX1 [2] $end
$var wire 1 - HEX1 [3] $end
$var wire 1 . HEX1 [4] $end
$var wire 1 / HEX1 [5] $end
$var wire 1 0 HEX1 [6] $end
$var wire 1 1 HEX2 [0] $end
$var wire 1 2 HEX2 [1] $end
$var wire 1 3 HEX2 [2] $end
$var wire 1 4 HEX2 [3] $end
$var wire 1 5 HEX2 [4] $end
$var wire 1 6 HEX2 [5] $end
$var wire 1 7 HEX2 [6] $end
$var wire 1 8 HEX3 [0] $end
$var wire 1 9 HEX3 [1] $end
$var wire 1 : HEX3 [2] $end
$var wire 1 ; HEX3 [3] $end
$var wire 1 < HEX3 [4] $end
$var wire 1 = HEX3 [5] $end
$var wire 1 > HEX3 [6] $end
$var wire 1 ? HEX4 [0] $end
$var wire 1 @ HEX4 [1] $end
$var wire 1 A HEX4 [2] $end
$var wire 1 B HEX4 [3] $end
$var wire 1 C HEX4 [4] $end
$var wire 1 D HEX4 [5] $end
$var wire 1 E HEX4 [6] $end
$var wire 1 F HEX5 [0] $end
$var wire 1 G HEX5 [1] $end
$var wire 1 H HEX5 [2] $end
$var wire 1 I HEX5 [3] $end
$var wire 1 J HEX5 [4] $end
$var wire 1 K HEX5 [5] $end
$var wire 1 L HEX5 [6] $end
$var wire 1 M HEX6 [0] $end
$var wire 1 N HEX6 [1] $end
$var wire 1 O HEX6 [2] $end
$var wire 1 P HEX6 [3] $end
$var wire 1 Q HEX6 [4] $end
$var wire 1 R HEX6 [5] $end
$var wire 1 S HEX6 [6] $end
$var wire 1 T HEX7 [0] $end
$var wire 1 U HEX7 [1] $end
$var wire 1 V HEX7 [2] $end
$var wire 1 W HEX7 [3] $end
$var wire 1 X HEX7 [4] $end
$var wire 1 Y HEX7 [5] $end
$var wire 1 Z HEX7 [6] $end
$var wire 1 [ oLEDR [0] $end
$var wire 1 \ sampler $end
$scope module i1 $end
$var wire 1 ] gnd $end
$var wire 1 ^ vcc $end
$var wire 1 _ unknown $end
$var tri1 1 ` devclrn $end
$var tri1 1 a devpor $end
$var tri1 1 b devoe $end
$var wire 1 c sumtract|sumsourcemux|mout~1_combout $end
$var wire 1 d sumtract|binreg|dff2|shortdff~regout $end
$var wire 1 e sumtract|binreg|dff3|shortdff~regout $end
$var wire 1 f sumtract|ainreg|dff3|shortdff~regout $end
$var wire 1 g sumtract|sumsourcemux|mout~4_combout $end
$var wire 1 h sumtract|binreg|dff4|shortdff~regout $end
$var wire 1 i sumtract|binreg|dff5|shortdff~regout $end
$var wire 1 j sumtract|sumsourcemux|mout~11_combout $end
$var wire 1 k sumtract|binreg|dff7|shortdff~regout $end
$var wire 1 l sumtract|ainreg|dff7|shortdff~regout $end
$var wire 1 m sumtract|sumsourcemux|mout~12_combout $end
$var wire 1 n sumtract|binreg|dff4|shortdff~feeder_combout $end
$var wire 1 o sumtract|binreg|dff7|shortdff~feeder_combout $end
$var wire 1 p sumtract|ainreg|dff7|shortdff~feeder_combout $end
$var wire 1 q sumtract|selreg|shortdff~regout $end
$var wire 1 r sumtract|binreg|dff0|shortdff~regout $end
$var wire 1 s sumtract|ainreg|dff0|shortdff~feeder_combout $end
$var wire 1 t sumtract|ainreg|dff0|shortdff~regout $end
$var wire 1 u sumtract|sumator|SUM0|s~0_combout $end
$var wire 1 v sumtract|outreg|dff0|shortdff~regout $end
$var wire 1 w sumtract|sumsourcemux|mout~3_combout $end
$var wire 1 x sumtract|binreg|dff1|shortdff~regout $end
$var wire 1 y sumtract|addsubreg|shortdff~regout $end
$var wire 1 z sumtract|sumator|SUM0|cout~0_combout $end
$var wire 1 { sumtract|sumator|SUM0|cout~1_combout $end
$var wire 1 | sumtract|ainreg|dff1|shortdff~feeder_combout $end
$var wire 1 } sumtract|ainreg|dff1|shortdff~regout $end
$var wire 1 ~ sumtract|sumsourcemux|mout~0_combout $end
$var wire 1 !! sumtract|sumator|SUM1|cout~0_combout $end
$var wire 1 "! sumtract|ainreg|dff2|shortdff~regout $end
$var wire 1 #! sumtract|sumsourcemux|mout~2_combout $end
$var wire 1 $! sumtract|sumator|SUM2|s~combout $end
$var wire 1 %! sumtract|outreg|dff2|shortdff~regout $end
$var wire 1 &! sumtract|sumator|SUM1|s~0_combout $end
$var wire 1 '! sumtract|outreg|dff1|shortdff~regout $end
$var wire 1 (! sumtract|sumator|SUM2|cout~0_combout $end
$var wire 1 )! sumtract|sumsourcemux|mout~5_combout $end
$var wire 1 *! sumtract|sumator|SUM3|s~combout $end
$var wire 1 +! sumtract|outreg|dff3|shortdff~regout $end
$var wire 1 ,! ohex7|Mux6~0_combout $end
$var wire 1 -! ohex7|Mux5~0_combout $end
$var wire 1 .! ohex7|Mux4~0_combout $end
$var wire 1 /! ohex7|Mux3~0_combout $end
$var wire 1 0! ohex7|Mux2~0_combout $end
$var wire 1 1! ohex7|Mux1~0_combout $end
$var wire 1 2! ohex7|Mux0~0_combout $end
$var wire 1 3! sumtract|sumsourcemux|mout~13_combout $end
$var wire 1 4! sumtract|binreg|dff6|shortdff~regout $end
$var wire 1 5! sumtract|ainreg|dff4|shortdff~feeder_combout $end
$var wire 1 6! sumtract|ainreg|dff4|shortdff~regout $end
$var wire 1 7! sumtract|sumsourcemux|mout~6_combout $end
$var wire 1 8! sumtract|sumator|SUM3|cout~0_combout $end
$var wire 1 9! sumtract|sumator|SUM4|s~combout $end
$var wire 1 :! sumtract|outreg|dff4|shortdff~regout $end
$var wire 1 ;! sumtract|sumsourcemux|mout~7_combout $end
$var wire 1 <! sumtract|sumator|SUM4|cout~0_combout $end
$var wire 1 =! sumtract|ainreg|dff5|shortdff~regout $end
$var wire 1 >! sumtract|sumsourcemux|mout~8_combout $end
$var wire 1 ?! sumtract|sumator|SUM5|s~combout $end
$var wire 1 @! sumtract|outreg|dff5|shortdff~regout $end
$var wire 1 A! sumtract|sumsourcemux|mout~9_combout $end
$var wire 1 B! sumtract|sumator|SUM5|cout~0_combout $end
$var wire 1 C! sumtract|ainreg|dff6|shortdff~regout $end
$var wire 1 D! sumtract|sumsourcemux|mout~10_combout $end
$var wire 1 E! sumtract|sumator|SUM6|cout~0_combout $end
$var wire 1 F! sumtract|sumator|SUM7|s~combout $end
$var wire 1 G! sumtract|outreg|dff7|shortdff~regout $end
$var wire 1 H! sumtract|sumator|SUM6|s~combout $end
$var wire 1 I! sumtract|outreg|dff6|shortdff~regout $end
$var wire 1 J! ohex6|Mux6~0_combout $end
$var wire 1 K! ohex6|Mux5~0_combout $end
$var wire 1 L! ohex6|Mux4~0_combout $end
$var wire 1 M! ohex6|Mux3~0_combout $end
$var wire 1 N! ohex6|Mux2~0_combout $end
$var wire 1 O! ohex6|Mux1~0_combout $end
$var wire 1 P! ohex6|Mux0~0_combout $end
$var wire 1 Q! ohex4|Mux6~0_combout $end
$var wire 1 R! ohex4|Mux5~0_combout $end
$var wire 1 S! ohex4|Mux4~0_combout $end
$var wire 1 T! ohex4|Mux3~0_combout $end
$var wire 1 U! ohex4|Mux2~0_combout $end
$var wire 1 V! ohex4|Mux1~0_combout $end
$var wire 1 W! ohex4|Mux0~0_combout $end
$var wire 1 X! ohex3|Mux6~0_combout $end
$var wire 1 Y! ohex3|Mux5~0_combout $end
$var wire 1 Z! ohex3|Mux4~0_combout $end
$var wire 1 [! ohex3|Mux3~0_combout $end
$var wire 1 \! ohex3|Mux2~0_combout $end
$var wire 1 ]! ohex3|Mux1~0_combout $end
$var wire 1 ^! ohex3|Mux0~0_combout $end
$var wire 1 _! ohex1|Mux6~0_combout $end
$var wire 1 `! ohex1|Mux5~0_combout $end
$var wire 1 a! ohex1|Mux4~0_combout $end
$var wire 1 b! ohex1|Mux3~0_combout $end
$var wire 1 c! ohex1|Mux2~0_combout $end
$var wire 1 d! ohex1|Mux1~0_combout $end
$var wire 1 e! ohex1|Mux0~0_combout $end
$var wire 1 f! ohex0|Mux6~0_combout $end
$var wire 1 g! ohex0|Mux5~0_combout $end
$var wire 1 h! ohex0|Mux4~0_combout $end
$var wire 1 i! ohex0|Mux3~0_combout $end
$var wire 1 j! ohex0|Mux2~0_combout $end
$var wire 1 k! ohex0|Mux1~0_combout $end
$var wire 1 l! ohex0|Mux0~0_combout $end
$var wire 1 m! sumtract|overflowsig~0_combout $end
$var wire 1 n! sumtract|overflowreg|shortdff~regout $end
$var wire 1 o! iSW~combout [17] $end
$var wire 1 p! iSW~combout [16] $end
$var wire 1 q! iSW~combout [15] $end
$var wire 1 r! iSW~combout [14] $end
$var wire 1 s! iSW~combout [13] $end
$var wire 1 t! iSW~combout [12] $end
$var wire 1 u! iSW~combout [11] $end
$var wire 1 v! iSW~combout [10] $end
$var wire 1 w! iSW~combout [9] $end
$var wire 1 x! iSW~combout [8] $end
$var wire 1 y! iSW~combout [7] $end
$var wire 1 z! iSW~combout [6] $end
$var wire 1 {! iSW~combout [5] $end
$var wire 1 |! iSW~combout [4] $end
$var wire 1 }! iSW~combout [3] $end
$var wire 1 ~! iSW~combout [2] $end
$var wire 1 !" iSW~combout [1] $end
$var wire 1 "" iSW~combout [0] $end
$var wire 1 #" KEY~combout [0] $end
$var wire 1 $" sumtract|bprocesssig [7] $end
$var wire 1 %" sumtract|bprocesssig [6] $end
$var wire 1 &" sumtract|bprocesssig [5] $end
$var wire 1 '" sumtract|bprocesssig [4] $end
$var wire 1 (" sumtract|bprocesssig [3] $end
$var wire 1 )" sumtract|bprocesssig [2] $end
$var wire 1 *" sumtract|bprocesssig [1] $end
$var wire 1 +" sumtract|bprocesssig [0] $end
$upscope $end
$upscope $end
$enddefinitions $end
#0
$dumpvars
b10000001000001000 !
b0 "
x)
x(
x'
x&
x%
x$
x#
x0
x/
x.
x-
x,
x+
x*
17
16
15
14
13
12
11
x>
x=
x<
x;
x:
x9
x8
xE
xD
xC
xB
xA
x@
x?
1L
1K
1J
1I
1H
1G
1F
xS
xR
xQ
xP
xO
xN
xM
xZ
xY
xX
xW
xV
xU
xT
x[
x\
0]
1^
x_
1`
1a
1b
xc
0d
0e
0f
0g
0h
0i
xj
0k
0l
xm
xn
xo
xp
0q
0r
xs
0t
xu
0v
xw
0x
0y
xz
x{
x|
0}
x~
x!!
0"!
0#!
x$!
0%!
x&!
0'!
x(!
x)!
x*!
0+!
x,!
x-!
x.!
x/!
x0!
x1!
x2!
x3!
04!
x5!
06!
x7!
x8!
x9!
0:!
x;!
x<!
0=!
0>!
x?!
0@!
xA!
xB!
0C!
0D!
xE!
xF!
0G!
xH!
0I!
xJ!
xK!
xL!
xM!
xN!
xO!
xP!
xQ!
xR!
xS!
xT!
xU!
xV!
xW!
xX!
xY!
xZ!
x[!
x\!
x]!
x^!
x_!
x`!
xa!
xb!
xc!
xd!
xe!
xf!
xg!
xh!
xi!
xj!
xk!
xl!
xm!
0n!
0""
0!"
0~!
1}!
0|!
0{!
0z!
0y!
0x!
1w!
0v!
0u!
0t!
0s!
0r!
0q!
1p!
0o!
0#"
z+"
x*"
x)"
x("
x'"
x&"
x%"
x$"
$end
#450
0~
#493
00!
#634
01!
#636
0M!
0K!
#637
0)!
#639
02!
0/!
#665
0*"
#668
0)"
#748
03!
#765
0z
#770
0O!
0N!
#786
0-!
#895
0;!
#901
0A!
#912
0j
#915
0c
#920
0,!
#958
0P!
#959
0.!
#972
0J!
#986
0u
#1127
0g!
#1134
0c!
#1178
0w
#1184
0L!
#1190
0l!
#1193
0h!
#1201
0f!
#1208
0k!
#1210
0d!
#1211
0e!
#1212
0a!
#1250
0`!
#1331
1_!
#1355
0{
#1409
0b!
#1461
0i!
#1467
0j!
0("
#1822
0!!
#1897
0&!
#2029
0(!
#2271
0m
#2461
0'"
#2494
0$"
#2541
0$!
#2553
08!
#2584
0*!
#2801
0%"
#2823
07!
#2918
0&"
#3500
0E!
#3711
0Y!
#3768
0B!
#3799
0\!
#3863
0<!
#3921
0F!
#3922
0m!
#3947
0p
#3949
05!
#4002
0Z!
#4004
0X!
#4007
0^!
#4008
0V!
0T!
0[!
#4019
0]!
#4031
0W!
#4161
0%
#4197
0(
#4200
0,
#4300
0H!
#4318
0&
#4331
0-
#4394
0'
#4413
0?!
#4442
0+
#4519
0/
#4523
09!
#4541
0$
#4546
1R!
#4563
1)
#4580
1Q!
#4596
0.
#4609
10
#4763
0#
#4773
0[
#5136
1U!
#5138
0S!
#5140
0*
#5219
0s
#5497
0|
#5700
0n
#5933
0o
#7057
0A
#7102
08
#7108
0?
#7129
0@
#7130
0D
#7352
09
#7385
0;
#7391
0C
#7400
0B
#7411
1E
#7616
1=
#7641
0>
#7770
0N
#7776
0T
#7787
0U
#7826
0X
#7985
0O
#8018
0Y
#8050
0S
#8060
0V
#8079
0Q
#8087
0M
#8094
1Z
#8102
0R
#8185
0W
#8220
1:
#8307
0P
#8521
0<
#10000
b1 "
0\
#10842
1#"
#14743
1f
1q
#14963
1x
#15066
1g
#15286
1*"
#15448
0g
#16608
1&!
#20000
b0 "
1\
#20842
0#"
#30000
b1 "
0\
#30842
1#"
#34963
1'!
#35456
10!
1-!
#35698
1,!
#35878
1c
#36785
1!!
#36787
0&!
#37504
1$!
#38867
1(
#39124
1%
#39341
0)
#40000
b0 "
1\
#40842
0#"
#50000
b1 "
0\
#50842
1#"
#54963
1%!
0'!
#55456
00!
0-!
#55602
12!
1/!
#55878
0c
#55922
1.!
#56141
1w
#56785
0!!
#56787
1&!
#56992
1(!
0$!
#57499
0(!
#57504
1$!
#57547
1*!
#58054
0*!
#58867
0(
#59124
0%
#59281
1&
#59357
1'
#59726
1#
#60000
b0 "
1\
#60842
0#"
#70000
b1 "
0\
#70842
1#"
#74963
1'!
#75452
0.!
#75455
02!
0/!
#75723
11!
#75878
1c
#76785
1!!
#76787
0&!
#77499
1(!
#77504
0$!
#78054
1*!
#78887
0'
#79134
0&
#79579
0#
#79630
1$
#80000
b0 "
1\
#80842
0#"
#90000
b1 "
0\
#90842
1#"
#94963
0%!
0'!
1+!
#95452
1.!
#95600
1)!
#95723
01!
#95878
0c
#95904
0.!
#96141
0w
#96208
0*!
#96210
18!
#96785
0!!
#96787
1&!
#96992
0(!
1$!
#97504
0$!
#97538
08!
#97547
1*!
#99630
0$
#100000
b0 "
1\
#100842
0#"
#110000
b1 "
0\
#110842
1#"
#114963
1'!
#115455
1/!
#115878
1c
#116785
1!!
#116787
0&!
#117504
1$!
#119134
1&
#120000
b0 "
1\
#120842
0#"
#130000
b1 "
0\
#130842
1#"
#134963
1%!
0'!
#135455
0/!
#135597
11!
#135603
10!
#135878
0c
#135883
0,!
#136141
1w
#136785
0!!
#136787
1&!
#136992
1(!
0$!
#137499
0(!
#137504
1$!
#137538
18!
#137547
0*!
#138045
08!
#138054
1*!
#139134
0&
#139271
1%
#139504
1$
#139526
1)
#140000
b0 "
1\
#140842
0#"
#150000
b1 "
0\
#150842
1#"
#154963
1'!
#155698
1,!
#155878
1c
#156785
1!!
#156787
0&!
#157499
1(!
#157504
0$!
#158045
18!
#158054
0*!
#159341
0)
#160000
b0 "
1\
#160015
19!
#160842
0#"
#170000
b1 "
0\
#170842
1#"
#174099
1:!
#174735
1M!
1K!
#174736
1P!
#174963
0%!
0'!
0+!
#174994
1;!
#175022
1L!
#175578
09!
1<!
#175597
01!
#175600
0)!
#175720
00!
#175878
0c
#175883
0,!
#176128
1?!
#176141
0w
#176208
1*!
#176210
08!
#176785
0!!
#176787
1&!
#176992
0(!
1$!
#177504
0$!
#177547
0*!
#178178
0<!
#178180
19!
#178430
1-
#178434
1.
#178618
1/
#178728
0?!
#178918
1*
#179388
0%
#179504
0$
#179526
1)
#180000
b0 "
1\
#180842
0#"
#190000
b1 "
0\
#190842
1#"
#194963
1'!
#195456
10!
1-!
#195698
1,!
#195878
1c
#196785
1!!
#196787
0&!
#197504
1$!
#198867
1(
#199124
1%
#199341
0)
#200000
b0 "
1\
#200842
0#"
#210000
b1 "
0\
#210842
1#"
#214963
1%!
0'!
#215456
00!
0-!
#215602
12!
1/!
#215878
0c
#215922
1.!
#216141
1w
#216785
0!!
#216787
1&!
#216992
1(!
0$!
#217499
0(!
#217504
1$!
#217547
1*!
#218054
0*!
#218867
0(
#219124
0%
#219281
1&
#219357
1'
#219726
1#
#220000
b0 "
1\
#220842
0#"
#230000
b1 "
0\
#230842
1#"
#234963
1'!
#235452
0.!
#235455
02!
0/!
#235723
11!
#235878
1c
#236785
1!!
#236787
0&!
#237499
1(!
#237504
0$!
#238054
1*!
#238887
0'
#239134
0&
#239579
0#
#239630
1$
#240000
b0 "
1\
#240842
0#"
#250000
b1 "
0\
#250842
1#"
#254963
0%!
0'!
1+!
#255452
1.!
#255600
1)!
#255723
01!
#255878
0c
#255904
0.!
#256141
0w
#256208
0*!
#256210
18!
#256785
0!!
#256787
1&!
#256992
0(!
1$!
#257504
0$!
#257538
08!
#257547
1*!
#259630
0$
#260000
b0 "
1\
#260842
0#"
#270000
b1 "
0\
#270842
1#"
#274963
1'!
#275455
1/!
#275878
1c
#276785
1!!
#276787
0&!
#277504
1$!
#279134
1&
#280000
b0 "
1\
#280842
0#"
#290000
b1 "
0\
#290842
1#"
#294963
1%!
0'!
#295455
0/!
#295597
11!
#295603
10!
#295878
0c
#295883
0,!
#296141
1w
#296785
0!!
#296787
1&!
#296992
1(!
0$!
#297499
0(!
#297504
1$!
#297538
18!
#297547
0*!
#298045
08!
#298054
1*!
#299134
0&
#299271
1%
#299504
1$
#299526
1)
#300000
b0 "
1\
#300842
0#"
#310000
b1 "
0\
#310842
1#"
#314963
1'!
#315698
1,!
#315878
1c
#316785
1!!
#316787
0&!
#317499
1(!
#317504
0$!
#318045
18!
#318054
0*!
#319341
0)
#320000
b0 "
1\
#320013
1<!
#320015
09!
#320563
1?!
#320842
0#"
#330000
b1 "
0\
#330842
1#"
#334099
0:!
1@!
#334602
0M!
#334603
1J!
#334729
1N!
#334846
0P!
#334963
0%!
0'!
0+!
#334994
0;!
#335000
1A!
#335022
0L!
#335578
19!
0<!
#335597
01!
#335600
0)!
#335720
00!
#335838
0?!
#335840
1B!
#335878
0c
#335883
0,!
#336128
1?!
#336131
0B!
#336141
0w
#336208
1*!
#336210
08!
#336372
1H!
#336663
0H!
#336785
0!!
#336787
1&!
#336992
0(!
1$!
#337504
0$!
#337547
0*!
#338159
1,
#338180
09!
#338240
00
#338297
0-
#338434
0.
#339028
0*
#339388
0%
#339504
0$
#339526
1)
#340000
b0 "
1\
#340842
0#"
#350000
b1 "
0\
#350842
1#"
#354963
1'!
#355456
10!
1-!
#355698
1,!
#355878
1c
#356785
1!!
#356787
0&!
#357504
1$!
#358867
1(
#359124
1%
#359341
0)
#360000
b0 "
1\
#360842
0#"
#370000
b1 "
0\
#370842
1#"
#374963
1%!
0'!
#375456
00!
0-!
#375602
12!
1/!
#375878
0c
#375922
1.!
#376141
1w
#376785
0!!
#376787
1&!
#376992
1(!
0$!
#377499
0(!
#377504
1$!
#377547
1*!
#378054
0*!
#378867
0(
#379124
0%
#379281
1&
#379357
1'
#379726
1#
#380000
b0 "
1\
#380842
0#"
#390000
b1 "
0\
#390842
1#"
#394963
1'!
#395452
0.!
#395455
02!
0/!
#395723
11!
#395878
1c
#396785
1!!
#396787
0&!
#397499
1(!
#397504
0$!
#398054
1*!
#398887
0'
#399134
0&
#399579
0#
#399630
1$
#400000
b0 "
1\
#400842
0#"
#410000
b1 "
0\
#410842
1#"
#414963
0%!
0'!
1+!
#415452
1.!
#415600
1)!
#415723
01!
#415878
0c
#415904
0.!
#416141
0w
#416208
0*!
#416210
18!
#416785
0!!
#416787
1&!
#416992
0(!
1$!
#417504
0$!
#417538
08!
#417547
1*!
#419630
0$
#420000
b0 "
1\
#420842
0#"
#430000
b1 "
0\
#430842
1#"
#434963
1'!
#435455
1/!
#435878
1c
#436785
1!!
#436787
0&!
#437504
1$!
#439134
1&
#440000
b0 "
1\
#440842
0#"
#450000
b1 "
0\
#450842
1#"
#454963
1%!
0'!
#455455
0/!
#455597
11!
#455603
10!
#455878
0c
#455883
0,!
#456141
1w
#456785
0!!
#456787
1&!
#456992
1(!
0$!
#457499
0(!
#457504
1$!
#457538
18!
#457547
0*!
#458045
08!
#458054
1*!
#459134
0&
#459271
1%
#459504
1$
#459526
1)
#460000
b0 "
1\
#460842
0#"
#470000
b1 "
0\
#470842
1#"
#474963
1'!
#475698
1,!
#475878
1c
#476785
1!!
#476787
0&!
#477499
1(!
#477504
0$!
#478045
18!
#478054
0*!
#479341
0)
#480000
b0 "
1\
#480015
19!
#480842
0#"
#490000
b1 "
0\
#490842
1#"
#494099
1:!
#494729
0N!
#494963
0%!
0'!
0+!
#494994
1;!
#495022
1L!
#495578
09!
1<!
#495597
01!
#495600
0)!
#495720
00!
#495878
0c
#495883
0,!
#496128
0?!
#496131
1B!
#496141
0w
#496208
1*!
#496210
08!
#496663
1H!
#496785
0!!
#496787
1&!
#496992
0(!
1$!
#497504
0$!
#497547
0*!
#498159
0,
#498178
0<!
#498180
19!
#498434
1.
#498728
1?!
#498731
0B!
#499263
0H!
#499388
0%
#499504
0$
#499526
1)
#500000
b0 "
1\
#500842
0#"
#510000
b1 "
0\
#510842
1#"
#514963
1'!
#515456
10!
1-!
#515698
1,!
#515878
1c
#516785
1!!
#516787
0&!
#517504
1$!
#518867
1(
#519124
1%
#519341
0)
#520000
b0 "
1\
#520842
0#"
#530000
b1 "
0\
#530842
1#"
#534963
1%!
0'!
#535456
00!
0-!
#535602
12!
1/!
#535878
0c
#535922
1.!
#536141
1w
#536785
0!!
#536787
1&!
#536992
1(!
0$!
#537499
0(!
#537504
1$!
#537547
1*!
#538054
0*!
#538867
0(
#539124
0%
#539281
1&
#539357
1'
#539726
1#
#540000
b0 "
1\
#540842
0#"
#550000
b1 "
0\
#550842
1#"
#554963
1'!
#555452
0.!
#555455
02!
0/!
#555723
11!
#555878
1c
#556785
1!!
#556787
0&!
#557499
1(!
#557504
0$!
#558054
1*!
#558887
0'
#559134
0&
#559579
0#
#559630
1$
#560000
b0 "
1\
#560842
0#"
#570000
b1 "
0\
#570842
1#"
#574963
0%!
0'!
1+!
#575452
1.!
#575600
1)!
#575723
01!
#575878
0c
#575904
0.!
#576141
0w
#576208
0*!
#576210
18!
#576785
0!!
#576787
1&!
#576992
0(!
1$!
#577504
0$!
#577538
08!
#577547
1*!
#579630
0$
#580000
b0 "
1\
#580842
0#"
#590000
b1 "
0\
#590842
1#"
#594963
1'!
#595455
1/!
#595878
1c
#596785
1!!
#596787
0&!
#597504
1$!
#599134
1&
#600000
b0 "
1\
#600842
0#"
#610000
b1 "
0\
#610842
1#"
#614963
1%!
0'!
#615455
0/!
#615597
11!
#615603
10!
#615878
0c
#615883
0,!
#616141
1w
#616785
0!!
#616787
1&!
#616992
1(!
0$!
#617499
0(!
#617504
1$!
#617538
18!
#617547
0*!
#618045
08!
#618054
1*!
#619134
0&
#619271
1%
#619504
1$
#619526
1)
#620000
b0 "
1\
#620842
0#"
#630000
b1 "
0\
#630842
1#"
#634963
1'!
#635698
1,!
#635878
1c
#636785
1!!
#636787
0&!
#637499
1(!
#637504
0$!
#638045
18!
#638054
0*!
#639341
0)
#640000
b0 "
1\
#640013
1<!
#640015
09!
#640563
0?!
#640566
1B!
#640842
0#"
#641098
1H!
#650000
b1 "
0\
#650842
1#"
#654099
0:!
0@!
1I!
#654602
0K!
#654735
1M!
#654963
0%!
0'!
0+!
#654994
0;!
#655000
0A!
#655011
1j
#655057
1P!
#655578
19!
0<!
#655597
01!
#655600
0)!
#655720
00!
#655838
1?!
#655840
0B!
#655878
0c
#655883
0,!
#655922
1E!
0H!
#656128
0?!
#656141
0w
#656208
1*!
#656210
08!
#656343
1F!
#656344
1m!
#656368
0E!
#656372
1H!
#656785
0!!
#656787
1&!
#656789
0F!
#656790
0m!
#656992
0(!
1$!
#657504
0$!
#657547
0*!
#658180
09!
#658430
1-
#658485
0/
#659239
1*
#659388
0%
#659504
0$
#659526
1)
#660000
b0 "
1\
#660842
0#"
#670000
b1 "
0\
#670842
1#"
#674963
1'!
#675456
10!
1-!
#675698
1,!
#675878
1c
#676785
1!!
#676787
0&!
#677504
1$!
#678867
1(
#679124
1%
#679341
0)
#680000
b0 "
1\
#680842
0#"
#690000
b1 "
0\
#690842
1#"
#694963
1%!
0'!
#695456
00!
0-!
#695602
12!
1/!
#695878
0c
#695922
1.!
#696141
1w
#696785
0!!
#696787
1&!
#696992
1(!
0$!
#697499
0(!
#697504
1$!
#697547
1*!
#698054
0*!
#698867
0(
#699124
0%
#699281
1&
#699357
1'
#699726
1#
#700000
b0 "
1\
#700842
0#"
#710000
b1 "
0\
#710842
1#"
#714963
1'!
#715452
0.!
#715455
02!
0/!
#715723
11!
#715878
1c
#716785
1!!
#716787
0&!
#717499
1(!
#717504
0$!
#718054
1*!
#718887
0'
#719134
0&
#719579
0#
#719630
1$
#720000
b0 "
1\
#720842
0#"
#730000
b1 "
0\
#730842
1#"
#734963
0%!
0'!
1+!
#735452
1.!
#735600
1)!
#735723
01!
#735878
0c
#735904
0.!
#736141
0w
#736208
0*!
#736210
18!
#736785
0!!
#736787
1&!
#736992
0(!
1$!
#737504
0$!
#737538
08!
#737547
1*!
#739630
0$
#740000
b0 "
1\
#740842
0#"
#750000
b1 "
0\
#750842
1#"
#754963
1'!
#755455
1/!
#755878
1c
#756785
1!!
#756787
0&!
#757504
1$!
#759134
1&
#760000
b0 "
1\
#760842
0#"
#770000
b1 "
0\
#770842
1#"
#774963
1%!
0'!
#775455
0/!
#775597
11!
#775603
10!
#775878
0c
#775883
0,!
#776141
1w
#776785
0!!
#776787
1&!
#776992
1(!
0$!
#777499
0(!
#777504
1$!
#777538
18!
#777547
0*!
#778045
08!
#778054
1*!
#779134
0&
#779271
1%
#779504
1$
#779526
1)
#780000
b0 "
1\
#780842
0#"
#790000
b1 "
0\
#790842
1#"
#794963
1'!
#795698
1,!
#795878
1c
#796785
1!!
#796787
0&!
#797499
1(!
#797504
0$!
#798045
18!
#798054
0*!
#799341
0)
#800000
b0 "
1\
#800015
19!
#800842
0#"
#810000
b1 "
0\
#810842
1#"
#814099
1:!
#814729
1O!
#814735
0M!
#814736
0P!
#814963
0%!
0'!
0+!
#814994
1;!
#815578
09!
1<!
#815597
01!
#815600
0)!
#815720
00!
#815878
0c
#815883
0,!
#816128
1?!
#816141
0w
#816208
1*!
#816210
08!
#816785
0!!
#816787
1&!
#816992
0(!
1$!
#817504
0$!
#817547
0*!
#818178
0<!
#818180
19!
#818401
1+
#818430
0-
#818728
0?!
#818918
0*
#819388
0%
#819504
0$
#819526
1)
#820000
b0 "
1\
#820842
0#"
#830000
b1 "
0\
#830842
1#"
#834963
1'!
#835456
10!
1-!
#835698
1,!
#835878
1c
#836785
1!!
#836787
0&!
#837504
1$!
#838867
1(
#839124
1%
#839341
0)
#840000
b0 "
1\
#840842
0#"
#850000
b1 "
0\
#850842
1#"
#854963
1%!
0'!
#855456
00!
0-!
#855602
12!
1/!
#855878
0c
#855922
1.!
#856141
1w
#856785
0!!
#856787
1&!
#856992
1(!
0$!
#857499
0(!
#857504
1$!
#857547
1*!
#858054
0*!
#858867
0(
#859124
0%
#859281
1&
#859357
1'
#859726
1#
#860000
b0 "
1\
#860842
0#"
#870000
b1 "
0\
#870842
1#"
#874963
1'!
#875452
0.!
#875455
02!
0/!
#875723
11!
#875878
1c
#876785
1!!
#876787
0&!
#877499
1(!
#877504
0$!
#878054
1*!
#878887
0'
#879134
0&
#879579
0#
#879630
1$
#880000
b0 "
1\
#880842
0#"
#890000
b1 "
0\
#890842
1#"
#894963
0%!
0'!
1+!
#895452
1.!
#895600
1)!
#895723
01!
#895878
0c
#895904
0.!
#896141
0w
#896208
0*!
#896210
18!
#896785
0!!
#896787
1&!
#896992
0(!
1$!
#897504
0$!
#897538
08!
#897547
1*!
#899630
0$
#900000
b0 "
1\
#900842
0#"
#910000
b1 "
0\
#910842
1#"
#914963
1'!
#915455
1/!
#915878
1c
#916785
1!!
#916787
0&!
#917504
1$!
#919134
1&
#920000
b0 "
1\
#920842
0#"
#930000
b1 "
0\
#930842
1#"
#934963
1%!
0'!
#935455
0/!
#935597
11!
#935603
10!
#935878
0c
#935883
0,!
#936141
1w
#936785
0!!
#936787
1&!
#936992
1(!
0$!
#937499
0(!
#937504
1$!
#937538
18!
#937547
0*!
#938045
08!
#938054
1*!
#939134
0&
#939271
1%
#939504
1$
#939526
1)
#940000
b0 "
1\
#940842
0#"
#950000
b1 "
0\
#950842
1#"
#954963
1'!
#955698
1,!
#955878
1c
#956785
1!!
#956787
0&!
#957499
1(!
#957504
0$!
#958045
18!
#958054
0*!
#959341
0)
#960000
b0 "
1\
#960013
1<!
#960015
09!
#960563
1?!
#960842
0#"
#970000
b1 "
0\
#970842
1#"
#974099
0:!
1@!
#974754
0L!
#974963
0%!
0'!
0+!
#974994
0;!
#975000
1A!
#975578
19!
0<!
#975597
01!
#975600
0)!
#975720
00!
#975838
0?!
#975840
1B!
#975878
0c
#975883
0,!
#976128
1?!
