PTC/Cwiczenie2_3/simulation/qsim/Cwiczenie2_3.msim.vcd
$comment
	File created using the following command:
		vcd file Cwiczenie2_3.msim.vcd -direction
$end
$date
	Wed Nov 08 15:26:14 2017
$end
$version
	ModelSim Version 10.1d
$end
$timescale
	1ps
$end
$scope module Cwiczenie2_3_vlg_vec_tst $end
$var reg 2 ! iSW [1:0] $end
$var wire 1 " oLEDG [3] $end
$var wire 1 # oLEDG [2] $end
$var wire 1 $ oLEDG [1] $end
$var wire 1 % oLEDG [0] $end
$var wire 1 & sampler $end
$scope module i1 $end
$var wire 1 ' gnd $end
$var wire 1 ( vcc $end
$var wire 1 ) unknown $end
$var tri1 1 * devclrn $end
$var tri1 1 + devpor $end
$var tri1 1 , devoe $end
$var wire 1 - inst5~0_combout $end
$var wire 1 . inst3~regout $end
$var wire 1 / inst7~combout $end
$var wire 1 0 inst2~regout $end
$var wire 1 1 inst2~clkctrl_outclk $end
$var wire 1 2 inst11~combout $end
$var wire 1 3 inst1~regout $end
$var wire 1 4 inst~feeder_combout $end
$var wire 1 5 inst~regout $end
$var wire 1 6 iSW~combout [1] $end
$var wire 1 7 iSW~combout [0] $end
$upscope $end
$upscope $end
$enddefinitions $end
#0
$dumpvars
b0 !
x%
x$
x#
x"
x&
0'
1(
x)
1*
1+
1,
x-
x.
x/
x0
x1
x2
x3
x4
x5
07
06
$end
#218
0.
00
03
05
#687
04
#694
12
#948
1-
#964
0/
#1441
01
#2100
b1 !
0&
#2922
17
#3375
0"
#3610
0%
#3655
0$
#3947
0#
#4200
b0 !
1&
#5022
07
#6300
b1 !
0&
#7122
17
#8400
b0 !
1&
#9222
07
#10000
b10 !
0&
#10500
b11 !
1&
#10832
16
#11322
17
#12600
b10 !
0&
#13422
07
#14700
b11 !
1&
#15522
17
#16800
b10 !
0&
#17622
07
#18900
b11 !
1&
#19722
17
#21000
b10 !
0&
#21822
07
#23100
b11 !
1&
#23922
17
#25200
b10 !
0&
#26022
07
#27300
b11 !
1&
#28122
17
#29400
b10 !
0&
#30222
07
#31500
b11 !
1&
#32322
17
#33600
b10 !
0&
#34422
07
#35700
b11 !
1&
#36522
17
#37800
b10 !
0&
#38622
07
#39900
b11 !
1&
#40722
17
#42000
b10 !
0&
#42822
07
#44100
b11 !
1&
#44922
17
#46200
b10 !
0&
#47022
07
#48300
b11 !
1&
#49122
17
#50400
b10 !
0&
#51222
07
#52500
b11 !
1&
#53322
17
#54600
b10 !
0&
#55422
07
#56700
b11 !
1&
#57522
17
#58800
b10 !
0&
#59622
07
#60900
b11 !
1&
#61722
17
#63000
b10 !
0&
#63822
07
#65100
b11 !
1&
#65922
17
#67200
b10 !
0&
#68022
07
#69300
b11 !
1&
#70122
17
#71400
b10 !
0&
#72222
07
#73500
b11 !
1&
#74322
17
#75600
b10 !
0&
#76422
07
#77700
b11 !
1&
#78522
17
#79800
b10 !
0&
#80622
07
#81900
b11 !
1&
#82722
17
#84000
b10 !
0&
#84822
07
#86100
b11 !
1&
#86922
17
#88200
b10 !
0&
#89022
07
#90300
b11 !
1&
#91122
17
#92400
b10 !
0&
#93222
07
#94500
b11 !
1&
#95322
17
#96600
b10 !
0&
#97422
07
#98700
b11 !
1&
#99522
17
#100800
b10 !
0&
#101622
07
#102900
b11 !
1&
#103722
17
#105000
b10 !
0&
#105822
07
#107100
b11 !
1&
#107922
17
#109200
b10 !
0&
#110022
07
#111300
b11 !
1&
#112122
17
#113400
b10 !
0&
#114222
07
#115500
b11 !
1&
#116322
17
#117600
b10 !
0&
#118422
07
#119700
b11 !
1&
#120522
17
#121800
b10 !
0&
#122622
07
#123900
b11 !
1&
#124722
17
#126000
b10 !
0&
#126822
07
#128100
b11 !
1&
#128922
17
#130200
b10 !
0&
#131022
07
#132300
b11 !
1&
#133122
17
#134400
b10 !
0&
#135222
07
#136500
b11 !
1&
#137322
17
#138600
b10 !
0&
#139422
07
#140700
b11 !
1&
#141522
17
#142800
b10 !
0&
#143622
07
#144900
b11 !
1&
#145722
17
#147000
b10 !
0&
#147822
07
#149100
b11 !
1&
#149922
17
#151200
b10 !
0&
#152022
07
#153300
b11 !
1&
#154122
17
#155400
b10 !
0&
#156222
07
#157500
b11 !
1&
#158322
17
#159600
b10 !
0&
#160422
07
#161700
b11 !
1&
#162522
17
#163800
b10 !
0&
#164622
07
#165900
b11 !
1&
#166722
17
#168000
b10 !
0&
#168822
07
#170100
b11 !
1&
#170922
17
#172200
b10 !
0&
#173022
07
#174300
b11 !
1&
#175122
17
#176400
b10 !
0&
#177222
07
#178500
b11 !
1&
#179322
17
#180600
b10 !
0&
#181422
07
#182700
b11 !
1&
#183522
17
#184800
b10 !
0&
#185622
07
#186900
b11 !
1&
#187722
17
#189000
b10 !
0&
#189822
07
#191100
b11 !
1&
#191922
17
#193200
b10 !
0&
#194022
07
#195300
b11 !
1&
#196122
17
#197400
b10 !
0&
#198222
07
#199500
b11 !
1&
#200322
17
#201600
b10 !
0&
#202422
07
#203700
b11 !
1&
#204522
17
#205800
b10 !
0&
#206622
07
#207900
b11 !
1&
#208722
17
#210000
b10 !
0&
#210822
07
#212100
b11 !
1&
#212922
17
#214200
b10 !
0&
#215022
07
#216300
b11 !
1&
#217122
17
#218400
b10 !
0&
#219222
07
#220500
b11 !
1&
#221322
17
#222600
b10 !
0&
#223422
07
#224700
b11 !
1&
#225522
17
#226800
b10 !
0&
#227622
07
#228900
b11 !
1&
#229722
17
#231000
b10 !
0&
#231822
07
#233100
b11 !
1&
#233922
17
#235200
b10 !
0&
#236022
07
#237300
b11 !
1&
#238122
17
#239400
b10 !
0&
#240222
07
#241500
b11 !
1&
#242322
17
#243600
b10 !
0&
#244422
07
#245700
b11 !
1&
#246522
17
#247800
b10 !
0&
#248622
07
#249900
b11 !
1&
#250722
17
#252000
b10 !
0&
#252822
07
#254100
b11 !
1&
#254922
17
#256200
b10 !
0&
#257022
07
#258300
b11 !
1&
#259122
17
#260400
b10 !
0&
#261222
07
#262500
b11 !
1&
#263322
17
#264600
b10 !
0&
#265422
07
#266700
b11 !
1&
#267522
17
#268800
b10 !
0&
#269622
07
#270900
b11 !
1&
#271722
17
#273000
b10 !
0&
#273822
07
#275100
b11 !
1&
#275922
17
#277200
b10 !
0&
#278022
07
#279300
b11 !
1&
#280122
17
#281400
b10 !
0&
#282222
07
#283500
b11 !
1&
#284322
17
#285600
b10 !
0&
#286422
07
#287700
b11 !
1&
#288522
17
#289800
b10 !
0&
#290622
07
#291900
b11 !
1&
#292722
17
#294000
b10 !
0&
#294822
07
#296100
b11 !
1&
#296922
17
#298200
b10 !
0&
#299022
07
#300300
b11 !
1&
#301122
17
#302400
b10 !
0&
#303222
07
#304500
b11 !
1&
#305322
17
#306600
b10 !
0&
#307422
07
#308700
b11 !
1&
#309522
17
#310800
b10 !
0&
#311622
07
#312900
b11 !
1&
#313722
17
#315000
b10 !
0&
#315822
07
#317100
b11 !
1&
#317922
17
#319200
b10 !
0&
#320022
07
#321300
b11 !
1&
#322122
17
#323400
b10 !
0&
#324222
07
#325500
b11 !
1&
#326322
17
#327600
b10 !
0&
#328422
07
#329700
b11 !
1&
#330522
17
#331800
b10 !
0&
#332622
07
#333900
b11 !
1&
#334722
17
#336000
b10 !
0&
#336822
07
#338100
b11 !
1&
#338922
17
#340200
b10 !
0&
#341022
07
#342300
b11 !
1&
#343122
17
#344400
b10 !
0&
#345222
07
#346500
b11 !
1&
#347322
17
#348600
b10 !
0&
#349422
07
#350700
b11 !
1&
#351522
17
#352800
b10 !
0&
#353622
07
#354900
b11 !
1&
#355722
17
#357000
b10 !
0&
#357822
07
#359100
b11 !
1&
#359922
17
#361200
b10 !
0&
#362022
07
#363300
b11 !
1&
#364122
17
#365400
b10 !
0&
#366222
07
#367500
b11 !
1&
#368322
17
#369600
b10 !
0&
#370422
07
#371700
b11 !
1&
#372522
17
#373800
b10 !
0&
#374622
07
#375900
b11 !
1&
#376722
17
#378000
b10 !
0&
#378822
07
#380100
b11 !
1&
#380922
17
#382200
b10 !
0&
#383022
07
#384300
b11 !
1&
#385122
17
#386400
b10 !
0&
#387222
07
#388500
b11 !
1&
#389322
17
#390600
b10 !
0&
#391422
07
#392700
b11 !
1&
#393522
17
#394800
b10 !
0&
#395622
07
#396900
b11 !
1&
#397722
17
#399000
b10 !
0&
#399822
07
#401100
b11 !
1&
#401922
17
#403200
b10 !
0&
#404022
07
#405300
b11 !
1&
#406122
17
#407400
b10 !
0&
#408222
07
#409500
b11 !
1&
#410322
17
#411600
b10 !
0&
#412422
07
#413700
b11 !
1&
#414522
17
#415800
b10 !
0&
#416622
07
#417900
b11 !
1&
#418722
17
#420000
b10 !
0&
#420822
07
#422100
b11 !
1&
#422922
17
#424200
b10 !
0&
#425022
07
#426300
b11 !
1&
#427122
17
#428400
b10 !
0&
#429222
07
#430500
b11 !
1&
#431322
17
#432600
b10 !
0&
#433422
07
#434700
b11 !
1&
#435522
17
#436800
b10 !
0&
#437622
07
#438900
b11 !
1&
#439722
17
#441000
b10 !
0&
#441822
07
#443100
b11 !
1&
#443922
17
#445200
b10 !
0&
#446022
07
#447300
b11 !
1&
#448122
17
#449400
b10 !
0&
#450222
07
#451500
b11 !
1&
#452322
17
#453600
b10 !
0&
#454422
07
#455700
b11 !
1&
#456522
17
#457800
b10 !
0&
#458622
07
#459900
b11 !
1&
#460722
17
#462000
b10 !
0&
#462822
07
#464100
b11 !
1&
#464922
17
#466200
b10 !
0&
#467022
07
#468300
b11 !
1&
#469122
17
#470400
b10 !
0&
#471222
07
#472500
b11 !
1&
#473322
17
#474600
b10 !
0&
#475422
07
#476700
b11 !
1&
#477522
17
#478800
b10 !
0&
#479622
07
#480900
b11 !
1&
#481722
17
#483000
b10 !
0&
#483822
07
#485100
b11 !
1&
#485922
17
#487200
b10 !
0&
#488022
07
#489300
b11 !
1&
#490122
17
#491400
b10 !
0&
#492222
07
#493500
b11 !
1&
#494322
17
#495600
b10 !
0&
#496422
07
#497700
b11 !
1&
#498522
17
#499800
b10 !
0&
#500622
07
#501900
b11 !
1&
#502722
17
#504000
b10 !
0&
#504822
07
#506100
b11 !
1&
#506922
17
#508200
b10 !
0&
#509022
07
#510300
b11 !
1&
#511122
17
#512400
b10 !
0&
#513222
07
#514500
b11 !
1&
#515322
17
#516600
b10 !
0&
#517422
07
#518700
b11 !
1&
#519522
17
#520800
b10 !
0&
#521622
07
#522900
b11 !
1&
#523722
17
#525000
b10 !
0&
#525822
07
#527100
b11 !
1&
#527922
17
#529200
b10 !
0&
#530022
07
#531300
b11 !
1&
#532122
17
#533400
b10 !
0&
#534222
07
#535500
b11 !
1&
#536322
17
#537600
b10 !
0&
#538422
07
#539700
b11 !
1&
#540522
17
#541800
b10 !
0&
#542622
07
#543900
b11 !
1&
#544722
17
#546000
b10 !
0&
#546822
07
#548100
b11 !
1&
#548922
17
#550200
b10 !
0&
#551022
07
#552300
b11 !
1&
#553122
17
#554400
b10 !
0&
#555222
07
#556500
b11 !
1&
#557322
17
#558600
b10 !
0&
#559422
07
#560700
b11 !
1&
#561522
17
#562800
b10 !
0&
#563622
07
#564900
b11 !
1&
#565722
17
#567000
b10 !
0&
#567822
07
#569100
b11 !
1&
#569922
17
#571200
b10 !
0&
#572022
07
#573300
b11 !
1&
#574122
17
#575400
b10 !
0&
#576222
07
#577500
b11 !
1&
#578322
17
#579600
b10 !
0&
#580422
07
#581700
b11 !
1&
#582522
17
#583800
b10 !
0&
#584622
07
#585900
b11 !
1&
#586722
17
#588000
b10 !
0&
#588822
07
#590100
b11 !
1&
#590922
17
#592200
b10 !
0&
#593022
07
#594300
b11 !
1&
#595122
17
#596400
b10 !
0&
#597222
07
#598500
b11 !
1&
#599322
17
#600600
b10 !
0&
#601422
07
#602700
b11 !
1&
#603522
17
#604800
b10 !
0&
#605622
07
#606900
b11 !
1&
#607722
17
#609000
b10 !
0&
#609822
07
#611100
b11 !
1&
#611922
17
#613200
b10 !
0&
#614022
07
#615300
b11 !
1&
#616122
17
#617400
b10 !
0&
#618222
07
#619500
b11 !
1&
#620322
17
#621600
b10 !
0&
#622422
07
#623700
b11 !
1&
#624522
17
#625800
b10 !
0&
#626622
07
#627900
b11 !
1&
#628722
17
#630000
b10 !
0&
#630822
07
#632100
b11 !
1&
#632922
17
#634200
b10 !
0&
#635022
07
#636300
b11 !
1&
#637122
17
#638400
b10 !
0&
#639222
07
#640500
b11 !
1&
#641322
17
#642600
b10 !
0&
#643422
07
#644700
b11 !
1&
#645522
17
#646800
b10 !
0&
#647622
07
#648900
b11 !
1&
#649722
17
#651000
b10 !
0&
#651822
07
#653100
b11 !
1&
#653922
17
#655200
b10 !
0&
#656022
07
#657300
b11 !
1&
#658122
17
#659400
b10 !
0&
#660222
07
#661500
b11 !
1&
#662322
17
#663600
b10 !
0&
#664422
07
#665700
b11 !
1&
#666522
17
#667800
b10 !
0&
#668622
07
#669900
b11 !
1&
#670722
17
#672000
b10 !
0&
#672822
07
#674100
b11 !
1&
#674922
17
#676200
b10 !
0&
#677022
07
#678300
b11 !
1&
#679122
17
#680400
b10 !
0&
#681222
07
#682500
b11 !
1&
#683322
17
#684600
b10 !
0&
#685422
07
#686700
b11 !
1&
#687522
17
#688800
b10 !
0&
#689622
07
#690900
b11 !
1&
#691722
17
#693000
b10 !
0&
#693822
07
#695100
b11 !
1&
#695922
17
#697200
b10 !
0&
#698022
07
#699300
b11 !
1&
#700122
17
#701400
b10 !
0&
#702222
07
#703500
b11 !
1&
#704322
17
#705600
b10 !
0&
#706422
07
#707700
b11 !
1&
#708522
17
#709800
b10 !
0&
#710622
07
#711900
b11 !
1&
#712722
17
#714000
b10 !
0&
#714822
07
#716100
b11 !
1&
#716922
17
#718200
b10 !
0&
#719022
07
#720300
b11 !
1&
#721122
17
#722400
b10 !
0&
#723222
07
#724500
b11 !
1&
#725322
17
#726600
b10 !
0&
#727422
07
#728700
b11 !
1&
#729522
17
#730800
b10 !
0&
#731622
07
#732900
b11 !
1&
#733722
17
#735000
b10 !
0&
#735822
07
#737100
b11 !
1&
#737922
17
#739200
b10 !
0&
#740022
07
#741300
b11 !
1&
#742122
17
#743400
b10 !
0&
#744222
07
#745500
b11 !
1&
#746322
17
#747600
b10 !
0&
#748422
07
#749700
b11 !
1&
#750522
17
#751800
b10 !
0&
#752622
07
#753900
b11 !
1&
#754722
17
#756000
b10 !
0&
#756822
07
#758100
b11 !
1&
#758922
17
#760200
b10 !
0&
#761022
07
#762300
b11 !
1&
#763122
17
#764400
b10 !
0&
#765222
07
#766500
b11 !
1&
#767322
17
#768600
b10 !
0&
#769422
07
#770700
b11 !
1&
#771522
17
#772800
b10 !
0&
#773622
07
#774900
b11 !
1&
#775722
17
#777000
b10 !
0&
#777822
07
#779100
b11 !
1&
#779922
17
#781200
b10 !
0&
#782022
07
#783300
b11 !
1&
#784122
17
#785400
b10 !
0&
#786222
07
#787500
b11 !
1&
#788322
17
#789600
b10 !
0&
#790422
07
#791700
b11 !
1&
#792522
17
#793800
b10 !
0&
#794622
07
#795900
b11 !
1&
#796722
17
#798000
b10 !
0&
#798822
07
#800100
b11 !
1&
#800922
17
#802200
b10 !
0&
#803022
07
#804300
b11 !
1&
#805122
17
#806400
b10 !
0&
#807222
07
#808500
b11 !
1&
#809322
17
#810600
b10 !
0&
#811422
07
#812700
b11 !
1&
#813522
17
#814800
b10 !
0&
#815622
07
#816900
b11 !
1&
#817722
17
#819000
b10 !
0&
#819822
07
#821100
b11 !
1&
#821922
17
#823200
b10 !
0&
#824022
07
#825300
b11 !
1&
#826122
17
#827400
b10 !
0&
#828222
07
#829500
b11 !
1&
#830322
17
#831600
b10 !
0&
#832422
07
#833700
b11 !
1&
#834522
17
#835800
b10 !
0&
#836622
07
#837900
b11 !
1&
#838722
17
#840000
b10 !
0&
#840822
07
#842100
b11 !
1&
#842922
17
#844200
b10 !
0&
#845022
07
#846300
b11 !
1&
#847122
17
#848400
b10 !
0&
#849222
07
#850500
b11 !
1&
#851322
17
#852600
b10 !
0&
#853422
07
#854700
b11 !
1&
#855522
17
#856800
b10 !
0&
#857622
07
#858900
b11 !
1&
#859722
17
#861000
b10 !
0&
#861822
07
#863100
b11 !
1&
#863922
17
#865200
b10 !
0&
#866022
07
#867300
b11 !
1&
#868122
17
#869400
b10 !
0&
#870222
07
#871500
b11 !
1&
#872322
17
#873600
b10 !
0&
#874422
07
#875700
b11 !
1&
#876522
17
#877800
b10 !
0&
#878622
07
#879900
b11 !
1&
#880722
17
#882000
b10 !
0&
#882822
07
#884100
b11 !
1&
#884922
17
#886200
b10 !
0&
#887022
07
#888300
b11 !
1&
#889122
17
#890400
b10 !
0&
#891222
07
#892500
b11 !
1&
#893322
17
#894600
b10 !
0&
#895422
07
#896700
b11 !
1&
#897522
17
#898800
b10 !
0&
#899622
07
#900900
b11 !
1&
#901722
17
#903000
b10 !
0&
#903822
07
#905100
b11 !
1&
#905922
17
#907200
b10 !
0&
#908022
07
#909300
b11 !
1&
#910122
17
#911400
b10 !
0&
#912222
07
#913500
b11 !
1&
#914322
17
#915600
b10 !
0&
#916422
07
#917700
b11 !
1&
#918522
17
#919800
b10 !
0&
#920622
07
#921900
b11 !
1&
#922722
17
#924000
b10 !
0&
#924822
07
#926100
b11 !
1&
#926922
17
#928200
b10 !
0&
#929022
07
#930300
b11 !
1&
#931122
17
#932400
b10 !
0&
#933222
07
#934500
b11 !
1&
#935322
17
#936600
b10 !
0&
#937422
07
#938700
b11 !
1&
#939522
17
#940800
b10 !
0&
#941622
07
#942900
b11 !
1&
#943722
17
#945000
b10 !
0&
#945822
07
#947100
b11 !
1&
#947922
17
#949200
b10 !
0&
#950022
07
#951300
b11 !
1&
#952122
17
#953400
b10 !
0&
#954222
07
#955500
b11 !
1&
#956322
17
#957600
b10 !
0&
#958422
07
#959700
b11 !
1&
#960522
17
#961800
b10 !
0&
#962622
07
#963900
b11 !
1&
#964722
17
#966000
b10 !
0&
#966822
07
#968100
b11 !
1&
#968922
17
#970200
b10 !
0&
#971022
07
#972300
b11 !
1&
#973122
17
#974400
b10 !
0&
#975222
07
#976500
b11 !
1&
#977322
17
#978600
b10 !
0&
#979422
07
#980700
b11 !
1&
#981522
17
#982800
b10 !
0&
#983622
07
#984900
b11 !
1&
#985722
17
#987000
b10 !
0&
#987822
07
#989100
b11 !
1&
#989922
17
#991200
b10 !
0&
#992022
07
#993300
b11 !
1&
#994122
17
#995400
b10 !
0&
#996222
07
#997500
b11 !
1&
#998322
17
#999600
b10 !
0&
