PTC/Cwiczenie5_5/simulation/qsim/Cwiczenie5_5.msim.vcd
$comment
	File created using the following command:
		vcd file Cwiczenie5_5.msim.vcd -direction
$end
$date
	Sat Dec 16 18:34:53 2017
$end
$version
	ModelSim Version 10.1d
$end
$timescale
	1ps
$end
$scope module Cwiczenie5_5_vlg_vec_tst $end
$var reg 4 ! a [3:0] $end
$var reg 4 " b [3:0] $end
$var reg 1 # clk $end
$var wire 1 $ w [7] $end
$var wire 1 % w [6] $end
$var wire 1 & w [5] $end
$var wire 1 ' w [4] $end
$var wire 1 ( w [3] $end
$var wire 1 ) w [2] $end
$var wire 1 * w [1] $end
$var wire 1 + w [0] $end
$var wire 1 , sampler $end
$scope module i1 $end
$var wire 1 - gnd $end
$var wire 1 . vcc $end
$var wire 1 / unknown $end
$var tri1 1 0 devclrn $end
$var tri1 1 1 devpor $end
$var tri1 1 2 devoe $end
$var wire 1 3 mul0|part1|comb~1_combout $end
$var wire 1 4 clk~combout $end
$var wire 1 5 clk~clkctrl_outclk $end
$var wire 1 6 mul0|regb|dff0|shortdff~regout $end
$var wire 1 7 mul0|regout|dff0|shortdff~regout $end
$var wire 1 8 mul0|rega|dff0|shortdff~regout $end
$var wire 1 9 mul0|regb|dff1|shortdff~regout $end
$var wire 1 : mul0|part1|sum0|s~0_combout $end
$var wire 1 ; mul0|regout|dff1|shortdff~regout $end
$var wire 1 < mul0|regb|dff2|shortdff~regout $end
$var wire 1 = mul0|rega|dff2|shortdff~regout $end
$var wire 1 > mul0|part2|sum0|s~3_combout $end
$var wire 1 ? mul0|part2|sum0|s~2_combout $end
$var wire 1 @ mul0|regout|dff2|shortdff~regout $end
$var wire 1 A mul0|regb|dff3|shortdff~regout $end
$var wire 1 B mul0|rega|dff1|shortdff~regout $end
$var wire 1 C mul0|part1|sum0|cout~0_combout $end
$var wire 1 D mul0|part1|comb~0_combout $end
$var wire 1 E mul0|part1|sum1|cout~0_combout $end
$var wire 1 F mul0|rega|dff3|shortdff~regout $end
$var wire 1 G mul0|part1|sum2|s~0_combout $end
$var wire 1 H mul0|part2|sum0|cout~0_combout $end
$var wire 1 I mul0|part2|sum0|cout~1_combout $end
$var wire 1 J mul0|part2|sum1|s~combout $end
$var wire 1 K mul0|part3|sum0|s~0_combout $end
$var wire 1 L mul0|regout|dff3|shortdff~regout $end
$var wire 1 M mul0|part2|sum1|cout~0_combout $end
$var wire 1 N mul0|part2|comb~0_combout $end
$var wire 1 O mul0|part3|sum0|cout~0_combout $end
$var wire 1 P mul0|part3|sum0|cout~1_combout $end
$var wire 1 Q mul0|part1|comb~2_combout $end
$var wire 1 R mul0|part1|sum2|cout~0_combout $end
$var wire 1 S mul0|part2|sum2|s~0_combout $end
$var wire 1 T mul0|part3|sum1|s~combout $end
$var wire 1 U mul0|regout|dff4|shortdff~regout $end
$var wire 1 V mul0|part3|comb~1_combout $end
$var wire 1 W mul0|part2|sum3|s~2_combout $end
$var wire 1 X mul0|part3|comb~0_combout $end
$var wire 1 Y mul0|part3|sum1|cout~0_combout $end
$var wire 1 Z mul0|part3|sum2|s~combout $end
$var wire 1 [ mul0|regout|dff5|shortdff~regout $end
$var wire 1 \ mul0|part2|comb~2_combout $end
$var wire 1 ] mul0|part2|comb~1_combout $end
$var wire 1 ^ mul0|part2|sum2|cout~0_combout $end
$var wire 1 _ mul0|part2|sum3|cout~0_combout $end
$var wire 1 ` mul0|part3|sum2|cout~0_combout $end
$var wire 1 a mul0|part3|sum3|s~0_combout $end
$var wire 1 b mul0|regout|dff6|shortdff~regout $end
$var wire 1 c mul0|part3|sum3|cout~0_combout $end
$var wire 1 d mul0|regout|dff7|shortdff~regout $end
$var wire 1 e mul0|s0 [3] $end
$var wire 1 f mul0|s0 [2] $end
$var wire 1 g mul0|s0 [1] $end
$var wire 1 h mul0|s0 [0] $end
$var wire 1 i b~combout [3] $end
$var wire 1 j b~combout [2] $end
$var wire 1 k b~combout [1] $end
$var wire 1 l b~combout [0] $end
$var wire 1 m a~combout [3] $end
$var wire 1 n a~combout [2] $end
$var wire 1 o a~combout [1] $end
$var wire 1 p a~combout [0] $end
$upscope $end
$upscope $end
$enddefinitions $end
#0
$dumpvars
b1100 !
b1101 "
0#
x+
x*
x)
x(
x'
x&
x%
x$
x,
0-
1.
x/
10
11
12
x3
04
x5
06
07
08
09
x:
0;
0<
0=
x>
x?
0@
0A
0B
0C
xD
xE
0F
xG
xH
0I
xJ
xK
0L
xM
0N
xO
xP
0Q
xR
xS
xT
0U
xV
xW
xX
xY
xZ
0[
x\
x]
x^
x_
x`
xa
0b
xc
0d
xh
zg
zf
ze
1l
0k
1j
1i
0p
0o
1n
1m
$end
#114
05
#482
0G
#483
03
#493
0X
#613
0H
#635
0V
#718
0D
#742
0E
#770
0P
#812
0]
#896
0h
#907
0\
#909
0M
#1158
0>
#1168
0O
#1203
0W
#1378
0R
#1430
0:
#1443
0J
#1508
0^
#1577
0Y
#1748
0?
#1770
0_
#1795
0S
#1975
0Z
#2023
0K
#2043
0`
#2311
0c
#2400
0T
#2465
0a
#3167
0)
#3300
0$
#3448
0*
#3466
0+
#3600
0&
#3616
0'
#3618
0%
#3642
0(
#25000
1#
0,
#25989
14
#26103
15
#28038
16
1<
1=
1F
#28039
1A
#28717
1>
#28778
1G
#28914
1\
#29018
1H
#29032
1V
#29227
1]
#29230
1S
#29241
1W
#29244
1a
#29307
1?
#29514
1O
#29515
1J
#29835
1T
#30095
1K
#30152
1`
#30572
1c
#30574
0a
#50000
0#
1,
#50989
04
#51103
05
#75000
1#
0,
#75989
14
#76103
15
#78038
1@
#78039
1d
1U
1L
#81205
1)
#81339
1$
#81655
1'
#81681
1(
#100000
0#
1,
#100989
04
#101103
05
#125000
1#
0,
#125989
14
#126103
15
#150000
0#
1,
#150989
04
#151103
05
#175000
1#
0,
#175989
14
#176103
15
#200000
0#
1,
#200989
04
#201103
05
#225000
1#
0,
#225989
14
#226103
15
#250000
0#
1,
#250989
04
#251103
05
#275000
1#
0,
#275989
14
#276103
15
#300000
0#
1,
#300989
04
#301103
05
#325000
1#
0,
#325989
14
#326103
15
#350000
0#
1,
#350989
04
#351103
05
#375000
1#
0,
#375989
14
#376103
15
#400000
0#
1,
#400989
04
#401103
05
#425000
1#
0,
#425989
14
#426103
15
#450000
0#
1,
#450989
04
#451103
05
#475000
1#
0,
#475989
14
#476103
15
#500000
0#
1,
#500989
04
#501103
05
#525000
1#
0,
#525989
14
#526103
15
#550000
0#
1,
#550989
04
#551103
05
#575000
1#
0,
#575989
14
#576103
15
#600000
0#
1,
#600989
04
#601103
05
#625000
1#
0,
#625989
14
#626103
15
#650000
0#
1,
#650989
04
#651103
05
#675000
1#
0,
#675989
14
#676103
15
#700000
0#
1,
#700989
04
#701103
05
#725000
1#
0,
#725989
14
#726103
15
#750000
0#
1,
#750989
04
#751103
05
#775000
1#
0,
#775989
14
#776103
15
#800000
0#
1,
#800989
04
#801103
05
#825000
1#
0,
#825989
14
#826103
15
#850000
0#
1,
#850989
04
#851103
05
#875000
1#
0,
#875989
14
#876103
15
#900000
0#
1,
#900989
04
#901103
05
#925000
1#
0,
#925989
14
#926103
15
#950000
0#
1,
#950989
04
#951103
05
#975000
1#
0,
#975989
14
