PTC/Cwiczenie3_3/simulation/qsim/Cwiczenie3_3.msim.vcd
$comment
	File created using the following command:
		vcd file Cwiczenie3_3.msim.vcd -direction
$end
$date
	Tue Nov 14 14:34:28 2017
$end
$version
	ModelSim Version 10.1d
$end
$timescale
	1ps
$end
$scope module Cwiczenie3_3_vlg_vec_tst $end
$var reg 2 ! iSW [1:0] $end
$var wire 1 " oLEDG [7] $end
$var wire 1 # oLEDG [6] $end
$var wire 1 $ oLEDG [5] $end
$var wire 1 % oLEDG [4] $end
$var wire 1 & oLEDG [3] $end
$var wire 1 ' oLEDG [2] $end
$var wire 1 ( oLEDG [1] $end
$var wire 1 ) oLEDG [0] $end
$var wire 1 * sampler $end
$scope module i1 $end
$var wire 1 + gnd $end
$var wire 1 , vcc $end
$var wire 1 - unknown $end
$var tri1 1 . devclrn $end
$var tri1 1 / devpor $end
$var tri1 1 0 devoe $end
$var wire 1 1 inst2|sub|126~combout $end
$var wire 1 2 inst2|sub|122~regout $end
$var wire 1 3 inst9~1_combout $end
$var wire 1 4 inst1|sub|68~combout $end
$var wire 1 5 inst1|sub|34~regout $end
$var wire 1 6 inst1|sub|126~combout $end
$var wire 1 7 inst1|sub|122~regout $end
$var wire 1 8 inst1|sub|115~combout $end
$var wire 1 9 inst1|sub|111~regout $end
$var wire 1 : inst9~0_combout $end
$var wire 1 ; instnor~combout $end
$var wire 1 < inst2|sub|68~combout $end
$var wire 1 = inst2|sub|34~regout $end
$var wire 1 > inst2|sub|115~combout $end
$var wire 1 ? inst2|sub|111~regout $end
$var wire 1 @ inst2|sub|108~0_combout $end
$var wire 1 A inst2|sub|130~0_combout $end
$var wire 1 B inst2|sub|137~combout $end
$var wire 1 C inst2|sub|134~regout $end
$var wire 1 D inst1|sub|131~combout $end
$var wire 1 E inst1|sub|137~combout $end
$var wire 1 F inst1|sub|134~regout $end
$var wire 1 G iSW~combout [1] $end
$var wire 1 H iSW~combout [0] $end
$upscope $end
$upscope $end
$enddefinitions $end
#0
$dumpvars
b10 !
x)
x(
x'
x&
x%
x$
x#
x"
x*
0+
1,
x-
1.
1/
10
x1
02
x3
x4
05
x6
07
x8
09
x:
x;
x<
0=
x>
0?
x@
xA
xB
0C
xD
xE
0F
0H
1G
$end
#721
0A
#726
0@
#751
0:
#756
03
#796
06
#919
0D
#936
08
#959
0B
#1135
0>
#1394
01
#1457
0<
#1634
0E
#3000
b11 !
0*
#3137
0"
#3417
0$
#3451
0%
#3738
0'
#3822
1H
#3937
0(
#3950
0#
#4024
0&
#4049
0)
#5198
04
#5238
1;
#5284
x5
#6000
b10 !
1*
#6822
0H
#9000
b11 !
0*
#9333
x)
#9822
1H
#10000
b1 !
1*
#10832
0G
#11284
05
#12000
b0 !
0*
#12822
0H
#15000
b1 !
1*
#15333
0)
#15822
1H
#16030
14
#16070
0;
#17284
15
#17607
04
#18000
b0 !
0*
#18220
18
#18822
0H
#21000
b1 !
1*
#21333
1)
#21822
1H
#23284
05
19
#23607
08
14
#24000
b0 !
0*
#24220
18
#24822
0H
#27000
b1 !
1*
#27221
1(
#27333
0)
#27822
1H
#29284
15
#29607
04
#30000
b0 !
0*
#30220
16
08
#30822
0H
#33000
b1 !
1*
#33333
1)
#33822
1H
#35284
05
17
09
#35607
18
06
14
#35906
1:
#36000
b0 !
0*
#36080
16
#36220
08
#36822
0H
#39000
b1 !
1*
#39022
1'
#39221
0(
#39333
0)
#39822
1H
#41284
15
#41607
04
#41776
0:
#42000
b0 !
0*
#42220
18
#42822
0H
#45000
b1 !
1*
#45333
1)
#45822
1H
#47284
05
19
#47607
08
14
#48000
b0 !
0*
#48220
18
#48822
0H
#51000
b1 !
1*
#51221
1(
#51333
0)
#51822
1H
#53284
15
#53607
04
#54000
b0 !
0*
#54220
06
08
#54222
1D
#54822
0H
#54937
1E
#57000
b1 !
1*
#57333
1)
#57822
1H
#59284
05
07
09
1F
#59607
18
16
14
#60000
b0 !
0*
#60080
06
#60220
08
#60822
0H
#63000
b1 !
1*
#63022
0'
#63221
0(
#63308
1&
#63333
0)
#63822
1H
#65284
15
#65607
04
#66000
b0 !
0*
#66220
18
#66822
0H
#69000
b1 !
1*
#69333
1)
#69822
1H
#71284
05
19
#71607
08
14
#72000
b0 !
0*
#72220
18
#72822
0H
#75000
b1 !
1*
#75221
1(
#75333
0)
#75822
1H
#77284
15
#77607
04
#78000
b0 !
0*
#78220
16
08
#78822
0H
#81000
b1 !
1*
#81333
1)
#81822
1H
#83284
05
17
09
#83607
18
06
14
#84000
b0 !
0*
#84080
16
#84220
08
#84822
0H
#87000
b1 !
1*
#87022
1'
#87221
0(
#87333
0)
#87822
1H
#89284
15
#89607
04
#90000
b0 !
0*
#90220
18
#90822
0H
#93000
b1 !
1*
#93333
1)
#93822
1H
#95284
05
19
#95607
08
14
#96000
b0 !
0*
#96220
18
#96822
0H
#99000
b1 !
1*
#99221
1(
#99333
0)
#99822
1H
#101284
15
#101607
04
#101777
1@
#102000
b0 !
0*
#102220
06
08
#102222
0D
#102508
1<
#102822
0H
#102937
0E
#105000
b1 !
1*
#105333
1)
#105822
1H
#107284
05
07
09
1=
0F
#107607
0<
18
16
14
#108000
b0 !
0*
#108010
0@
#108080
06
#108220
08
#108741
1<
#108822
0H
#110735
1%
#111000
b1 !
1*
#111022
0'
#111221
0(
#111308
0&
#111333
0)
#111822
1H
#113284
15
#113607
04
#114000
b0 !
0*
#114220
18
#114822
0H
#117000
b1 !
1*
#117333
1)
#117822
1H
#119284
05
19
#119607
08
14
#120000
b0 !
0*
#120220
18
#120822
0H
#123000
b1 !
1*
#123221
1(
#123333
0)
#123822
1H
#125284
15
#125607
04
#126000
b0 !
0*
#126220
16
08
#126822
0H
#129000
b1 !
1*
#129333
1)
#129822
1H
#131284
05
17
09
#131607
18
06
14
#131906
1:
#132000
b0 !
0*
#132080
16
#132220
08
#132822
0H
#135000
b1 !
1*
#135022
1'
#135221
0(
#135333
0)
#135822
1H
#137284
15
#137607
04
#137776
0:
#138000
b0 !
0*
#138220
18
#138822
0H
#141000
b1 !
1*
#141333
1)
#141822
1H
#143284
05
19
#143607
08
14
#144000
b0 !
0*
#144220
18
#144822
0H
#147000
b1 !
1*
#147221
1(
#147333
0)
#147822
1H
#149284
15
#149607
04
#150000
b0 !
0*
#150220
06
08
#150222
1D
#150822
0H
#150937
1E
#153000
b1 !
1*
#153333
1)
#153822
1H
#155284
05
07
09
1F
#155607
18
16
14
#156000
b0 !
0*
#156080
06
#156220
08
#156822
0H
#159000
b1 !
1*
#159022
0'
#159221
0(
#159308
1&
#159333
0)
#159822
1H
#161284
15
#161607
04
#162000
b0 !
0*
#162220
18
#162822
0H
#165000
b1 !
1*
#165333
1)
#165822
1H
#167284
05
19
#167607
08
14
#168000
b0 !
0*
#168220
18
#168822
0H
#171000
b1 !
1*
#171221
1(
#171333
0)
#171822
1H
#173284
15
#173607
04
#174000
b0 !
0*
#174220
16
08
#174822
0H
#177000
b1 !
1*
#177333
1)
#177822
1H
#179284
05
17
09
#179607
18
06
14
#180000
b0 !
0*
#180080
16
#180220
08
#180822
0H
#183000
b1 !
1*
#183022
1'
#183221
0(
#183333
0)
#183822
1H
#185284
15
#185607
04
#186000
b0 !
0*
#186220
18
#186822
0H
#189000
b1 !
1*
#189333
1)
#189822
1H
#191284
05
19
#191607
08
14
#192000
b0 !
0*
#192220
18
#192822
0H
#195000
b1 !
1*
#195221
1(
#195333
0)
#195822
1H
#197284
15
#197607
04
#197777
1@
#198000
b0 !
0*
#198220
06
08
#198222
0D
#198508
0<
1>
#198822
0H
#198937
0E
#201000
b1 !
1*
#201333
1)
#201822
1H
#203284
05
07
09
0=
1?
0F
#203607
0>
1<
18
16
14
#204000
b0 !
0*
#204010
0@
#204080
06
#204220
08
#204419
1>
#204741
0<
#204822
0H
#206701
1$
#206735
0%
#207000
b1 !
1*
#207022
0'
#207221
0(
#207308
0&
#207333
0)
#207822
1H
#209284
15
#209607
04
#210000
b0 !
0*
#210220
18
#210822
0H
#213000
b1 !
1*
#213333
1)
#213822
1H
#215284
05
19
#215607
08
14
#216000
b0 !
0*
#216220
18
#216822
0H
#219000
b1 !
1*
#219221
1(
#219333
0)
#219822
1H
#221284
15
#221607
04
#222000
b0 !
0*
#222220
16
08
#222822
0H
#225000
b1 !
1*
#225333
1)
#225822
1H
#227284
05
17
09
#227607
18
06
14
#227906
1:
#228000
b0 !
0*
#228080
16
#228220
08
#228822
0H
#231000
b1 !
1*
#231022
1'
#231221
0(
#231333
0)
#231822
1H
#233284
15
#233607
04
#233776
0:
#234000
b0 !
0*
#234220
18
#234822
0H
#237000
b1 !
1*
#237333
1)
#237822
1H
#239284
05
19
#239607
08
14
#240000
b0 !
0*
#240220
18
#240822
0H
#243000
b1 !
1*
#243221
1(
#243333
0)
#243822
1H
#245284
15
#245607
04
#246000
b0 !
0*
#246220
06
08
#246222
1D
#246822
0H
#246937
1E
#249000
b1 !
1*
#249333
1)
#249822
1H
#251284
05
07
09
1F
#251607
18
16
14
#252000
b0 !
0*
#252080
06
#252220
08
#252822
0H
#255000
b1 !
1*
#255022
0'
#255221
0(
#255308
1&
#255333
0)
#255822
1H
#257284
15
#257607
04
#258000
b0 !
0*
#258220
18
#258822
0H
#261000
b1 !
1*
#261333
1)
#261822
1H
#263284
05
19
#263607
08
14
#264000
b0 !
0*
#264220
18
#264822
0H
#267000
b1 !
1*
#267221
1(
#267333
0)
#267822
1H
#269284
15
#269607
04
#270000
b0 !
0*
#270220
16
08
#270822
0H
#273000
b1 !
1*
#273333
1)
#273822
1H
#275284
05
17
09
#275607
18
06
14
#276000
b0 !
0*
#276080
16
#276220
08
#276822
0H
#279000
b1 !
1*
#279022
1'
#279221
0(
#279333
0)
#279822
1H
#281284
15
#281607
04
#282000
b0 !
0*
#282220
18
#282822
0H
#285000
b1 !
1*
#285333
1)
#285822
1H
#287284
05
19
#287607
08
14
#288000
b0 !
0*
#288220
18
#288822
0H
#291000
b1 !
1*
#291221
1(
#291333
0)
#291822
1H
#293284
15
#293607
04
#293777
1@
#294000
b0 !
0*
#294220
06
08
#294222
0D
#294508
1<
#294822
0H
#294937
0E
#297000
b1 !
1*
#297333
1)
#297822
1H
#299284
05
07
09
1=
0F
#299607
0<
18
16
14
#300000
b0 !
0*
#300010
0@
#300047
1A
#300080
06
#300220
08
#300435
0A
#300741
1<
#300822
0H
#302735
1%
#303000
b1 !
1*
#303022
0'
#303221
0(
#303308
0&
#303333
0)
#303822
1H
#305284
15
#305607
04
#306000
b0 !
0*
#306220
18
#306822
0H
#309000
b1 !
1*
#309333
1)
#309822
1H
#311284
05
19
#311607
08
14
#312000
b0 !
0*
#312220
18
#312822
0H
#315000
b1 !
1*
#315221
1(
#315333
0)
#315822
1H
#317284
15
#317607
04
#318000
b0 !
0*
#318220
16
08
#318822
0H
#321000
b1 !
1*
#321333
1)
#321822
1H
#323284
05
17
09
#323607
18
06
14
#323906
1:
#324000
b0 !
0*
#324080
16
#324220
08
#324822
0H
#327000
b1 !
1*
#327022
1'
#327221
0(
#327333
0)
#327822
1H
#329284
15
#329607
04
#329776
0:
#330000
b0 !
0*
#330220
18
#330822
0H
#333000
b1 !
1*
#333333
1)
#333822
1H
#335284
05
19
#335607
08
14
#336000
b0 !
0*
#336220
18
#336822
0H
#339000
b1 !
1*
#339221
1(
#339333
0)
#339822
1H
#341284
15
#341607
04
#342000
b0 !
0*
#342220
06
08
#342222
1D
#342822
0H
#342937
1E
#345000
b1 !
1*
#345333
1)
#345822
1H
#347284
05
07
09
1F
#347607
18
16
14
#348000
b0 !
0*
#348080
06
#348220
08
#348822
0H
#351000
b1 !
1*
#351022
0'
#351221
0(
#351308
1&
#351333
0)
#351822
1H
#353284
15
#353607
04
#354000
b0 !
0*
#354220
18
#354822
0H
#357000
b1 !
1*
#357333
1)
#357822
1H
#359284
05
19
#359607
08
14
#360000
b0 !
0*
#360220
18
#360822
0H
#363000
b1 !
1*
#363221
1(
#363333
0)
#363822
1H
#365284
15
#365607
04
#366000
b0 !
0*
#366220
16
08
#366822
0H
#369000
b1 !
1*
#369333
1)
#369822
1H
#371284
05
17
09
#371607
18
06
14
#372000
b0 !
0*
#372080
16
#372220
08
#372822
0H
#375000
b1 !
1*
#375022
1'
#375221
0(
#375333
0)
#375822
1H
#377284
15
#377607
04
#378000
b0 !
0*
#378220
18
#378822
0H
#381000
b1 !
1*
#381333
1)
#381822
1H
#383284
05
19
#383607
08
14
#384000
b0 !
0*
#384220
18
#384822
0H
#387000
b1 !
1*
#387221
1(
#387333
0)
#387822
1H
#389284
15
#389607
04
#389777
1@
#390000
b0 !
0*
#390202
1A
#390220
06
08
#390222
0D
#390508
0<
0>
#390822
0H
#390875
11
#390937
0E
#393000
b1 !
1*
#393333
1)
#393822
1H
#395284
12
05
07
09
0=
0?
0F
#395607
1>
1<
18
16
14
01
#395776
13
#396000
b0 !
0*
#396005
0A
#396010
0@
#396080
06
#396220
08
#396243
1B
#396419
0>
#396676
0B
#396678
11
#396741
0<
#396822
0H
#398701
0$
#398735
0%
#399000
b1 !
1*
#399022
0'
#399221
0(
#399234
1#
#399308
0&
#399333
0)
#399822
1H
#401284
15
#401607
04
#402000
b0 !
0*
#402220
18
#402822
0H
#405000
b1 !
1*
#405333
1)
#405822
1H
#407284
05
19
#407607
08
14
#408000
b0 !
0*
#408220
18
#408822
0H
#411000
b1 !
1*
#411221
1(
#411333
0)
#411822
1H
#413284
15
#413607
04
#414000
b0 !
0*
#414220
16
08
#414822
0H
#417000
b1 !
1*
#417333
1)
#417822
1H
#419284
05
17
09
#419607
18
06
14
#419906
1:
#420000
b0 !
0*
#420080
16
#420220
08
#420581
04
#420588
1;
#420822
0H
#421019
01
#421022
06
#423000
b1 !
1*
#423022
1'
#423221
0(
#423333
0)
#423822
1H
#425284
02
07
#426000
b0 !
0*
#426035
0:
#426040
03
#426710
14
#426717
0;
#426822
0H
#429000
b1 !
1*
#429022
0'
#429234
0#
#429822
1H
#431284
15
#431607
04
#432000
b0 !
0*
#432220
18
#432822
0H
#435000
b1 !
1*
#435333
1)
#435822
1H
#437284
05
19
#437607
08
14
#438000
b0 !
0*
#438220
18
#438822
0H
#441000
b1 !
1*
#441221
1(
#441333
0)
#441822
1H
#443284
15
#443607
04
#444000
b0 !
0*
#444220
16
08
#444822
0H
#447000
b1 !
1*
#447333
1)
#447822
1H
#449284
05
17
09
#449607
18
06
14
#449906
1:
#450000
b0 !
0*
#450080
16
#450220
08
#450822
0H
#453000
b1 !
1*
#453022
1'
#453221
0(
#453333
0)
#453822
1H
#455284
15
#455607
04
#455776
0:
#456000
b0 !
0*
#456220
18
#456822
0H
#459000
b1 !
1*
#459333
1)
#459822
1H
#461284
05
19
#461607
08
14
#462000
b0 !
0*
#462220
18
#462822
0H
#465000
b1 !
1*
#465221
1(
#465333
0)
#465822
1H
#467284
15
#467607
04
#468000
b0 !
0*
#468220
06
08
#468222
1D
#468822
0H
#468937
1E
#471000
b1 !
1*
#471333
1)
#471822
1H
#473284
05
07
09
1F
#473607
18
16
14
#474000
b0 !
0*
#474080
06
#474220
08
#474822
0H
#477000
b1 !
1*
#477022
0'
#477221
0(
#477308
1&
#477333
0)
#477822
1H
#479284
15
#479607
04
#480000
b0 !
0*
#480220
18
#480822
0H
#483000
b1 !
1*
#483333
1)
#483822
1H
#485284
05
19
#485607
08
14
#486000
b0 !
0*
#486220
18
#486822
0H
#489000
b1 !
1*
#489221
1(
#489333
0)
#489822
1H
#491284
15
#491607
04
#492000
b0 !
0*
#492220
16
08
#492822
0H
#495000
b1 !
1*
#495333
1)
#495822
1H
#497284
05
17
09
#497607
18
06
14
#498000
b0 !
0*
#498080
16
#498220
08
#498822
0H
#501000
b1 !
1*
#501022
1'
#501221
0(
#501333
0)
#501822
1H
#503284
15
#503607
04
#504000
b0 !
0*
#504220
18
#504822
0H
#507000
b1 !
1*
#507333
1)
#507822
1H
#509284
05
19
#509607
08
14
#510000
b0 !
0*
#510220
18
#510822
0H
#513000
b1 !
1*
#513221
1(
#513333
0)
#513822
1H
#515284
15
#515607
04
#515777
1@
#516000
b0 !
0*
#516220
06
08
#516222
0D
#516508
1<
#516822
0H
#516937
0E
#519000
b1 !
1*
#519333
1)
#519822
1H
#521284
05
07
09
1=
0F
#521607
0<
18
16
14
#522000
b0 !
0*
#522010
0@
#522080
06
#522220
08
#522741
1<
#522822
0H
#524735
1%
#525000
b1 !
1*
#525022
0'
#525221
0(
#525308
0&
#525333
0)
#525822
1H
#527284
15
#527607
04
#528000
b0 !
0*
#528220
18
#528822
0H
#531000
b1 !
1*
#531333
1)
#531822
1H
#533284
05
19
#533607
08
14
#534000
b0 !
0*
#534220
18
#534822
0H
#537000
b1 !
1*
#537221
1(
#537333
0)
#537822
1H
#539284
15
#539607
04
#540000
b0 !
0*
#540220
16
08
#540822
0H
#543000
b1 !
1*
#543333
1)
#543822
1H
#545284
05
17
09
#545607
18
06
14
#545906
1:
#546000
b0 !
0*
#546080
16
#546220
08
#546822
0H
#549000
b1 !
1*
#549022
1'
#549221
0(
#549333
0)
#549822
1H
#551284
15
#551607
04
#551776
0:
#552000
b0 !
0*
#552220
18
#552822
0H
#555000
b1 !
1*
#555333
1)
#555822
1H
#557284
05
19
#557607
08
14
#558000
b0 !
0*
#558220
18
#558822
0H
#561000
b1 !
1*
#561221
1(
#561333
0)
#561822
1H
#563284
15
#563607
04
#564000
b0 !
0*
#564220
06
08
#564222
1D
#564822
0H
#564937
1E
#567000
b1 !
1*
#567333
1)
#567822
1H
#569284
05
07
09
1F
#569607
18
16
14
#570000
b0 !
0*
#570080
06
#570220
08
#570822
0H
#573000
b1 !
1*
#573022
0'
#573221
0(
#573308
1&
#573333
0)
#573822
1H
#575284
15
#575607
04
#576000
b0 !
0*
#576220
18
#576822
0H
#579000
b1 !
1*
#579333
1)
#579822
1H
#581284
05
19
#581607
08
14
#582000
b0 !
0*
#582220
18
#582822
0H
#585000
b1 !
1*
#585221
1(
#585333
0)
#585822
1H
#587284
15
#587607
04
#588000
b0 !
0*
#588220
16
08
#588822
0H
#591000
b1 !
1*
#591333
1)
#591822
1H
#593284
05
17
09
#593607
18
06
14
#594000
b0 !
0*
#594080
16
#594220
08
#594822
0H
#597000
b1 !
1*
#597022
1'
#597221
0(
#597333
0)
#597822
1H
#599284
15
#599607
04
#600000
b0 !
0*
#600220
18
#600822
0H
#603000
b1 !
1*
#603333
1)
#603822
1H
#605284
05
19
#605607
08
14
#606000
b0 !
0*
#606220
18
#606822
0H
#609000
b1 !
1*
#609221
1(
#609333
0)
#609822
1H
#611284
15
#611607
04
#611777
1@
#612000
b0 !
0*
#612220
06
08
#612222
0D
#612508
0<
1>
#612822
0H
#612937
0E
#615000
b1 !
1*
#615333
1)
#615822
1H
#617284
05
07
09
0=
1?
0F
#617607
0>
1<
18
16
14
#618000
b0 !
0*
#618010
0@
#618080
06
#618220
08
#618419
1>
#618741
0<
#618822
0H
#620701
1$
#620735
0%
#621000
b1 !
1*
#621022
0'
#621221
0(
#621308
0&
#621333
0)
#621822
1H
#623284
15
#623607
04
#624000
b0 !
0*
#624220
18
#624822
0H
#627000
b1 !
1*
#627333
1)
#627822
1H
#629284
05
19
#629607
08
14
#630000
b0 !
0*
#630220
18
#630822
0H
#633000
b1 !
1*
#633221
1(
#633333
0)
#633822
1H
#635284
15
#635607
04
#636000
b0 !
0*
#636220
16
08
#636822
0H
#639000
b1 !
1*
#639333
1)
#639822
1H
#641284
05
17
09
#641607
18
06
14
#641906
1:
#642000
b0 !
0*
#642080
16
#642220
08
#642822
0H
#645000
b1 !
1*
#645022
1'
#645221
0(
#645333
0)
#645822
1H
#647284
15
#647607
04
#647776
0:
#648000
b0 !
0*
#648220
18
#648822
0H
#651000
b1 !
1*
#651333
1)
#651822
1H
#653284
05
19
#653607
08
14
#654000
b0 !
0*
#654220
18
#654822
0H
#657000
b1 !
1*
#657221
1(
#657333
0)
#657822
1H
#659284
15
#659607
04
#660000
b0 !
0*
#660220
06
08
#660222
1D
#660822
0H
#660937
1E
#663000
b1 !
1*
#663333
1)
#663822
1H
#665284
05
07
09
1F
#665607
18
16
14
#666000
b0 !
0*
#666080
06
#666220
08
#666822
0H
#669000
b1 !
1*
#669022
0'
#669221
0(
#669308
1&
#669333
0)
#669822
1H
#671284
15
#671607
04
#672000
b0 !
0*
#672220
18
#672822
0H
#675000
b1 !
1*
#675333
1)
#675822
1H
#677284
05
19
#677607
08
14
#678000
b0 !
0*
#678220
18
#678822
0H
#681000
b1 !
1*
#681221
1(
#681333
0)
#681822
1H
#683284
15
#683607
04
#684000
b0 !
0*
#684220
16
08
#684822
0H
#687000
b1 !
1*
#687333
1)
#687822
1H
#689284
05
17
09
#689607
18
06
14
#690000
b0 !
0*
#690080
16
#690220
08
#690822
0H
#693000
b1 !
1*
#693022
1'
#693221
0(
#693333
0)
#693822
1H
#695284
15
#695607
04
#696000
b0 !
0*
#696220
18
#696822
0H
#699000
b1 !
1*
#699333
1)
#699822
1H
#701284
05
19
#701607
08
14
#702000
b0 !
0*
#702220
18
#702822
0H
#705000
b1 !
1*
#705221
1(
#705333
0)
#705822
1H
#707284
15
#707607
04
#707777
1@
#708000
b0 !
0*
#708220
06
08
#708222
0D
#708508
1<
#708822
0H
#708937
0E
#711000
b1 !
1*
#711333
1)
#711822
1H
#713284
05
07
09
1=
0F
#713607
0<
18
16
14
#714000
b0 !
0*
#714010
0@
#714047
1A
#714080
06
#714220
08
#714435
0A
#714741
1<
#714822
0H
#716735
1%
#717000
b1 !
1*
#717022
0'
#717221
0(
#717308
0&
#717333
0)
#717822
1H
#719284
15
#719607
04
#720000
b0 !
0*
#720220
18
#720822
0H
#723000
b1 !
1*
#723333
1)
#723822
1H
#725284
05
19
#725607
08
14
#726000
b0 !
0*
#726220
18
#726822
0H
#729000
b1 !
1*
#729221
1(
#729333
0)
#729822
1H
#731284
15
#731607
04
#732000
b0 !
0*
#732220
16
08
#732822
0H
#735000
b1 !
1*
#735333
1)
#735822
1H
#737284
05
17
09
#737607
18
06
14
#737906
1:
#738000
b0 !
0*
#738080
16
#738220
08
#738822
0H
#741000
b1 !
1*
#741022
1'
#741221
0(
#741333
0)
#741822
1H
#743284
15
#743607
04
#743776
0:
#744000
b0 !
0*
#744220
18
#744822
0H
#747000
b1 !
1*
#747333
1)
#747822
1H
#749284
05
19
#749607
08
14
#750000
b0 !
0*
#750220
18
#750822
0H
#753000
b1 !
1*
#753221
1(
#753333
0)
#753822
1H
#755284
15
#755607
04
#756000
b0 !
0*
#756220
06
08
#756222
1D
#756822
0H
#756937
1E
#759000
b1 !
1*
#759333
1)
#759822
1H
#761284
05
07
09
1F
#761607
18
16
14
#762000
b0 !
0*
#762080
06
#762220
08
#762822
0H
#765000
b1 !
1*
#765022
0'
#765221
0(
#765308
1&
#765333
0)
#765822
1H
#767284
15
#767607
04
#768000
b0 !
0*
#768220
18
#768822
0H
#771000
b1 !
1*
#771333
1)
#771822
1H
#773284
05
19
#773607
08
14
#774000
b0 !
0*
#774220
18
#774822
0H
#777000
b1 !
1*
#777221
1(
#777333
0)
#777822
1H
#779284
15
#779607
04
#780000
b0 !
0*
#780220
16
08
#780822
0H
#783000
b1 !
1*
#783333
1)
#783822
1H
#785284
05
17
09
#785607
18
06
14
#786000
b0 !
0*
#786080
16
#786220
08
#786822
0H
#789000
b1 !
1*
#789022
1'
#789221
0(
#789333
0)
#789822
1H
#791284
15
#791607
04
#792000
b0 !
0*
#792220
18
#792822
0H
#795000
b1 !
1*
#795333
1)
#795822
1H
#797284
05
19
#797607
08
14
#798000
b0 !
0*
#798220
18
#798822
0H
#801000
b1 !
1*
#801221
1(
#801333
0)
#801822
1H
#803284
15
#803607
04
#803777
1@
#804000
b0 !
0*
#804202
1A
#804220
06
08
#804222
0D
#804508
0<
0>
#804822
0H
#804875
11
#804937
0E
#807000
b1 !
1*
#807333
1)
#807822
1H
#809284
12
05
07
09
0=
0?
0F
#809607
1>
1<
18
16
14
01
#809776
13
#810000
b0 !
0*
#810005
0A
#810010
0@
#810080
06
#810220
08
#810243
1B
#810419
0>
#810676
0B
#810678
11
#810741
0<
#810822
0H
#812701
0$
#812735
0%
#813000
b1 !
1*
#813022
0'
#813221
0(
#813234
1#
#813308
0&
#813333
0)
#813822
1H
#815284
15
#815607
04
#816000
b0 !
0*
#816220
18
#816822
0H
#819000
b1 !
1*
#819333
1)
#819822
1H
#821284
05
19
#821607
08
14
#822000
b0 !
0*
#822220
18
#822822
0H
#825000
b1 !
1*
#825221
1(
#825333
0)
#825822
1H
#827284
15
#827607
04
#828000
b0 !
0*
#828220
16
08
#828822
0H
#831000
b1 !
1*
#831333
1)
#831822
1H
#833284
05
17
09
#833607
18
06
14
#833906
1:
#834000
b0 !
0*
#834080
16
#834220
08
#834581
04
#834588
1;
#834822
0H
#835019
01
#835022
06
#837000
b1 !
1*
#837022
1'
#837221
0(
#837333
0)
#837822
1H
#839284
02
07
#840000
b0 !
0*
#840035
0:
#840040
03
#840710
14
#840717
0;
#840822
0H
#843000
b1 !
1*
#843022
0'
#843234
0#
#843822
1H
#845284
15
#845607
04
#846000
b0 !
0*
#846220
18
#846822
0H
#849000
b1 !
1*
#849333
1)
#849822
1H
#851284
05
19
#851607
08
14
#852000
b0 !
0*
#852220
18
#852822
0H
#855000
b1 !
1*
#855221
1(
#855333
0)
#855822
1H
#857284
15
#857607
04
#858000
b0 !
0*
#858220
16
08
#858822
0H
#861000
b1 !
1*
#861333
1)
#861822
1H
#863284
05
17
09
#863607
18
06
14
#863906
1:
#864000
b0 !
0*
#864080
16
#864220
08
#864822
0H
#867000
b1 !
1*
#867022
1'
#867221
0(
#867333
0)
#867822
1H
#869284
15
#869607
04
#869776
0:
#870000
b0 !
0*
#870220
18
#870822
0H
#873000
b1 !
1*
#873333
1)
#873822
1H
#875284
05
19
#875607
08
14
#876000
b0 !
0*
#876220
18
#876822
0H
#879000
b1 !
1*
#879221
1(
#879333
0)
#879822
1H
#881284
15
#881607
04
#882000
b0 !
0*
#882220
06
08
#882222
1D
#882822
0H
#882937
1E
#885000
b1 !
1*
#885333
1)
#885822
1H
#887284
05
07
09
1F
#887607
18
16
14
#888000
b0 !
0*
#888080
06
#888220
08
#888822
0H
#891000
b1 !
1*
#891022
0'
#891221
0(
#891308
1&
#891333
0)
#891822
1H
#893284
15
#893607
04
#894000
b0 !
0*
#894220
18
#894822
0H
#897000
b1 !
1*
#897333
1)
#897822
1H
#899284
05
19
#899607
08
14
#900000
b0 !
0*
#900220
18
#900822
0H
#903000
b1 !
1*
#903221
1(
#903333
0)
#903822
1H
#905284
15
#905607
04
#906000
b0 !
0*
#906220
16
08
#906822
0H
#909000
b1 !
1*
#909333
1)
#909822
1H
#911284
05
17
09
#911607
18
06
14
#912000
b0 !
0*
#912080
16
#912220
08
#912822
0H
#915000
b1 !
1*
#915022
1'
#915221
0(
#915333
0)
#915822
1H
#917284
15
#917607
04
#918000
b0 !
0*
#918220
18
#918822
0H
#921000
b1 !
1*
#921333
1)
#921822
1H
#923284
05
19
#923607
08
14
#924000
b0 !
0*
#924220
18
#924822
0H
#927000
b1 !
1*
#927221
1(
#927333
0)
#927822
1H
#929284
15
#929607
04
#929777
1@
#930000
b0 !
0*
#930220
06
08
#930222
0D
#930508
1<
#930822
0H
#930937
0E
#933000
b1 !
1*
#933333
1)
#933822
1H
#935284
05
07
09
1=
0F
#935607
0<
18
16
14
#936000
b0 !
0*
#936010
0@
#936080
06
#936220
08
#936741
1<
#936822
0H
#938735
1%
#939000
b1 !
1*
#939022
0'
#939221
0(
#939308
0&
#939333
0)
#939822
1H
#941284
15
#941607
04
#942000
b0 !
0*
#942220
18
#942822
0H
#945000
b1 !
1*
#945333
1)
#945822
1H
#947284
05
19
#947607
08
14
#948000
b0 !
0*
#948220
18
#948822
0H
#951000
b1 !
1*
#951221
1(
#951333
0)
#951822
1H
#953284
15
#953607
04
#954000
b0 !
0*
#954220
16
08
#954822
0H
#957000
b1 !
1*
#957333
1)
#957822
1H
#959284
05
17
09
#959607
18
06
14
#959906
1:
#960000
b0 !
0*
#960080
16
#960220
08
#960822
0H
#963000
b1 !
1*
#963022
1'
#963221
0(
#963333
0)
#963822
1H
#965284
15
#965607
04
#965776
0:
#966000
b0 !
0*
#966220
18
#966822
0H
#969000
b1 !
1*
#969333
1)
#969822
1H
#971284
05
19
#971607
08
14
#972000
b0 !
0*
#972220
18
#972822
0H
#975000
b1 !
1*
#975221
1(
#975333
0)
#975822
1H
#977284
15
#977607
04
#978000
b0 !
0*
#978220
06
08
#978222
1D
#978822
0H
#978937
1E
#981000
b1 !
1*
#981333
1)
#981822
1H
#983284
05
07
09
1F
#983607
18
16
14
#984000
b0 !
0*
#984080
06
#984220
08
#984822
0H
#987000
b1 !
1*
#987022
0'
#987221
0(
#987308
1&
#987333
0)
#987822
1H
#989284
15
#989607
04
#990000
b0 !
0*
#990220
18
#990822
0H
#993000
b1 !
1*
#993333
1)
#993822
1H
#995284
05
19
#995607
08
14
#996000
b0 !
0*
#996220
18
#996822
0H
#999000
b1 !
1*
#999221
1(
#999333
0)
#999822
1H
