PTC/Cwiczenie5_1/simulation/qsim/Cwiczenie5_1.msim.vcd
$comment
	File created using the following command:
		vcd file Cwiczenie5_1.msim.vcd -direction
$end
$date
	Sat Dec 09 12:59:07 2017
$end
$version
	ModelSim Version 10.1d
$end
$timescale
	1ps
$end
$scope module Cwiczenie5_1_vlg_vec_tst $end
$var reg 4 ! iSW [0:3] $end
$var wire 1 " oLEDG [0] $end
$var wire 1 # oLEDG [1] $end
$var wire 1 $ sampler $end
$scope module i1 $end
$var wire 1 % gnd $end
$var wire 1 & vcc $end
$var wire 1 ' unknown $end
$var tri1 1 ( devclrn $end
$var tri1 1 ) devpor $end
$var tri1 1 * devoe $end
$var wire 1 + Sum0|comb~0_combout $end
$var wire 1 , Sum0|dff0~regout $end
$var wire 1 - Sum0|s~0_combout $end
$var wire 1 . iSW~combout [0] $end
$var wire 1 / iSW~combout [1] $end
$var wire 1 0 iSW~combout [2] $end
$var wire 1 1 iSW~combout [3] $end
$upscope $end
$upscope $end
$enddefinitions $end
#0
$dumpvars
b0 !
0#
0"
x$
0%
1&
x'
1(
1)
1*
0+
0,
0-
01
00
0/
0.
$end
#12500
b1 !
11
0$
#25000
b1001 !
b1000 !
01
1.
1$
1-
1"
#37500
b1001 !
11
0$
#50000
b1101 !
b101 !
b100 !
01
1/
0.
1$
#62500
b101 !
11
0$
#75000
b1101 !
b1100 !
01
1.
1$
0-
1+
0"
#87500
b1101 !
11
0$
1,
1#
#100000
b1111 !
b1011 !
b11 !
b10 !
01
10
0/
0.
1$
1-
0+
1"
#112500
b11 !
11
0$
0,
0#
#125000
b1011 !
b1010 !
01
1.
1$
0-
1+
0"
#137500
b1011 !
11
0$
1,
1#
#150000
b1111 !
b111 !
b110 !
01
1/
0.
1$
#162500
b111 !
11
0$
#175000
b1111 !
b1110 !
01
1.
1$
1-
1"
#187500
b1111 !
11
0$
#200000
b1101 !
b1001 !
b1 !
b0 !
01
00
0/
0.
1$
0-
0+
0"
#212500
b1 !
11
0$
0,
0#
#225000
b1001 !
b1000 !
01
1.
1$
1-
1"
#237500
b1001 !
11
0$
#250000
b1101 !
b101 !
b100 !
01
1/
0.
1$
#262500
b101 !
11
0$
#275000
b1101 !
b1100 !
01
1.
1$
0-
1+
0"
#287500
b1101 !
11
0$
1,
1#
#300000
b1111 !
b1011 !
b11 !
b10 !
01
10
0/
0.
1$
1-
0+
1"
#312500
b11 !
11
0$
0,
0#
#325000
b1011 !
b1010 !
01
1.
1$
0-
1+
0"
#337500
b1011 !
11
0$
1,
1#
#350000
b1111 !
b111 !
b110 !
01
1/
0.
1$
#362500
b111 !
11
0$
#375000
b1111 !
b1110 !
01
1.
1$
1-
1"
#387500
b1111 !
11
0$
#400000
b1101 !
b1001 !
b1 !
b0 !
01
00
0/
0.
1$
0-
0+
0"
#412500
b1 !
11
0$
0,
0#
#425000
b1001 !
b1000 !
01
1.
1$
1-
1"
#437500
b1001 !
11
0$
#450000
b1101 !
b101 !
b100 !
01
1/
0.
1$
#462500
b101 !
11
0$
#475000
b1101 !
b1100 !
01
1.
1$
0-
1+
0"
#487500
b1101 !
11
0$
1,
1#
#500000
b1111 !
b1011 !
b11 !
b10 !
01
10
0/
0.
1$
1-
0+
1"
#512500
b11 !
11
0$
0,
0#
#525000
b1011 !
b1010 !
01
1.
1$
0-
1+
0"
#537500
b1011 !
11
0$
1,
1#
#550000
b1111 !
b111 !
b110 !
01
1/
0.
1$
#562500
b111 !
11
0$
#575000
b1111 !
b1110 !
01
1.
1$
1-
1"
#587500
b1111 !
11
0$
#600000
b1101 !
b1001 !
b1 !
b0 !
01
00
0/
0.
1$
0-
0+
0"
#612500
b1 !
11
0$
0,
0#
#625000
b1001 !
b1000 !
01
1.
1$
1-
1"
#637500
b1001 !
11
0$
#650000
b1101 !
b101 !
b100 !
01
1/
0.
1$
#662500
b101 !
11
0$
#675000
b1101 !
b1100 !
01
1.
1$
0-
1+
0"
#687500
b1101 !
11
0$
1,
1#
#700000
b1111 !
b1011 !
b11 !
b10 !
01
10
0/
0.
1$
1-
0+
1"
#712500
b11 !
11
0$
0,
0#
#725000
b1011 !
b1010 !
01
1.
1$
0-
1+
0"
#737500
b1011 !
11
0$
1,
1#
#750000
b1111 !
b111 !
b110 !
01
1/
0.
1$
#762500
b111 !
11
0$
#775000
b1111 !
b1110 !
01
1.
1$
1-
1"
#787500
b1111 !
11
0$
#800000
b1101 !
b1001 !
b1 !
b0 !
01
00
0/
0.
1$
0-
0+
0"
#812500
b1 !
11
0$
0,
0#
#825000
b1001 !
b1000 !
01
1.
1$
1-
1"
#837500
b1001 !
11
0$
#850000
b1101 !
b101 !
b100 !
01
1/
0.
1$
#862500
b101 !
11
0$
#875000
b1101 !
b1100 !
01
1.
1$
0-
1+
0"
#887500
b1101 !
11
0$
1,
1#
#900000
b1111 !
b1011 !
b11 !
b10 !
01
10
0/
0.
1$
1-
0+
1"
#912500
b11 !
11
0$
0,
0#
#925000
b1011 !
b1010 !
01
1.
1$
0-
1+
0"
#937500
b1011 !
11
0$
1,
1#
#950000
b1111 !
b111 !
b110 !
01
1/
0.
1$
#962500
b111 !
11
0$
#975000
b1111 !
b1110 !
01
1.
1$
1-
1"
#987500
b1111 !
11
0$
