PTC/Cwiczenie2_2/simulation/qsim/Cwiczenie2_2.msim.vcd
$comment
	File created using the following command:
		vcd file Cwiczenie2_2.msim.vcd -direction
$end
$date
	Wed Nov 08 15:22:54 2017
$end
$version
	ModelSim Version 10.1d
$end
$timescale
	1ps
$end
$scope module Cwiczenie2_2_vlg_vec_tst $end
$var reg 3 ! iSW [2:0] $end
$var wire 1 " oLEDG [2] $end
$var wire 1 # oLEDG [1] $end
$var wire 1 $ oLEDG [0] $end
$var wire 1 % sampler $end
$scope module i1 $end
$var wire 1 & gnd $end
$var wire 1 ' vcc $end
$var wire 1 ( unknown $end
$var tri1 1 ) devclrn $end
$var tri1 1 * devpor $end
$var tri1 1 + devoe $end
$var wire 1 , inst2~0_combout $end
$var wire 1 - inst2~regout $end
$var wire 1 . inst1~0_combout $end
$var wire 1 / inst1~regout $end
$var wire 1 0 inst~0_combout $end
$var wire 1 1 inst~regout $end
$var wire 1 2 iSW~combout [2] $end
$var wire 1 3 iSW~combout [1] $end
$var wire 1 4 iSW~combout [0] $end
$upscope $end
$upscope $end
$enddefinitions $end
#0
$dumpvars
b10 !
x$
x#
x"
x%
0&
1'
x(
1)
1*
1+
x,
x-
x.
x/
x0
x1
04
13
02
$end
#218
0-
0/
01
#673
10
#680
1,
#958
0.
#1320
b11 !
0%
#2142
14
#2640
b10 !
1%
#3462
04
#3604
1-
11
#3884
0"
#3916
0#
#3927
x,
#3960
b11 !
0%
#4296
0$
#4782
14
#5152
0,
#5208
01
0-
#5280
b10 !
1%
#5670
1,
#6102
04
#6600
b11 !
0%
#7422
14
#7920
b10 !
1%
#8742
04
#9240
b11 !
0%
#10062
14
#10560
b10 !
1%
#11382
04
#11880
b11 !
0%
#12702
14
#13200
b10 !
1%
#14022
04
#14520
b11 !
0%
#15342
14
#15840
b10 !
1%
#16662
04
#17160
b11 !
0%
#17982
14
#18480
b10 !
1%
#19302
04
#19800
b11 !
0%
#20622
14
#21120
b10 !
1%
#21942
04
#22440
b11 !
0%
#23262
14
#23760
b10 !
1%
#24582
04
#25080
b11 !
0%
#25902
14
#26400
b10 !
1%
#27222
04
#27720
b11 !
0%
#28542
14
#29040
b10 !
1%
#29862
04
#30360
b11 !
0%
#31182
14
#31680
b10 !
1%
#32502
04
#33000
b11 !
0%
#33822
14
#34320
b10 !
1%
#35142
04
#35640
b11 !
0%
#36462
14
#36960
b10 !
1%
#37782
04
#38280
b11 !
0%
#39102
14
#39600
b10 !
1%
#40422
04
#40920
b11 !
0%
#41742
14
#42240
b10 !
1%
#43062
04
#43560
b11 !
0%
#44382
14
#44880
b10 !
1%
#45702
04
#46200
b11 !
0%
#47022
14
#47520
b10 !
1%
#48342
04
#48840
b11 !
0%
#49662
14
#50160
b10 !
1%
#50982
04
#51480
b11 !
0%
#52302
14
#52800
b10 !
1%
#53622
04
#54120
b11 !
0%
#54942
14
#55440
b10 !
1%
#56262
04
#56760
b11 !
0%
#57582
14
#58080
b10 !
1%
#58902
04
#59400
b11 !
0%
#60000
b111 !
1%
#60222
14
#60720
b110 !
0%
#60832
12
#61542
04
#62040
b111 !
1%
#62862
14
#63360
b110 !
0%
#64182
04
#64680
b111 !
1%
#65502
14
#66000
b110 !
0%
#66822
04
#66964
1-
11
#67287
0,
#67320
b111 !
1%
#68142
14
#68640
b110 !
0%
#69462
04
#69604
0-
#69960
b111 !
1%
#70343
00
#70344
1.
#70630
1"
#70782
14
#71042
1$
#71280
b110 !
0%
#72102
04
#72244
1/
01
#72567
0.
#72600
b111 !
1%
#72706
1,
#73422
14
#73682
0$
#73920
b110 !
0%
#74742
04
#74884
1-
0/
#75207
0,
#75240
b111 !
1%
#75339
10
#75624
1.
#75910
0"
#75942
1#
#76062
14
#76560
b110 !
0%
#77382
04
#77524
0-
1/
11
#77847
0.
#77880
b111 !
1%
#78263
00
#78582
0#
#78702
14
#78962
1$
#79200
b110 !
0%
#80022
04
#80164
0/
01
#80520
b111 !
1%
#80619
10
#80626
1,
#81190
1"
#81222
1#
#81342
14
#81602
0$
#81840
b110 !
0%
#82662
04
#82804
1-
11
#83127
0,
#83160
b111 !
1%
#83830
0"
#83862
0#
#83982
14
#84480
b110 !
0%
#85302
04
#85444
0-
#85800
b111 !
1%
#86183
00
#86184
1.
#86470
1"
#86622
14
#86882
1$
#87120
b110 !
0%
#87942
04
#88084
1/
01
#88407
0.
#88440
b111 !
1%
#88546
1,
#89262
14
#89522
0$
#89760
b110 !
0%
#90582
04
#90724
1-
0/
#91047
0,
#91080
b111 !
1%
#91179
10
#91464
1.
#91750
0"
#91782
1#
#91902
14
#92400
b110 !
0%
#93222
04
#93364
0-
1/
11
#93687
0.
#93720
b111 !
1%
#94103
00
#94422
0#
#94542
14
#94802
1$
#95040
b110 !
0%
#95862
04
#96004
0/
01
#96360
b111 !
1%
#96459
10
#96466
1,
#97030
1"
#97062
1#
#97182
14
#97442
0$
#97680
b110 !
0%
#98502
04
#98644
1-
11
#98967
0,
#99000
b111 !
1%
#99670
0"
#99702
0#
#99822
14
#100320
b110 !
0%
#101142
04
#101284
0-
#101640
b111 !
1%
#102023
00
#102024
1.
#102310
1"
#102462
14
#102722
1$
#102960
b110 !
0%
#103782
04
#103924
1/
01
#104247
0.
#104280
b111 !
1%
#104386
1,
#105102
14
#105362
0$
#105600
b110 !
0%
#106422
04
#106564
1-
0/
#106887
0,
#106920
b111 !
1%
#107019
10
#107304
1.
#107590
0"
#107622
1#
#107742
14
#108240
b110 !
0%
#109062
04
#109204
0-
1/
11
#109527
0.
#109560
b111 !
1%
#109943
00
#110262
0#
#110382
14
#110642
1$
#110880
b110 !
0%
#111702
04
#111844
0/
01
#112200
b111 !
1%
#112299
10
#112306
1,
#112870
1"
#112902
1#
#113022
14
#113282
0$
#113520
b110 !
0%
#114342
04
#114484
1-
11
#114807
0,
#114840
b111 !
1%
#115510
0"
#115542
0#
#115662
14
#116160
b110 !
0%
#116982
04
#117124
0-
#117480
b111 !
1%
#117863
00
#117864
1.
#118150
1"
#118302
14
#118562
1$
#118800
b110 !
0%
#119622
04
#119764
1/
01
#120087
0.
#120120
b111 !
1%
#120226
1,
#120942
14
#121202
0$
#121440
b110 !
0%
#122262
04
#122404
1-
0/
#122727
0,
#122760
b111 !
1%
#122859
10
#123144
1.
#123430
0"
#123462
1#
#123582
14
#124080
b110 !
0%
#124902
04
#125044
0-
1/
11
#125367
0.
#125400
b111 !
1%
#125783
00
#126102
0#
#126222
14
#126482
1$
#126720
b110 !
0%
#127542
04
#127684
0/
01
#128040
b111 !
1%
#128139
10
#128146
1,
#128710
1"
#128742
1#
#128862
14
#129122
0$
#129360
b110 !
0%
#130182
04
#130324
1-
11
#130647
0,
#130680
b111 !
1%
#131350
0"
#131382
0#
#131502
14
#132000
b110 !
0%
#132822
04
#132964
0-
#133320
b111 !
1%
#133703
00
#133704
1.
#133990
1"
#134142
14
#134402
1$
#134640
b110 !
0%
#135462
04
#135604
1/
01
#135927
0.
#135960
b111 !
1%
#136066
1,
#136782
14
#137042
0$
#137280
b110 !
0%
#138102
04
#138244
1-
0/
#138567
0,
#138600
b111 !
1%
#138699
10
#138984
1.
#139270
0"
#139302
1#
#139422
14
#139920
b110 !
0%
#140742
04
#140884
0-
1/
11
#141207
0.
#141240
b111 !
1%
#141623
00
#141942
0#
#142062
14
#142322
1$
#142560
b110 !
0%
#143382
04
#143524
0/
01
#143880
b111 !
1%
#143979
10
#143986
1,
#144550
1"
#144582
1#
#144702
14
#144962
0$
#145200
b110 !
0%
#146022
04
#146164
1-
11
#146487
0,
#146520
b111 !
1%
#147190
0"
#147222
0#
#147342
14
#147840
b110 !
0%
#148662
04
#148804
0-
#149160
b111 !
1%
#149543
00
#149544
1.
#149830
1"
#149982
14
#150242
1$
#150480
b110 !
0%
#151302
04
#151444
1/
01
#151767
0.
#151800
b111 !
1%
#151906
1,
#152622
14
#152882
0$
#153120
b110 !
0%
#153942
04
#154084
1-
0/
#154407
0,
#154440
b111 !
1%
#154539
10
#154824
1.
#155110
0"
#155142
1#
#155262
14
#155760
b110 !
0%
#156582
04
#156724
0-
1/
11
#157047
0.
#157080
b111 !
1%
#157463
00
#157782
0#
#157902
14
#158162
1$
#158400
b110 !
0%
#159222
04
#159364
0/
01
#159720
b111 !
1%
#159819
10
#159826
1,
#160390
1"
#160422
1#
#160542
14
#160802
0$
#161040
b110 !
0%
#161862
04
#162004
1-
11
#162327
0,
#162360
b111 !
1%
#163030
0"
#163062
0#
#163182
14
#163680
b110 !
0%
#164502
04
#164644
0-
#165000
b111 !
1%
#165383
00
#165384
1.
#165670
1"
#165822
14
#166082
1$
#166320
b110 !
0%
#167142
04
#167284
1/
01
#167607
0.
#167640
b111 !
1%
#167746
1,
#168462
14
#168722
0$
#168960
b110 !
0%
#169782
04
#169924
1-
0/
#170247
0,
#170280
b111 !
1%
#170379
10
#170664
1.
#170950
0"
#170982
1#
#171102
14
#171600
b110 !
0%
#172422
04
#172564
0-
1/
11
#172887
0.
#172920
b111 !
1%
#173303
00
#173622
0#
#173742
14
#174002
1$
#174240
b110 !
0%
#175062
04
#175204
0/
01
#175560
b111 !
1%
#175659
10
#175666
1,
#176230
1"
#176262
1#
#176382
14
#176642
0$
#176880
b110 !
0%
#177702
04
#177844
1-
11
#178167
0,
#178200
b111 !
1%
#178870
0"
#178902
0#
#179022
14
#179520
b110 !
0%
#180342
04
#180484
0-
#180840
b111 !
1%
#181223
00
#181224
1.
#181510
1"
#181662
14
#181922
1$
#182160
b110 !
0%
#182982
04
#183124
1/
01
#183447
0.
#183480
b111 !
1%
#183586
1,
#184302
14
#184562
0$
#184800
b110 !
0%
#185622
04
#185764
1-
0/
#186087
0,
#186120
b111 !
1%
#186219
10
#186504
1.
#186790
0"
#186822
1#
#186942
14
#187440
b110 !
0%
#188262
04
#188404
0-
1/
11
#188727
0.
#188760
b111 !
1%
#189143
00
#189462
0#
#189582
14
#189842
1$
#190080
b110 !
0%
#190902
04
#191044
0/
01
#191400
b111 !
1%
#191499
10
#191506
1,
#192070
1"
#192102
1#
#192222
14
#192482
0$
#192720
b110 !
0%
#193542
04
#193684
1-
11
#194007
0,
#194040
b111 !
1%
#194710
0"
#194742
0#
#194862
14
#195360
b110 !
0%
#196182
04
#196324
0-
#196680
b111 !
1%
#197063
00
#197064
1.
#197350
1"
#197502
14
#197762
1$
#198000
b110 !
0%
#198822
04
#198964
1/
01
#199287
0.
#199320
b111 !
1%
#199426
1,
#200142
14
#200402
0$
#200640
b110 !
0%
#201462
04
#201604
1-
0/
#201927
0,
#201960
b111 !
1%
#202059
10
#202344
1.
#202630
0"
#202662
1#
#202782
14
#203280
b110 !
0%
#204102
04
#204244
0-
1/
11
#204567
0.
#204600
b111 !
1%
#204983
00
#205302
0#
#205422
14
#205682
1$
#205920
b110 !
0%
#206742
04
#206884
0/
01
#207240
b111 !
1%
#207339
10
#207346
1,
#207910
1"
#207942
1#
#208062
14
#208322
0$
#208560
b110 !
0%
#209382
04
#209524
1-
11
#209847
0,
#209880
b111 !
1%
#210550
0"
#210582
0#
#210702
14
#211200
b110 !
0%
#212022
04
#212164
0-
#212520
b111 !
1%
#212903
00
#212904
1.
#213190
1"
#213342
14
#213602
1$
#213840
b110 !
0%
#214662
04
#214804
1/
01
#215127
0.
#215160
b111 !
1%
#215266
1,
#215982
14
#216242
0$
#216480
b110 !
0%
#217302
04
#217444
1-
0/
#217767
0,
#217800
b111 !
1%
#217899
10
#218184
1.
#218470
0"
#218502
1#
#218622
14
#219120
b110 !
0%
#219942
04
#220084
0-
1/
11
#220407
0.
#220440
b111 !
1%
#220823
00
#221142
0#
#221262
14
#221522
1$
#221760
b110 !
0%
#222582
04
#222724
0/
01
#223080
b111 !
1%
#223179
10
#223186
1,
#223750
1"
#223782
1#
#223902
14
#224162
0$
#224400
b110 !
0%
#225222
04
#225364
1-
11
#225687
0,
#225720
b111 !
1%
#226390
0"
#226422
0#
#226542
14
#227040
b110 !
0%
#227862
04
#228004
0-
#228360
b111 !
1%
#228743
00
#228744
1.
#229030
1"
#229182
14
#229442
1$
#229680
b110 !
0%
#230502
04
#230644
1/
01
#230967
0.
#231000
b111 !
1%
#231106
1,
#231822
14
#232082
0$
#232320
b110 !
0%
#233142
04
#233284
1-
0/
#233607
0,
#233640
b111 !
1%
#233739
10
#234024
1.
#234310
0"
#234342
1#
#234462
14
#234960
b110 !
0%
#235782
04
#235924
0-
1/
11
#236247
0.
#236280
b111 !
1%
#236663
00
#236982
0#
#237102
14
#237362
1$
#237600
b110 !
0%
#238422
04
#238564
0/
01
#238920
b111 !
1%
#239019
10
#239026
1,
#239590
1"
#239622
1#
#239742
14
#240002
0$
#240240
b110 !
0%
#241062
04
#241204
1-
11
#241527
0,
#241560
b111 !
1%
#242230
0"
#242262
0#
#242382
14
#242880
b110 !
0%
#243702
04
#243844
0-
#244200
b111 !
1%
#244583
00
#244584
1.
#244870
1"
#245022
14
#245282
1$
#245520
b110 !
0%
#246342
04
#246484
1/
01
#246807
0.
#246840
b111 !
1%
#246946
1,
#247662
14
#247922
0$
#248160
b110 !
0%
#248982
04
#249124
1-
0/
#249447
0,
#249480
b111 !
1%
#249579
10
#249864
1.
#250150
0"
#250182
1#
#250302
14
#250800
b110 !
0%
#251622
04
#251764
0-
1/
11
#252087
0.
#252120
b111 !
1%
#252503
00
#252822
0#
#252942
14
#253202
1$
#253440
b110 !
0%
#254262
04
#254404
0/
01
#254760
b111 !
1%
#254859
10
#254866
1,
#255430
1"
#255462
1#
#255582
14
#255842
0$
#256080
b110 !
0%
#256902
04
#257044
1-
11
#257367
0,
#257400
b111 !
1%
#258070
0"
#258102
0#
#258222
14
#258720
b110 !
0%
#259542
04
#259684
0-
#260040
b111 !
1%
#260423
00
#260424
1.
#260710
1"
#260862
14
#261122
1$
#261360
b110 !
0%
#262182
04
#262324
1/
01
#262647
0.
#262680
b111 !
1%
#262786
1,
#263502
14
#263762
0$
#264000
b110 !
0%
#264822
04
#264964
1-
0/
#265287
0,
#265320
b111 !
1%
#265419
10
#265704
1.
#265990
0"
#266022
1#
#266142
14
#266640
b110 !
0%
#267462
04
#267604
0-
1/
11
#267927
0.
#267960
b111 !
1%
#268343
00
#268662
0#
#268782
14
#269042
1$
#269280
b110 !
0%
#270102
04
#270244
0/
01
#270600
b111 !
1%
#270699
10
#270706
1,
#271270
1"
#271302
1#
#271422
14
#271682
0$
#271920
b110 !
0%
#272742
04
#272884
1-
11
#273207
0,
#273240
b111 !
1%
#273910
0"
#273942
0#
#274062
14
#274560
b110 !
0%
#275382
04
#275524
0-
#275880
b111 !
1%
#276263
00
#276264
1.
#276550
1"
#276702
14
#276962
1$
#277200
b110 !
0%
#278022
04
#278164
1/
01
#278487
0.
#278520
b111 !
1%
#278626
1,
#279342
14
#279602
0$
#279840
b110 !
0%
#280662
04
#280804
1-
0/
#281127
0,
#281160
b111 !
1%
#281259
10
#281544
1.
#281830
0"
#281862
1#
#281982
14
#282480
b110 !
0%
#283302
04
#283444
0-
1/
11
#283767
0.
#283800
b111 !
1%
#284183
00
#284502
0#
#284622
14
#284882
1$
#285120
b110 !
0%
#285942
04
#286084
0/
01
#286440
b111 !
1%
#286539
10
#286546
1,
#287110
1"
#287142
1#
#287262
14
#287522
0$
#287760
b110 !
0%
#288582
04
#288724
1-
11
#289047
0,
#289080
b111 !
1%
#289750
0"
#289782
0#
#289902
14
#290400
b110 !
0%
#291222
04
#291364
0-
#291720
b111 !
1%
#292103
00
#292104
1.
#292390
1"
#292542
14
#292802
1$
#293040
b110 !
0%
#293862
04
#294004
1/
01
#294327
0.
#294360
b111 !
1%
#294466
1,
#295182
14
#295442
0$
#295680
b110 !
0%
#296502
04
#296644
1-
0/
#296967
0,
#297000
b111 !
1%
#297099
10
#297384
1.
#297670
0"
#297702
1#
#297822
14
#298320
b110 !
0%
#299142
04
#299284
0-
1/
11
#299607
0.
#299640
b111 !
1%
#300023
00
#300342
0#
#300462
14
#300722
1$
#300960
b110 !
0%
#301782
04
#301924
0/
01
#302280
b111 !
1%
#302379
10
#302386
1,
#302950
1"
#302982
1#
#303102
14
#303362
0$
#303600
b110 !
0%
#304422
04
#304564
1-
11
#304887
0,
#304920
b111 !
1%
#305590
0"
#305622
0#
#305742
14
#306240
b110 !
0%
#307062
04
#307204
0-
#307560
b111 !
1%
#307943
00
#307944
1.
#308230
1"
#308382
14
#308642
1$
#308880
b110 !
0%
#309702
04
#309844
1/
01
#310167
0.
#310200
b111 !
1%
#310306
1,
#311022
14
#311282
0$
#311520
b110 !
0%
#312342
04
#312484
1-
0/
#312807
0,
#312840
b111 !
1%
#312939
10
#313224
1.
#313510
0"
#313542
1#
#313662
14
#314160
b110 !
0%
#314982
04
#315124
0-
1/
11
#315447
0.
#315480
b111 !
1%
#315863
00
#316182
0#
#316302
14
#316562
1$
#316800
b110 !
0%
#317622
04
#317764
0/
01
#318120
b111 !
1%
#318219
10
#318226
1,
#318790
1"
#318822
1#
#318942
14
#319202
0$
#319440
b110 !
0%
#320262
04
#320404
1-
11
#320727
0,
#320760
b111 !
1%
#321430
0"
#321462
0#
#321582
14
#322080
b110 !
0%
#322902
04
#323044
0-
#323400
b111 !
1%
#323783
00
#323784
1.
#324070
1"
#324222
14
#324482
1$
#324720
b110 !
0%
#325542
04
#325684
1/
01
#326007
0.
#326040
b111 !
1%
#326146
1,
#326862
14
#327122
0$
#327360
b110 !
0%
#328182
04
#328324
1-
0/
#328647
0,
#328680
b111 !
1%
#328779
10
#329064
1.
#329350
0"
#329382
1#
#329502
14
#330000
b110 !
0%
#330822
04
#330964
0-
1/
11
#331287
0.
#331320
b111 !
1%
#331703
00
#332022
0#
#332142
14
#332402
1$
#332640
b110 !
0%
#333462
04
#333604
0/
01
#333960
b111 !
1%
#334059
10
#334066
1,
#334630
1"
#334662
1#
#334782
14
#335042
0$
#335280
b110 !
0%
#336102
04
#336244
1-
11
#336567
0,
#336600
b111 !
1%
#337270
0"
#337302
0#
#337422
14
#337920
b110 !
0%
#338742
04
#338884
0-
#339240
b111 !
1%
#339623
00
#339624
1.
#339910
1"
#340062
14
#340322
1$
#340560
b110 !
0%
#341382
04
#341524
1/
01
#341847
0.
#341880
b111 !
1%
#341986
1,
#342702
14
#342962
0$
#343200
b110 !
0%
#344022
04
#344164
1-
0/
#344487
0,
#344520
b111 !
1%
#344619
10
#344904
1.
#345190
0"
#345222
1#
#345342
14
#345840
b110 !
0%
#346662
04
#346804
0-
1/
11
#347127
0.
#347160
b111 !
1%
#347543
00
#347862
0#
#347982
14
#348242
1$
#348480
b110 !
0%
#349302
04
#349444
0/
01
#349800
b111 !
1%
#349899
10
#349906
1,
#350470
1"
#350502
1#
#350622
14
#350882
0$
#351120
b110 !
0%
#351942
04
#352084
1-
11
#352407
0,
#352440
b111 !
1%
#353110
0"
#353142
0#
#353262
14
#353760
b110 !
0%
#354582
04
#354724
0-
#355080
b111 !
1%
#355463
00
#355464
1.
#355750
1"
#355902
14
#356162
1$
#356400
b110 !
0%
#357222
04
#357364
1/
01
#357687
0.
#357720
b111 !
1%
#357826
1,
#358542
14
#358802
0$
#359040
b110 !
0%
#359862
04
#360004
1-
0/
#360327
0,
#360360
b111 !
1%
#360459
10
#360744
1.
#361030
0"
#361062
1#
#361182
14
#361680
b110 !
0%
#362502
04
#362644
0-
1/
11
#362967
0.
#363000
b111 !
1%
#363383
00
#363702
0#
#363822
14
#364082
1$
#364320
b110 !
0%
#365142
04
#365284
0/
01
#365640
b111 !
1%
#365739
10
#365746
1,
#366310
1"
#366342
1#
#366462
14
#366722
0$
#366960
b110 !
0%
#367782
04
#367924
1-
11
#368247
0,
#368280
b111 !
1%
#368950
0"
#368982
0#
#369102
14
#369600
b110 !
0%
#370422
04
#370564
0-
#370920
b111 !
1%
#371303
00
#371304
1.
#371590
1"
#371742
14
#372002
1$
#372240
b110 !
0%
#373062
04
#373204
1/
01
#373527
0.
#373560
b111 !
1%
#373666
1,
#374382
14
#374642
0$
#374880
b110 !
0%
#375702
04
#375844
1-
0/
#376167
0,
#376200
b111 !
1%
#376299
10
#376584
1.
#376870
0"
#376902
1#
#377022
14
#377520
b110 !
0%
#378342
04
#378484
0-
1/
11
#378807
0.
#378840
b111 !
1%
#379223
00
#379542
0#
#379662
14
#379922
1$
#380160
b110 !
0%
#380982
04
#381124
0/
01
#381480
b111 !
1%
#381579
10
#381586
1,
#382150
1"
#382182
1#
#382302
14
#382562
0$
#382800
b110 !
0%
#383622
04
#383764
1-
11
#384087
0,
#384120
b111 !
1%
#384790
0"
#384822
0#
#384942
14
#385440
b110 !
0%
#386262
04
#386404
0-
#386760
b111 !
1%
#387143
00
#387144
1.
#387430
1"
#387582
14
#387842
1$
#388080
b110 !
0%
#388902
04
#389044
1/
01
#389367
0.
#389400
b111 !
1%
#389506
1,
#390222
14
#390482
0$
#390720
b110 !
0%
#391542
04
#391684
1-
0/
#392007
0,
#392040
b111 !
1%
#392139
10
#392424
1.
#392710
0"
#392742
1#
#392862
14
#393360
b110 !
0%
#394182
04
#394324
0-
1/
11
#394647
0.
#394680
b111 !
1%
#395063
00
#395382
0#
#395502
14
#395762
1$
#396000
b110 !
0%
#396822
04
#396964
0/
01
#397320
b111 !
1%
#397419
10
#397426
1,
#397990
1"
#398022
1#
#398142
14
#398402
0$
#398640
b110 !
0%
#399462
04
#399604
1-
11
#399927
0,
#399960
b111 !
1%
#400630
0"
#400662
0#
#400782
14
#401280
b110 !
0%
#402102
04
#402244
0-
#402600
b111 !
1%
#402983
00
#402984
1.
#403270
1"
#403422
14
#403682
1$
#403920
b110 !
0%
#404742
04
#404884
1/
01
#405207
0.
#405240
b111 !
1%
#405346
1,
#406062
14
#406322
0$
#406560
b110 !
0%
#407382
04
#407524
1-
0/
#407847
0,
#407880
b111 !
1%
#407979
10
#408264
1.
#408550
0"
#408582
1#
#408702
14
#409200
b110 !
0%
#410022
04
#410164
0-
1/
11
#410487
0.
#410520
b111 !
1%
#410903
00
#411222
0#
#411342
14
#411602
1$
#411840
b110 !
0%
#412662
04
#412804
0/
01
#413160
b111 !
1%
#413259
10
#413266
1,
#413830
1"
#413862
1#
#413982
14
#414242
0$
#414480
b110 !
0%
#415302
04
#415444
1-
11
#415767
0,
#415800
b111 !
1%
#416470
0"
#416502
0#
#416622
14
#417120
b110 !
0%
#417942
04
#418084
0-
#418440
b111 !
1%
#418823
00
#418824
1.
#419110
1"
#419262
14
#419522
1$
#419760
b110 !
0%
#420582
04
#420724
1/
01
#421047
0.
#421080
b111 !
1%
#421186
1,
#421902
14
#422162
0$
#422400
b110 !
0%
#423222
04
#423364
1-
0/
#423687
0,
#423720
b111 !
1%
#423819
10
#424104
1.
#424390
0"
#424422
1#
#424542
14
#425040
b110 !
0%
#425862
04
#426004
0-
1/
11
#426327
0.
#426360
b111 !
1%
#426743
00
#427062
0#
#427182
14
#427442
1$
#427680
b110 !
0%
#428502
04
#428644
0/
01
#429000
b111 !
1%
#429099
10
#429106
1,
#429670
1"
#429702
1#
#429822
14
#430082
0$
#430320
b110 !
0%
#431142
04
#431284
1-
11
#431607
0,
#431640
b111 !
1%
#432310
0"
#432342
0#
#432462
14
#432960
b110 !
0%
#433782
04
#433924
0-
#434280
b111 !
1%
#434663
00
#434664
1.
#434950
1"
#435102
14
#435362
1$
#435600
b110 !
0%
#436422
04
#436564
1/
01
#436887
0.
#436920
b111 !
1%
#437026
1,
#437742
14
#438002
0$
#438240
b110 !
0%
#439062
04
#439204
1-
0/
#439527
0,
#439560
b111 !
1%
#439659
10
#439944
1.
#440230
0"
#440262
1#
#440382
14
#440880
b110 !
0%
#441702
04
#441844
0-
1/
11
#442167
0.
#442200
b111 !
1%
#442583
00
#442902
0#
#443022
14
#443282
1$
#443520
b110 !
0%
#444342
04
#444484
0/
01
#444840
b111 !
1%
#444939
10
#444946
1,
#445510
1"
#445542
1#
#445662
14
#445922
0$
#446160
b110 !
0%
#446982
04
#447124
1-
11
#447447
0,
#447480
b111 !
1%
#448150
0"
#448182
0#
#448302
14
#448800
b110 !
0%
#449622
04
#449764
0-
#450120
b111 !
1%
#450503
00
#450504
1.
#450790
1"
#450942
14
#451202
1$
#451440
b110 !
0%
#452262
04
#452404
1/
01
#452727
0.
#452760
b111 !
1%
#452866
1,
#453582
14
#453842
0$
#454080
b110 !
0%
#454902
04
#455044
1-
0/
#455367
0,
#455400
b111 !
1%
#455499
10
#455784
1.
#456070
0"
#456102
1#
#456222
14
#456720
b110 !
0%
#457542
04
#457684
0-
1/
11
#458007
0.
#458040
b111 !
1%
#458423
00
#458742
0#
#458862
14
#459122
1$
#459360
b110 !
0%
#460182
04
#460324
0/
01
#460680
b111 !
1%
#460779
10
#460786
1,
#461350
1"
#461382
1#
#461502
14
#461762
0$
#462000
b110 !
0%
#462822
04
#462964
1-
11
#463287
0,
#463320
b111 !
1%
#463990
0"
#464022
0#
#464142
14
#464640
b110 !
0%
#465462
04
#465604
0-
#465960
b111 !
1%
#466343
00
#466344
1.
#466630
1"
#466782
14
#467042
1$
#467280
b110 !
0%
#468102
04
#468244
1/
01
#468567
0.
#468600
b111 !
1%
#468706
1,
#469422
14
#469682
0$
#469920
b110 !
0%
#470742
04
#470884
1-
0/
#471207
0,
#471240
b111 !
1%
#471339
10
#471624
1.
#471910
0"
#471942
1#
#472062
14
#472560
b110 !
0%
#473382
04
#473524
0-
1/
11
#473847
0.
#473880
b111 !
1%
#474263
00
#474582
0#
#474702
14
#474962
1$
#475200
b110 !
0%
#476022
04
#476164
0/
01
#476520
b111 !
1%
#476619
10
#476626
1,
#477190
1"
#477222
1#
#477342
14
#477602
0$
#477840
b110 !
0%
#478662
04
#478804
1-
11
#479127
0,
#479160
b111 !
1%
#479830
0"
#479862
0#
#479982
14
#480480
b110 !
0%
#481302
04
#481444
0-
#481800
b111 !
1%
#482183
00
#482184
1.
#482470
1"
#482622
14
#482882
1$
#483120
b110 !
0%
#483942
04
#484084
1/
01
#484407
0.
#484440
b111 !
1%
#484546
1,
#485262
14
#485522
0$
#485760
b110 !
0%
#486582
04
#486724
1-
0/
#487047
0,
#487080
b111 !
1%
#487179
10
#487464
1.
#487750
0"
#487782
1#
#487902
14
#488400
b110 !
0%
#489222
04
#489364
0-
1/
11
#489687
0.
#489720
b111 !
1%
#490103
00
#490422
0#
#490542
14
#490802
1$
#491040
b110 !
0%
#491862
04
#492004
0/
01
#492360
b111 !
1%
#492459
10
#492466
1,
#493030
1"
#493062
1#
#493182
14
#493442
0$
#493680
b110 !
0%
#494502
04
#494644
1-
11
#494967
0,
#495000
b111 !
1%
#495670
0"
#495702
0#
#495822
14
#496320
b110 !
0%
#497142
04
#497284
0-
#497640
b111 !
1%
#498023
00
#498024
1.
#498310
1"
#498462
14
#498722
1$
#498960
b110 !
0%
#499782
04
#499924
1/
01
#500247
0.
#500280
b111 !
1%
#500386
1,
#501102
14
#501362
0$
#501600
b110 !
0%
#502422
04
#502564
1-
0/
#502887
0,
#502920
b111 !
1%
#503019
10
#503304
1.
#503590
0"
#503622
1#
#503742
14
#504240
b110 !
0%
#505062
04
#505204
0-
1/
11
#505527
0.
#505560
b111 !
1%
#505943
00
#506262
0#
#506382
14
#506642
1$
#506880
b110 !
0%
#507702
04
#507844
0/
01
#508200
b111 !
1%
#508299
10
#508306
1,
#508870
1"
#508902
1#
#509022
14
#509282
0$
#509520
b110 !
0%
#510342
04
#510484
1-
11
#510807
0,
#510840
b111 !
1%
#511510
0"
#511542
0#
#511662
14
#512160
b110 !
0%
#512982
04
#513124
0-
#513480
b111 !
1%
#513863
00
#513864
1.
#514150
1"
#514302
14
#514562
1$
#514800
b110 !
0%
#515622
04
#515764
1/
01
#516087
0.
#516120
b111 !
1%
#516226
1,
#516942
14
#517202
0$
#517440
b110 !
0%
#518262
04
#518404
1-
0/
#518727
0,
#518760
b111 !
1%
#518859
10
#519144
1.
#519430
0"
#519462
1#
#519582
14
#520080
b110 !
0%
#520902
04
#521044
0-
1/
11
#521367
0.
#521400
b111 !
1%
#521783
00
#522102
0#
#522222
14
#522482
1$
#522720
b110 !
0%
#523542
04
#523684
0/
01
#524040
b111 !
1%
#524139
10
#524146
1,
#524710
1"
#524742
1#
#524862
14
#525122
0$
#525360
b110 !
0%
#526182
04
#526324
1-
11
#526647
0,
#526680
b111 !
1%
#527350
0"
#527382
0#
#527502
14
#528000
b110 !
0%
#528822
04
#528964
0-
#529320
b111 !
1%
#529703
00
#529704
1.
#529990
1"
#530142
14
#530402
1$
#530640
b110 !
0%
#531462
04
#531604
1/
01
#531927
0.
#531960
b111 !
1%
#532066
1,
#532782
14
#533042
0$
#533280
b110 !
0%
#534102
04
#534244
1-
0/
#534567
0,
#534600
b111 !
1%
#534699
10
#534984
1.
#535270
0"
#535302
1#
#535422
14
#535920
b110 !
0%
#536742
04
#536884
0-
1/
11
#537207
0.
#537240
b111 !
1%
#537623
00
#537942
0#
#538062
14
#538322
1$
#538560
b110 !
0%
#539382
04
#539524
0/
01
#539880
b111 !
1%
#539979
10
#539986
1,
#540550
1"
#540582
1#
#540702
14
#540962
0$
#541200
b110 !
0%
#542022
04
#542164
1-
11
#542487
0,
#542520
b111 !
1%
#543190
0"
#543222
0#
#543342
14
#543840
b110 !
0%
#544662
04
#544804
0-
#545160
b111 !
1%
#545543
00
#545544
1.
#545830
1"
#545982
14
#546242
1$
#546480
b110 !
0%
#547302
04
#547444
1/
01
#547767
0.
#547800
b111 !
1%
#547906
1,
#548622
14
#548882
0$
#549120
b110 !
0%
#549942
04
#550084
1-
0/
#550407
0,
#550440
b111 !
1%
#550539
10
#550824
1.
#551110
0"
#551142
1#
#551262
14
#551760
b110 !
0%
#552582
04
#552724
0-
1/
11
