PTC/Cwiczenie3_4/simulation/qsim/Cwiczenie3_4.msim.vcd
$comment
	File created using the following command:
		vcd file Cwiczenie3_4.msim.vcd -direction
$end
$date
	Wed Nov 15 16:39:15 2017
$end
$version
	ModelSim Version 10.1d
$end
$timescale
	1ps
$end
$scope module Cwiczenie3_4_vlg_vec_tst $end
$var reg 3 ! iSW [2:0] $end
$var wire 1 " oLEDG [7] $end
$var wire 1 # oLEDG [6] $end
$var wire 1 $ oLEDG [5] $end
$var wire 1 % oLEDG [4] $end
$var wire 1 & oLEDG [3] $end
$var wire 1 ' oLEDG [2] $end
$var wire 1 ( oLEDG [1] $end
$var wire 1 ) oLEDG [0] $end
$var wire 1 * sampler $end
$scope module i1 $end
$var wire 1 + gnd $end
$var wire 1 , vcc $end
$var wire 1 - unknown $end
$var tri1 1 . devclrn $end
$var tri1 1 / devpor $end
$var tri1 1 0 devoe $end
$var wire 1 1 inst1|28~combout $end
$var wire 1 2 inst1|27~combout $end
$var wire 1 3 inst|93~combout $end
$var wire 1 4 inst1|91~combout $end
$var wire 1 5 inst9~combout $end
$var wire 1 6 inst1|93~combout $end
$var wire 1 7 inst1|92~combout $end
$var wire 1 8 inst|94~combout $end
$var wire 1 9 inst|92~combout $end
$var wire 1 : inst1|94~combout $end
$var wire 1 ; inst|25~0_combout $end
$var wire 1 < inst1|26~0_combout $end
$var wire 1 = inst1|26~regout $end
$var wire 1 > inst1|23~0_combout $end
$var wire 1 ? inst1|23~regout $end
$var wire 1 @ inst17~2_combout $end
$var wire 1 A inst|24~1_combout $end
$var wire 1 B inst|24~3_combout $end
$var wire 1 C inst|24~0_combout $end
$var wire 1 D inst|24~_emulated_regout $end
$var wire 1 E inst|24~2_combout $end
$var wire 1 F inst|28~0_combout $end
$var wire 1 G inst1|25~0_combout $end
$var wire 1 H inst1|25~regout $end
$var wire 1 I inst1|50~0_combout $end
$var wire 1 J inst|28~combout $end
$var wire 1 K inst11~1_combout $end
$var wire 1 L inst11~0_combout $end
$var wire 1 M inst11~_emulated_regout $end
$var wire 1 N inst11~2_combout $end
$var wire 1 O inst|54~combout $end
$var wire 1 P inst1|24~1_combout $end
$var wire 1 Q inst1|24~_emulated_regout $end
$var wire 1 R inst1|24~0_combout $end
$var wire 1 S inst|26~0_combout $end
$var wire 1 T inst|26~regout $end
$var wire 1 U inst17~1_combout $end
$var wire 1 V inst14~combout $end
$var wire 1 W inst|88~combout $end
$var wire 1 X inst|25~regout $end
$var wire 1 Y inst17~0_combout $end
$var wire 1 Z inst13~combout $end
$var wire 1 [ inst1|21~0_combout $end
$var wire 1 \ inst|51~0_combout $end
$var wire 1 ] inst|91~combout $end
$var wire 1 ^ inst|23~0_combout $end
$var wire 1 _ inst|23~regout $end
$var wire 1 ` iSW~combout [2] $end
$var wire 1 a iSW~combout [1] $end
$var wire 1 b iSW~combout [0] $end
$upscope $end
$upscope $end
$enddefinitions $end
#0
$dumpvars
b10 !
x)
x(
x'
x&
x%
x$
x#
x"
x*
0+
1,
x-
1.
1/
10
x1
x2
x3
x4
x5
x6
x7
x8
x9
x:
x;
x<
x=
x>
x?
x@
xA
xB
xC
xD
xE
xF
xG
xH
xI
xJ
xK
xL
xM
xN
xO
xP
xQ
xR
xS
xT
xU
xV
xW
xX
xY
xZ
x[
x\
x]
x^
x_
0b
1a
0`
$end
#218
0=
0?
0D
0H
0M
0Q
0T
0X
0_
#541
1^
1S
#690
1<
#828
0\
#845
1>
#846
02
#866
1G
#868
0[
#885
1Y
#1121
1;
#1368
0@
#1377
0:
#3303
0$
#3493
0%
#3592
0"
#4183
0(
#4375
0&
#4460
0)
#4995
0N
#5000
b11 !
0*
#5170
1V
#5236
05
#5279
1Z
#5326
0K
#5370
1L
#5406
0U
#5410
1I
#5445
07
#5696
1W
#5730
0E
#5731
0O
#5756
1C
#5822
1b
#5828
0A
#5832
0R
#5900
16
#6427
08
#6529
1P
#6531
1B
#6805
11
#6940
1F
#6969
0I
#6981
04
#7199
15
1:
#7310
17
#7366
0J
#7490
09
#7582
01
#7681
0]
#7722
13
#7850
18
#7857
14
#7863
06
#8267
19
#8458
1]
#8499
03
#9302
0#
#9387
0'
#10000
b1 !
b0 !
1*
#10822
0b
#10832
0a
#11969
1I
#12199
05
0:
#12310
07
#12366
1J
#12582
11
#12850
08
#12857
04
#12863
16
#13267
09
#13458
0]
#13499
13
#15000
b1 !
0*
#15822
1b
#15827
1N
#16002
0V
#16158
1K
#16588
0C
#16686
1O
#16969
0I
#17199
15
1:
#17200
1C
#17229
1R
#17232
1A
#17310
17
#17366
0J
#17405
1E
#17582
01
#17850
18
#17857
14
#17863
06
#18010
1]
#18179
0L
#18235
0F
#18267
19
#18499
03
#20000
b0 !
1*
#20784
1'
#20822
0b
#20977
1#
#21969
1I
#22199
05
0:
#22310
07
#22838
1M
#22863
16
#23425
0N
#23968
0W
#24284
0O
#24798
0C
#25000
b1 !
0*
#25822
1b
#26969
0I
#27199
15
1:
#27310
17
#27863
06
#28398
1=
#28476
1Q
#28870
0<
#28874
1H
#28935
0R
#29349
0P
#29522
0G
#29548
1@
#30000
b0 !
1*
#30822
0b
#32199
05
0:
#32490
0'
#32640
1)
#32839
1(
#35000
b1 !
0*
#35822
1b
#37199
15
1:
#38398
0=
#38870
1<
#39548
0@
#40000
b0 !
1*
#40822
0b
#42199
05
0:
#42640
0)
#42863
16
#45000
b1 !
0*
#45822
1b
#47199
15
1:
#47863
06
#48398
1=
#48870
0<
#48874
0H
#49522
1G
#49548
1@
#50000
b0 !
1*
#50822
0b
#52199
05
0:
#52640
1)
#52839
0(
#55000
b1 !
0*
#55822
1b
#57199
15
1:
#58398
0=
#58870
1<
#59548
0@
#60000
b0 !
1*
#60822
0b
#61969
1I
#62199
05
0:
#62310
07
#62582
11
#62640
0)
#62850
08
#62857
04
#62863
16
#63267
09
#63499
13
#65000
b1 !
0*
#65822
1b
#66969
0I
#67199
15
1:
#67310
17
#67582
01
#67850
18
#67857
14
#67863
06
#68267
19
#68398
1=
#68476
0Q
#68499
03
#68866
1T
#68870
0<
#68874
1H
#68935
1R
#69044
1?
#69189
0S
#69349
1P
#69463
1D
#69508
1X
#69522
0G
#69533
0Y
#69671
0>
#69919
0E
#70000
b0 !
1*
#70319
0B
#70411
0;
#70822
0b
#72141
1%
#72199
05
0:
#72490
1'
#72593
1$
#72640
1)
#72839
1(
#73201
1&
#73491
0#
#75000
b1 !
0*
#75822
1b
#77199
15
1:
#78398
0=
#78870
1<
#80000
b0 !
1*
#80822
0b
#82199
05
0:
#82640
0)
#82863
16
#85000
b1 !
0*
#85822
1b
#87199
15
1:
#87863
06
#88398
1=
#88870
0<
#88874
0H
#89522
1G
#90000
b0 !
1*
#90822
0b
#92199
05
0:
#92640
1)
#92839
0(
#95000
b1 !
0*
#95822
1b
#97199
15
1:
#98398
0=
#98870
1<
#100000
b0 !
1*
#100822
0b
#101969
1I
#102199
05
0:
#102310
07
#102640
0)
#102863
16
#105000
b1 !
0*
#105822
1b
#106969
0I
#107199
15
1:
#107310
17
#107863
06
#108398
1=
#108476
1Q
#108870
0<
#108874
1H
#108935
0R
#109349
0P
#109522
0G
#110000
b0 !
1*
#110822
0b
#112199
05
0:
#112490
0'
#112640
1)
#112839
1(
#115000
b1 !
0*
#115822
1b
#117199
15
1:
#118398
0=
#118870
1<
#120000
b0 !
1*
#120822
0b
#122199
05
0:
#122640
0)
#122863
16
#125000
b1 !
0*
#125822
1b
#127199
15
1:
#127863
06
#128398
1=
#128870
0<
#128874
0H
#129522
1G
#130000
b0 !
1*
#130822
0b
#132199
05
0:
#132640
1)
#132839
0(
#135000
b1 !
0*
#135822
1b
#137199
15
1:
#138398
0=
#138870
1<
#140000
b0 !
1*
#140822
0b
#141969
1I
#142199
05
0:
#142310
07
#142640
0)
#142857
04
#142863
16
#145000
b1 !
0*
#145822
1b
#146969
0I
#147199
15
1:
#147310
17
#147857
14
#147863
06
#148398
1=
#148476
0Q
#148870
0<
#148874
1H
#148935
1R
#149044
0?
#149349
1P
#149522
0G
#149671
1>
#150000
b0 !
1*
#150822
0b
#152199
05
0:
#152490
1'
#152640
1)
#152839
1(
#153201
0&
#155000
b1 !
0*
#155822
1b
#157199
15
1:
#158398
0=
#158870
1<
#160000
b0 !
1*
#160822
0b
#162199
05
0:
#162640
0)
#162863
16
#165000
b1 !
0*
#165822
1b
#167199
15
1:
#167863
06
#168398
1=
#168870
0<
#168874
0H
#169522
1G
#170000
b0 !
1*
#170822
0b
#172199
05
0:
#172640
1)
#172839
0(
#175000
b1 !
0*
#175822
1b
#177199
15
1:
#178398
0=
#178870
1<
#180000
b0 !
1*
#180822
0b
#181969
1I
#182199
05
0:
#182310
07
#182640
0)
#182863
16
#185000
b1 !
0*
#185822
1b
#186969
0I
#187199
15
1:
#187310
17
#187863
06
#188398
1=
#188476
1Q
#188870
0<
#188874
1H
#188935
0R
#189349
0P
#189522
0G
#190000
b0 !
1*
#190043
1F
#190822
0b
#192199
05
0:
#192490
0'
#192640
1)
#192839
1(
#195000
b1 !
0*
#195822
1b
#197199
15
1:
#198398
0=
#198870
1<
#200000
b0 !
1*
#200822
0b
#202199
05
0:
#202640
0)
#202863
16
#205000
b1 !
0*
#205822
1b
#207199
15
1:
#207863
06
#208398
1=
#208870
0<
#208874
0H
#209522
1G
#210000
b0 !
1*
#210822
0b
#212199
05
0:
#212640
1)
#212839
0(
#215000
b1 !
0*
#215822
1b
#217199
15
1:
#218398
0=
#218870
1<
#220000
b0 !
1*
#220822
0b
#221969
1I
#222199
05
0:
#222310
07
#222582
11
#222640
0)
#222850
08
#222857
04
#222863
16
#225000
b1 !
0*
#225822
1b
#226969
0I
#227199
15
1:
#227310
17
#227582
01
#227850
18
#227857
14
#227863
06
#228398
1=
#228476
0Q
#228866
0T
#228870
0<
#228874
1H
#228935
1R
#229044
1?
#229189
1S
#229349
1P
#229522
0G
#229671
0>
#229674
0F
#230000
b0 !
1*
#230822
0b
#232141
0%
#232199
05
0:
#232490
1'
#232640
1)
#232839
1(
#233201
1&
#235000
b1 !
0*
#235822
1b
#237199
15
1:
#238398
0=
#238870
1<
#240000
b0 !
1*
#240822
0b
#242199
05
0:
#242640
0)
#242863
16
#245000
b1 !
0*
#245822
1b
#247199
15
1:
#247863
06
#248398
1=
#248870
0<
#248874
0H
#249522
1G
#250000
b0 !
1*
#250822
0b
#252199
05
0:
#252640
1)
#252839
0(
#255000
b1 !
0*
#255822
1b
#257199
15
1:
#258398
0=
#258870
1<
#260000
b0 !
1*
#260822
0b
#261969
1I
#262199
05
0:
#262310
07
#262640
0)
#262863
16
#265000
b1 !
0*
#265822
1b
#266969
0I
#267199
15
1:
#267310
17
#267863
06
#268398
1=
#268476
1Q
#268870
0<
#268874
1H
#268935
0R
#269349
0P
#269522
0G
#270000
b0 !
1*
#270822
0b
#272199
05
0:
#272490
0'
#272640
1)
#272839
1(
#275000
b1 !
0*
#275822
1b
#277199
15
1:
#278398
0=
#278870
1<
#280000
b0 !
1*
#280822
0b
#282199
05
0:
#282640
0)
#282863
16
#285000
b1 !
0*
#285822
1b
#287199
15
1:
#287863
06
#288398
1=
#288870
0<
#288874
0H
#289522
1G
#290000
b0 !
1*
#290822
0b
#292199
05
0:
#292640
1)
#292839
0(
#295000
b1 !
0*
#295822
1b
#297199
15
1:
#298398
0=
#298870
1<
#300000
b0 !
1*
#300822
0b
#301969
1I
#302199
05
0:
#302310
07
#302640
0)
#302857
04
#302863
16
#305000
b1 !
0*
#305822
1b
#306969
0I
#307199
15
1:
#307310
17
#307857
14
#307863
06
#308398
1=
#308476
0Q
#308870
0<
#308874
1H
#308935
1R
#309044
0?
#309349
1P
#309522
0G
#309671
1>
#310000
b0 !
1*
#310822
0b
#312199
05
0:
#312490
1'
#312640
1)
#312839
1(
#313201
0&
#315000
b1 !
0*
#315822
1b
#317199
15
1:
#318398
0=
#318870
1<
#320000
b0 !
1*
#320822
0b
#322199
05
0:
#322640
0)
#322863
16
#325000
b1 !
0*
#325822
1b
#327199
15
1:
#327863
06
#328398
1=
#328870
0<
#328874
0H
#329522
1G
#330000
b0 !
1*
#330822
0b
#332199
05
0:
#332640
1)
#332839
0(
#335000
b1 !
0*
#335822
1b
#337199
15
1:
#338398
0=
#338870
1<
#340000
b0 !
1*
#340822
0b
#341969
1I
#342199
05
0:
#342310
07
#342640
0)
#342863
16
#345000
b1 !
0*
#345822
1b
#346969
0I
#347199
15
1:
#347310
17
#347863
06
#348398
1=
#348476
1Q
#348870
0<
#348874
1H
#348935
0R
#349349
0P
#349522
0G
#350000
b0 !
1*
#350043
1F
#350822
0b
#352199
05
0:
#352490
0'
#352640
1)
#352839
1(
#355000
b1 !
0*
#355822
1b
#357199
15
1:
#358398
0=
#358870
1<
#360000
b0 !
1*
#360822
0b
#362199
05
0:
#362640
0)
#362863
16
#365000
b1 !
0*
#365822
1b
#367199
15
1:
#367863
06
#368398
1=
#368870
0<
#368874
0H
#369522
1G
#370000
b0 !
1*
#370822
0b
#372199
05
0:
#372640
1)
#372839
0(
#375000
b1 !
0*
#375822
1b
#377199
15
1:
#378398
0=
#378870
1<
#380000
b0 !
1*
#380822
0b
#381969
1I
#382199
05
0:
#382310
07
#382582
11
#382640
0)
#382850
08
#382857
04
#382863
16
#383499
13
#385000
b1 !
0*
#385822
1b
#386969
0I
#387199
15
1:
#387310
17
#387582
01
#387850
18
#387857
14
#387863
06
#388398
1=
#388476
0Q
#388499
03
#388866
1T
#388870
0<
#388874
1H
#388935
1R
#389044
1?
#389189
0S
#389349
1P
#389508
0X
#389522
0G
#389671
0>
#389674
0F
#390000
b0 !
1*
#390411
1;
#390822
0b
#392141
1%
#392199
05
0:
#392490
1'
#392593
0$
#392640
1)
#392839
1(
#393201
1&
#395000
b1 !
0*
#395822
1b
#397199
15
1:
#398398
0=
#398870
1<
#400000
b0 !
1*
#400822
0b
#402199
05
0:
#402640
0)
#402863
16
#405000
b1 !
0*
#405822
1b
#407199
15
1:
#407863
06
#408398
1=
#408870
0<
#408874
0H
#409522
1G
#410000
b0 !
1*
#410822
0b
#412199
05
0:
#412640
1)
#412839
0(
#415000
b1 !
0*
#415822
1b
#417199
15
1:
#418398
0=
#418870
1<
#420000
b0 !
1*
#420822
0b
#421969
1I
#422199
05
0:
#422310
07
#422640
0)
#422863
16
#425000
b1 !
0*
#425822
1b
#426969
0I
#427199
15
1:
#427310
17
#427863
06
#428398
1=
#428476
1Q
#428870
0<
#428874
1H
#428935
0R
#429349
0P
#429522
0G
#430000
b0 !
1*
#430822
0b
#432199
05
0:
#432490
0'
#432640
1)
#432839
1(
#435000
b1 !
0*
#435822
1b
#437199
15
1:
#438398
0=
#438870
1<
#440000
b0 !
1*
#440822
0b
#442199
05
0:
#442640
0)
#442863
16
#445000
b1 !
0*
#445822
1b
#447199
15
1:
#447863
06
#448398
1=
#448870
0<
#448874
0H
#449522
1G
#450000
b0 !
1*
#450822
0b
#452199
05
0:
#452640
1)
#452839
0(
#455000
b1 !
0*
#455822
1b
#457199
15
1:
#458398
0=
#458870
1<
#460000
b0 !
1*
#460822
0b
#461969
1I
#462199
05
0:
#462310
07
#462640
0)
#462857
04
#462863
16
#465000
b1 !
0*
#465822
1b
#466969
0I
#467199
15
1:
#467310
17
#467857
14
#467863
06
#468398
1=
#468476
0Q
#468870
0<
#468874
1H
#468935
1R
#469044
0?
#469349
1P
#469522
0G
#469671
1>
#470000
b0 !
1*
#470822
0b
#472199
05
0:
#472490
1'
#472640
1)
#472839
1(
#473201
0&
#475000
b1 !
0*
#475822
1b
#477199
15
1:
#478398
0=
#478870
1<
#480000
b0 !
1*
#480822
0b
#482199
05
0:
#482640
0)
#482863
16
#485000
b1 !
0*
#485822
1b
#487199
15
1:
#487863
06
#488398
1=
#488870
0<
#488874
0H
#489522
1G
#490000
b0 !
1*
#490822
0b
#492199
05
0:
#492640
1)
#492839
0(
#495000
b1 !
0*
#495822
1b
#497199
15
1:
#498398
0=
#498870
1<
#500000
b0 !
1*
#500822
0b
#501969
1I
#502199
05
0:
#502310
07
#502640
0)
#502863
16
#505000
b1 !
0*
#505822
1b
#506969
0I
#507199
15
1:
#507310
17
#507863
06
#508398
1=
#508476
1Q
#508870
0<
#508874
1H
#508935
0R
#509349
0P
#509522
0G
#510000
b0 !
1*
#510043
1F
#510822
0b
#512199
05
0:
#512490
0'
#512640
1)
#512839
1(
#515000
b1 !
0*
#515822
1b
#517199
15
1:
#518398
0=
#518870
1<
#520000
b0 !
1*
#520822
0b
#522199
05
0:
#522640
0)
#522863
16
#525000
b1 !
0*
#525822
1b
#527199
15
1:
#527863
06
#528398
1=
#528870
0<
#528874
0H
#529522
1G
#530000
b0 !
1*
#530822
0b
#532199
05
0:
#532640
1)
#532839
0(
#535000
b1 !
0*
#535822
1b
#537199
15
1:
#538398
0=
#538870
1<
#540000
b0 !
1*
#540822
0b
#541969
1I
#542199
05
0:
#542310
07
#542582
11
#542640
0)
#542850
08
#542857
04
#542863
16
#545000
b1 !
0*
#545822
1b
#546969
0I
#547199
15
1:
#547310
17
#547582
01
#547850
18
#547857
14
#547863
06
#548398
1=
#548476
0Q
#548866
0T
#548870
0<
#548874
1H
#548935
1R
#549044
1?
#549189
1S
#549349
1P
#549522
0G
#549533
1Y
#549671
0>
#549674
0F
#550000
b0 !
1*
#550822
0b
#552141
0%
#552199
05
0:
#552490
1'
#552640
1)
#552839
1(
#553201
1&
#555000
b1 !
0*
#555822
1b
#557199
15
1:
#558398
0=
#558870
1<
#560000
b0 !
1*
#560822
0b
#562199
05
0:
#562640
0)
#562863
16
#565000
b1 !
0*
#565822
1b
#567199
15
1:
#567863
06
#568398
1=
#568870
0<
#568874
0H
#569522
1G
#570000
b0 !
1*
#570822
0b
#572199
05
0:
#572640
1)
#572839
0(
#575000
b1 !
0*
#575822
1b
#577199
15
1:
#578398
0=
#578870
1<
#580000
b0 !
1*
#580822
0b
#581969
1I
#582199
05
0:
#582310
07
#582640
0)
#582863
16
#585000
b1 !
0*
#585822
1b
#586969
0I
#587199
15
1:
#587310
17
#587863
06
#588398
1=
#588476
1Q
#588870
0<
#588874
1H
#588935
0R
#589349
0P
#589522
0G
#590000
b0 !
1*
#590822
0b
#592199
05
0:
#592490
0'
#592640
1)
#592839
1(
#595000
b1 !
0*
#595822
1b
#597199
15
1:
#598398
0=
#598870
1<
#600000
b0 !
1*
#600822
0b
#602199
05
0:
#602640
0)
#602863
16
#605000
b1 !
0*
#605822
1b
#607199
15
1:
#607863
06
#608398
1=
#608870
0<
#608874
0H
#609522
1G
#610000
b0 !
1*
#610822
0b
#612199
05
0:
#612640
1)
#612839
0(
#615000
b1 !
0*
#615822
1b
#617199
15
1:
#618398
0=
#618870
1<
#620000
b0 !
1*
#620822
0b
#621969
1I
#622199
05
0:
#622310
07
#622640
0)
#622857
04
#622863
16
#625000
b1 !
0*
#625822
1b
#626969
0I
#627199
15
1:
#627310
17
#627857
14
#627863
06
#628398
1=
#628476
0Q
#628870
0<
#628874
1H
#628935
1R
#629044
0?
#629349
1P
#629522
0G
#629671
1>
#630000
b0 !
1*
#630822
0b
#632199
05
0:
#632490
1'
#632640
1)
#632839
1(
#633201
0&
#635000
b1 !
0*
#635822
1b
#637199
15
1:
#638398
0=
#638870
1<
#640000
b0 !
1*
#640822
0b
#642199
05
0:
#642640
0)
#642863
16
#645000
b1 !
0*
#645822
1b
#647199
15
1:
#647863
06
#648398
1=
#648870
0<
#648874
0H
#649522
1G
#650000
b0 !
1*
#650822
0b
#652199
05
0:
#652640
1)
#652839
0(
#655000
b1 !
0*
#655822
1b
#657199
15
1:
#658398
0=
#658870
1<
#660000
b0 !
1*
#660822
0b
#661969
1I
#662199
05
0:
#662310
07
#662640
0)
#662863
16
#665000
b1 !
0*
#665822
1b
#666969
0I
#667199
15
1:
#667310
17
#667863
06
#668398
1=
#668476
1Q
#668870
0<
#668874
1H
#668935
0R
#669349
0P
#669522
0G
#670000
b0 !
1*
#670043
1F
#670822
0b
#672199
05
0:
#672490
0'
#672640
1)
#672839
1(
#675000
b1 !
0*
#675822
1b
#677199
15
1:
#678398
0=
#678870
1<
#680000
b0 !
1*
#680822
0b
#682199
05
0:
#682640
0)
#682863
16
#685000
b1 !
0*
#685822
1b
#687199
15
1:
#687863
06
#688398
1=
#688870
0<
#688874
0H
#689522
1G
#690000
b0 !
1*
#690822
0b
#692199
05
0:
#692640
1)
#692839
0(
#695000
b1 !
0*
#695822
1b
#697199
15
1:
#698398
0=
#698870
1<
#700000
b0 !
1*
#700822
0b
#701969
1I
#702199
05
0:
#702310
07
#702366
1J
#702582
11
#702640
0)
#702850
08
#702857
04
#702863
16
#703179
1L
#703267
09
#703458
0]
#703466
1N
#703499
13
#704009
1W
#704160
0M
#704325
1O
#704839
1C
#704868
1R
#705000
b1 !
0*
#705044
1E
#705282
1P
#705444
1B
#705463
18
#705649
1]
#705822
1b
#705841
01
#705874
0F
#706007
0D
0Q
#706017
14
#706526
19
#706690
0J
#706758
03
#706969
0I
#707199
15
1:
#707310
17
#707503
0L
#707863
06
#708423
1'
#708616
1#
#710000
b0 !
1*
#710822
0b
#711969
1I
#712199
05
0:
#712310
07
#712838
1M
#712863
16
#713425
0N
#713968
0W
#714284
0O
#714798
0C
#715000
b1 !
0*
#715822
1b
#716969
0I
#717199
15
1:
#717310
17
#717863
06
#718398
1=
#718476
1Q
#718870
0<
#718874
1H
#718935
0R
#719349
0P
#719522
0G
#719548
1@
#720000
b0 !
1*
#720822
0b
#722199
05
0:
#722490
0'
#722640
1)
#722839
1(
#725000
b1 !
0*
#725822
1b
#727199
15
1:
#728398
0=
#728870
1<
#729548
0@
#730000
b0 !
1*
#730822
0b
#732199
05
0:
#732640
0)
#732863
16
#735000
b1 !
0*
#735822
1b
#737199
15
1:
#737863
06
#738398
1=
#738870
0<
#738874
0H
#739522
1G
#739548
1@
#740000
b0 !
1*
#740822
0b
#742199
05
0:
#742640
1)
#742839
0(
#745000
b1 !
0*
#745822
1b
#747199
15
1:
#748398
0=
#748870
1<
#749548
0@
#750000
b0 !
1*
#750822
0b
#751969
1I
#752199
05
0:
#752310
07
#752582
11
#752640
0)
#752850
08
#752857
04
#752863
16
#753267
09
#753499
13
#755000
b1 !
0*
#755822
1b
#756969
0I
#757199
15
1:
#757310
17
#757582
01
#757850
18
#757857
14
#757863
06
#758267
19
#758398
1=
#758476
0Q
#758499
03
#758866
1T
#758870
0<
#758874
1H
#758935
1R
#759044
1?
#759189
0S
#759349
1P
#759463
1D
#759508
1X
#759522
0G
#759533
0Y
#759671
0>
#759919
0E
#760000
b0 !
1*
#760319
0B
#760411
0;
#760822
0b
#762141
1%
#762199
05
0:
#762490
1'
#762593
1$
#762640
1)
#762839
1(
#763201
1&
#763491
0#
#765000
b1 !
0*
#765822
1b
#767199
15
1:
#768398
0=
#768870
1<
#770000
b0 !
1*
#770822
0b
#772199
05
0:
#772640
0)
#772863
16
#775000
b1 !
0*
#775822
1b
#777199
15
1:
#777863
06
#778398
1=
#778870
0<
#778874
0H
#779522
1G
#780000
b0 !
1*
#780822
0b
#782199
05
0:
#782640
1)
#782839
0(
#785000
b1 !
0*
#785822
1b
#787199
15
1:
#788398
0=
#788870
1<
#790000
b0 !
1*
#790822
0b
#791969
1I
#792199
05
0:
#792310
07
#792640
0)
#792863
16
#795000
b1 !
0*
#795822
1b
#796969
0I
#797199
15
1:
#797310
17
#797863
06
#798398
1=
#798476
1Q
#798870
0<
#798874
1H
#798935
0R
#799349
0P
#799522
0G
#800000
b0 !
1*
#800822
0b
#802199
05
0:
#802490
0'
#802640
1)
#802839
1(
#805000
b1 !
0*
#805822
1b
#807199
15
1:
#808398
0=
#808870
1<
#810000
b0 !
1*
#810822
0b
#812199
05
0:
#812640
0)
#812863
16
#815000
b1 !
0*
#815822
1b
#817199
15
1:
#817863
06
#818398
1=
#818870
0<
#818874
0H
#819522
1G
#820000
b0 !
1*
#820822
0b
#822199
05
0:
#822640
1)
#822839
0(
#825000
b1 !
0*
#825822
1b
#827199
15
1:
#828398
0=
#828870
1<
#830000
b0 !
1*
#830822
0b
#831969
1I
#832199
05
0:
#832310
07
#832640
0)
#832857
04
#832863
16
#835000
b1 !
0*
#835822
1b
#836969
0I
#837199
15
1:
#837310
17
#837857
14
#837863
06
#838398
1=
#838476
0Q
#838870
0<
#838874
1H
#838935
1R
#839044
0?
#839349
1P
#839522
0G
#839671
1>
#840000
b0 !
1*
#840822
0b
#842199
05
0:
#842490
1'
#842640
1)
#842839
1(
#843201
0&
#845000
b1 !
0*
#845822
1b
#847199
15
1:
#848398
0=
#848870
1<
#850000
b0 !
1*
#850822
0b
#852199
05
0:
#852640
0)
#852863
16
#855000
b1 !
0*
#855822
1b
#857199
15
1:
#857863
06
#858398
1=
#858870
0<
#858874
0H
#859522
1G
#860000
b0 !
1*
#860822
0b
#862199
05
0:
#862640
1)
#862839
0(
#865000
b1 !
0*
#865822
1b
#867199
15
1:
#868398
0=
#868870
1<
#870000
b0 !
1*
#870822
0b
#871969
1I
#872199
05
0:
#872310
07
#872640
0)
#872863
16
#875000
b1 !
0*
#875822
1b
#876969
0I
#877199
15
1:
#877310
17
#877863
06
#878398
1=
#878476
1Q
#878870
0<
#878874
1H
#878935
0R
#879349
0P
#879522
0G
#880000
b0 !
1*
#880043
1F
#880822
0b
#882199
05
0:
#882490
0'
#882640
1)
#882839
1(
#885000
b1 !
0*
#885822
1b
#887199
15
1:
#888398
0=
#888870
1<
#890000
b0 !
1*
#890822
0b
#892199
05
0:
#892640
0)
#892863
16
#895000
b1 !
0*
#895822
1b
#897199
15
1:
#897863
06
#898398
1=
#898870
0<
#898874
0H
#899522
1G
#900000
b0 !
1*
#900822
0b
#902199
05
0:
#902640
1)
#902839
0(
#905000
b1 !
0*
#905822
1b
#907199
15
1:
#908398
0=
#908870
1<
#910000
b0 !
1*
#910822
0b
#911969
1I
#912199
05
0:
#912310
07
#912582
11
#912640
0)
#912850
08
#912857
04
#912863
16
#915000
b1 !
0*
#915822
1b
#916969
0I
#917199
15
1:
#917310
17
#917582
01
#917850
18
#917857
14
#917863
06
#918398
1=
#918476
0Q
#918866
0T
#918870
0<
#918874
1H
#918935
1R
#919044
1?
#919189
1S
#919349
1P
#919522
0G
#919671
0>
#919674
0F
#920000
b0 !
1*
#920822
0b
#922141
0%
#922199
05
0:
#922490
1'
#922640
1)
#922839
1(
#923201
1&
#925000
b1 !
0*
#925822
1b
#927199
15
1:
#928398
0=
#928870
1<
#930000
b0 !
1*
#930822
0b
#932199
05
0:
#932640
0)
#932863
16
#935000
b1 !
0*
#935822
1b
#937199
15
1:
#937863
06
#938398
1=
#938870
0<
#938874
0H
#939522
1G
#940000
b0 !
1*
#940822
0b
#942199
05
0:
#942640
1)
#942839
0(
#945000
b1 !
0*
#945822
1b
#947199
15
1:
#948398
0=
#948870
1<
#950000
b0 !
1*
#950822
0b
#951969
1I
#952199
05
0:
#952310
07
#952640
0)
#952863
16
#955000
b1 !
0*
#955822
1b
#956969
0I
#957199
15
1:
#957310
17
#957863
06
#958398
1=
#958476
1Q
#958870
0<
#958874
1H
#958935
0R
#959349
0P
#959522
0G
#960000
b0 !
1*
#960822
0b
#962199
05
0:
#962490
0'
#962640
1)
#962839
1(
#965000
b1 !
0*
#965822
1b
#967199
15
1:
#968398
0=
#968870
1<
#970000
b0 !
1*
#970822
0b
#972199
05
0:
#972640
0)
#972863
16
#975000
b1 !
0*
#975822
1b
#977199
15
1:
#977863
06
#978398
1=
#978870
0<
#978874
0H
#979522
1G
#980000
b0 !
1*
#980822
0b
#982199
05
0:
#982640
1)
#982839
0(
#985000
b1 !
0*
#985822
1b
#987199
15
1:
#988398
0=
#988870
1<
#990000
b0 !
1*
#990822
0b
#991969
1I
#992199
05
0:
#992310
07
#992640
0)
#992857
04
#992863
16
#995000
b1 !
0*
#995822
1b
#996969
0I
#997199
15
1:
#997310
17
#997857
14
#997863
06
#998398
1=
#998476
0Q
#998870
0<
#998874
1H
#998935
1R
#999044
0?
#999349
1P
#999522
0G
#999671
1>
