PTC/Cwiczenie2_1/simulation/qsim/Cwiczenie2_1.msim.vcd
$comment
	File created using the following command:
		vcd file Cwiczenie2_1.msim.vcd -direction
$end
$date
	Wed Nov 08 15:22:00 2017
$end
$version
	ModelSim Version 10.1d
$end
$timescale
	1ps
$end
$scope module Cwiczenie2_1_vlg_vec_tst $end
$var reg 2 ! iSW [1:0] $end
$var wire 1 " oLEDG [2] $end
$var wire 1 # oLEDG [1] $end
$var wire 1 $ oLEDG [0] $end
$var wire 1 % sampler $end
$scope module i1 $end
$var wire 1 & gnd $end
$var wire 1 ' vcc $end
$var wire 1 ( unknown $end
$var tri1 1 ) devclrn $end
$var tri1 1 * devpor $end
$var tri1 1 + devoe $end
$var wire 1 , inst9~combout $end
$var wire 1 - inst1~regout $end
$var wire 1 . inst10~combout $end
$var wire 1 / inst~regout $end
$var wire 1 0 inst7~combout $end
$var wire 1 1 inst3~regout $end
$var wire 1 2 iSW~combout [1] $end
$var wire 1 3 iSW~combout [0] $end
$upscope $end
$upscope $end
$enddefinitions $end
#0
$dumpvars
b0 !
x$
x#
x"
x%
0&
1'
x(
1)
1*
1+
x,
x-
x.
x/
x0
x1
03
02
$end
#218
0-
0/
01
#679
1.
#681
10
#957
0,
#1320
b1 !
0%
#2142
13
#2640
b0 !
1%
#3462
03
#3604
1/
11
#3884
0"
#3916
0#
#3927
00
#3960
b1 !
0%
#4296
0$
#4782
13
#5280
b0 !
1%
#5496
01
0/
#5959
10
#6102
03
#6600
b1 !
0%
#7422
13
#7920
b0 !
1%
#8742
03
#9240
b1 !
0%
#10000
b11 !
1%
#10062
13
#10560
b10 !
0%
#10832
12
#11382
03
#11880
b11 !
1%
#12702
13
#13200
b10 !
0%
#14022
03
#14520
b11 !
1%
#15342
13
#15840
b10 !
0%
#16662
03
#16804
1/
11
#17127
00
#17160
b11 !
1%
#17982
13
#18480
b10 !
0%
#19302
03
#19444
01
#19800
b11 !
1%
#19905
0.
#19906
1,
#20470
1"
#20622
13
#20882
1$
#21120
b10 !
0%
#21942
03
#22084
1-
0/
#22407
0,
#22440
b11 !
1%
#22547
10
#23110
0"
#23262
13
#23760
b10 !
0%
#24582
03
#24724
0-
11
#25047
00
#25080
b11 !
1%
#25185
1.
#25186
1,
#25782
1#
#25902
13
#26162
0$
#26400
b10 !
0%
#27222
03
#27364
1-
1/
01
#27720
b11 !
1%
#27825
0.
#27826
0,
#28390
1"
#28422
0#
#28542
13
#29040
b10 !
0%
#29862
03
#30004
0-
0/
#30360
b11 !
1%
#30467
10
#30709
1.
#31030
0"
#31062
1#
#31182
13
#31442
1$
#31680
b10 !
0%
#32502
03
#32644
1/
11
#32967
00
#33000
b11 !
1%
#33702
0#
#33822
13
#34082
0$
#34320
b10 !
0%
#35142
03
#35284
01
#35640
b11 !
1%
#35745
0.
#35746
1,
#36310
1"
#36462
13
#36722
1$
#36960
b10 !
0%
#37782
03
#37924
1-
0/
#38247
0,
#38280
b11 !
1%
#38387
10
#38950
0"
#39102
13
#39600
b10 !
0%
#40422
03
#40564
0-
11
#40887
00
#40920
b11 !
1%
#41025
1.
#41026
1,
#41622
1#
#41742
13
#42002
0$
#42240
b10 !
0%
#43062
03
#43204
1-
1/
01
#43560
b11 !
1%
#43665
0.
#43666
0,
#44230
1"
#44262
0#
#44382
13
#44880
b10 !
0%
#45702
03
#45844
0-
0/
#46200
b11 !
1%
#46307
10
#46549
1.
#46870
0"
#46902
1#
#47022
13
#47282
1$
#47520
b10 !
0%
#48342
03
#48484
1/
11
#48807
00
#48840
b11 !
1%
#49542
0#
#49662
13
#49922
0$
#50160
b10 !
0%
#50982
03
#51124
01
#51480
b11 !
1%
#51585
0.
#51586
1,
#52150
1"
#52302
13
#52562
1$
#52800
b10 !
0%
#53622
03
#53764
1-
0/
#54087
0,
#54120
b11 !
1%
#54227
10
#54790
0"
#54942
13
#55440
b10 !
0%
#56262
03
#56404
0-
11
#56727
00
#56760
b11 !
1%
#56865
1.
#56866
1,
#57462
1#
#57582
13
#57842
0$
#58080
b10 !
0%
#58902
03
#59044
1-
1/
01
#59400
b11 !
1%
#59505
0.
#59506
0,
#60070
1"
#60102
0#
#60222
13
#60720
b10 !
0%
#61542
03
#61684
0-
0/
#62040
b11 !
1%
#62147
10
#62389
1.
#62710
0"
#62742
1#
#62862
13
#63122
1$
#63360
b10 !
0%
#64182
03
#64324
1/
11
#64647
00
#64680
b11 !
1%
#65382
0#
#65502
13
#65762
0$
#66000
b10 !
0%
#66822
03
#66964
01
#67320
b11 !
1%
#67425
0.
#67426
1,
#67990
1"
#68142
13
#68402
1$
#68640
b10 !
0%
#69462
03
#69604
1-
0/
#69927
0,
#69960
b11 !
1%
#70067
10
#70630
0"
#70782
13
#71280
b10 !
0%
#72102
03
#72244
0-
11
#72567
00
#72600
b11 !
1%
#72705
1.
#72706
1,
#73302
1#
#73422
13
#73682
0$
#73920
b10 !
0%
#74742
03
#74884
1-
1/
01
#75240
b11 !
1%
#75345
0.
#75346
0,
#75910
1"
#75942
0#
#76062
13
#76560
b10 !
0%
#77382
03
#77524
0-
0/
#77880
b11 !
1%
#77987
10
#78229
1.
#78550
0"
#78582
1#
#78702
13
#78962
1$
#79200
b10 !
0%
#80022
03
#80164
1/
11
#80487
00
#80520
b11 !
1%
#81222
0#
#81342
13
#81602
0$
#81840
b10 !
0%
#82662
03
#82804
01
#83160
b11 !
1%
#83265
0.
#83266
1,
#83830
1"
#83982
13
#84242
1$
#84480
b10 !
0%
#85302
03
#85444
1-
0/
#85767
0,
#85800
b11 !
1%
#85907
10
#86470
0"
#86622
13
#87120
b10 !
0%
#87942
03
#88084
0-
11
#88407
00
#88440
b11 !
1%
#88545
1.
#88546
1,
#89142
1#
#89262
13
#89522
0$
#89760
b10 !
0%
#90582
03
#90724
1-
1/
01
#91080
b11 !
1%
#91185
0.
#91186
0,
#91750
1"
#91782
0#
#91902
13
#92400
b10 !
0%
#93222
03
#93364
0-
0/
#93720
b11 !
1%
#93827
10
#94069
1.
#94390
0"
#94422
1#
#94542
13
#94802
1$
#95040
b10 !
0%
#95862
03
#96004
1/
11
#96327
00
#96360
b11 !
1%
#97062
0#
#97182
13
#97442
0$
#97680
b10 !
0%
#98502
03
#98644
01
#99000
b11 !
1%
#99105
0.
#99106
1,
#99670
1"
#99822
13
#100082
1$
#100320
b10 !
0%
#101142
03
#101284
1-
0/
#101607
0,
#101640
b11 !
1%
#101747
10
#102310
0"
#102462
13
#102960
b10 !
0%
#103782
03
#103924
0-
11
#104247
00
#104280
b11 !
1%
#104385
1.
#104386
1,
#104982
1#
#105102
13
#105362
0$
#105600
b10 !
0%
#106422
03
#106564
1-
1/
01
#106920
b11 !
1%
#107025
0.
#107026
0,
#107590
1"
#107622
0#
#107742
13
#108240
b10 !
0%
#109062
03
#109204
0-
0/
#109560
b11 !
1%
#109667
10
#109909
1.
#110230
0"
#110262
1#
#110382
13
#110642
1$
#110880
b10 !
0%
#111702
03
#111844
1/
11
#112167
00
#112200
b11 !
1%
#112902
0#
#113022
13
#113282
0$
#113520
b10 !
0%
#114342
03
#114484
01
#114840
b11 !
1%
#114945
0.
#114946
1,
#115510
1"
#115662
13
#115922
1$
#116160
b10 !
0%
#116982
03
#117124
1-
0/
#117447
0,
#117480
b11 !
1%
#117587
10
#118150
0"
#118302
13
#118800
b10 !
0%
#119622
03
#119764
0-
11
#120087
00
#120120
b11 !
1%
#120225
1.
#120226
1,
#120822
1#
#120942
13
#121202
0$
#121440
b10 !
0%
#122262
03
#122404
1-
1/
01
#122760
b11 !
1%
#122865
0.
#122866
0,
#123430
1"
#123462
0#
#123582
13
#124080
b10 !
0%
#124902
03
#125044
0-
0/
#125400
b11 !
1%
#125507
10
#125749
1.
#126070
0"
#126102
1#
#126222
13
#126482
1$
#126720
b10 !
0%
#127542
03
#127684
1/
11
#128007
00
#128040
b11 !
1%
#128742
0#
#128862
13
#129122
0$
#129360
b10 !
0%
#130182
03
#130324
01
#130680
b11 !
1%
#130785
0.
#130786
1,
#131350
1"
#131502
13
#131762
1$
#132000
b10 !
0%
#132822
03
#132964
1-
0/
#133287
0,
#133320
b11 !
1%
#133427
10
#133990
0"
#134142
13
#134640
b10 !
0%
#135462
03
#135604
0-
11
#135927
00
#135960
b11 !
1%
#136065
1.
#136066
1,
#136662
1#
#136782
13
#137042
0$
#137280
b10 !
0%
#138102
03
#138244
1-
1/
01
#138600
b11 !
1%
#138705
0.
#138706
0,
#139270
1"
#139302
0#
#139422
13
#139920
b10 !
0%
#140742
03
#140884
0-
0/
#141240
b11 !
1%
#141347
10
#141589
1.
#141910
0"
#141942
1#
#142062
13
#142322
1$
#142560
b10 !
0%
#143382
03
#143524
1/
11
#143847
00
#143880
b11 !
1%
#144582
0#
#144702
13
#144962
0$
#145200
b10 !
0%
#146022
03
#146164
01
#146520
b11 !
1%
#146625
0.
#146626
1,
#147190
1"
#147342
13
#147602
1$
#147840
b10 !
0%
#148662
03
#148804
1-
0/
#149127
0,
#149160
b11 !
1%
#149267
10
#149830
0"
#149982
13
#150480
b10 !
0%
#151302
03
#151444
0-
11
#151767
00
#151800
b11 !
1%
#151905
1.
#151906
1,
#152502
1#
#152622
13
#152882
0$
#153120
b10 !
0%
#153942
03
#154084
1-
1/
01
#154440
b11 !
1%
#154545
0.
#154546
0,
#155110
1"
#155142
0#
#155262
13
#155760
b10 !
0%
#156582
03
#156724
0-
0/
#157080
b11 !
1%
#157187
10
#157429
1.
#157750
0"
#157782
1#
#157902
13
#158162
1$
#158400
b10 !
0%
#159222
03
#159364
1/
11
#159687
00
#159720
b11 !
1%
#160422
0#
#160542
13
#160802
0$
#161040
b10 !
0%
#161862
03
#162004
01
#162360
b11 !
1%
#162465
0.
#162466
1,
#163030
1"
#163182
13
#163442
1$
#163680
b10 !
0%
#164502
03
#164644
1-
0/
#164967
0,
#165000
b11 !
1%
#165107
10
#165670
0"
#165822
13
#166320
b10 !
0%
#167142
03
#167284
0-
11
#167607
00
#167640
b11 !
1%
#167745
1.
#167746
1,
#168342
1#
#168462
13
#168722
0$
#168960
b10 !
0%
#169782
03
#169924
1-
1/
01
#170280
b11 !
1%
#170385
0.
#170386
0,
#170950
1"
#170982
0#
#171102
13
#171600
b10 !
0%
#172422
03
#172564
0-
0/
#172920
b11 !
1%
#173027
10
#173269
1.
#173590
0"
#173622
1#
#173742
13
#174002
1$
#174240
b10 !
0%
#175062
03
#175204
1/
11
#175527
00
#175560
b11 !
1%
#176262
0#
#176382
13
#176642
0$
#176880
b10 !
0%
#177702
03
#177844
01
#178200
b11 !
1%
#178305
0.
#178306
1,
#178870
1"
#179022
13
#179282
1$
#179520
b10 !
0%
#180342
03
#180484
1-
0/
#180807
0,
#180840
b11 !
1%
#180947
10
#181510
0"
#181662
13
#182160
b10 !
0%
#182982
03
#183124
0-
11
#183447
00
#183480
b11 !
1%
#183585
1.
#183586
1,
#184182
1#
#184302
13
#184562
0$
#184800
b10 !
0%
#185622
03
#185764
1-
1/
01
#186120
b11 !
1%
#186225
0.
#186226
0,
#186790
1"
#186822
0#
#186942
13
#187440
b10 !
0%
#188262
03
#188404
0-
0/
#188760
b11 !
1%
#188867
10
#189109
1.
#189430
0"
#189462
1#
#189582
13
#189842
1$
#190080
b10 !
0%
#190902
03
#191044
1/
11
#191367
00
#191400
b11 !
1%
#192102
0#
#192222
13
#192482
0$
#192720
b10 !
0%
#193542
03
#193684
01
#194040
b11 !
1%
#194145
0.
#194146
1,
#194710
1"
#194862
13
#195122
1$
#195360
b10 !
0%
#196182
03
#196324
1-
0/
#196647
0,
#196680
b11 !
1%
#196787
10
#197350
0"
#197502
13
#198000
b10 !
0%
#198822
03
#198964
0-
11
#199287
00
#199320
b11 !
1%
#199425
1.
#199426
1,
#200022
1#
#200142
13
#200402
0$
#200640
b10 !
0%
#201462
03
#201604
1-
1/
01
#201960
b11 !
1%
#202065
0.
#202066
0,
#202630
1"
#202662
0#
#202782
13
#203280
b10 !
0%
#204102
03
#204244
0-
0/
#204600
b11 !
1%
#204707
10
#204949
1.
#205270
0"
#205302
1#
#205422
13
#205682
1$
#205920
b10 !
0%
#206742
03
#206884
1/
11
#207207
00
#207240
b11 !
1%
#207942
0#
#208062
13
#208322
0$
#208560
b10 !
0%
#209382
03
#209524
01
#209880
b11 !
1%
#209985
0.
#209986
1,
#210550
1"
#210702
13
#210962
1$
#211200
b10 !
0%
#212022
03
#212164
1-
0/
#212487
0,
#212520
b11 !
1%
#212627
10
#213190
0"
#213342
13
#213840
b10 !
0%
#214662
03
#214804
0-
11
#215127
00
#215160
b11 !
1%
#215265
1.
#215266
1,
#215862
1#
#215982
13
#216242
0$
#216480
b10 !
0%
#217302
03
#217444
1-
1/
01
#217800
b11 !
1%
#217905
0.
#217906
0,
#218470
1"
#218502
0#
#218622
13
#219120
b10 !
0%
#219942
03
#220084
0-
0/
#220440
b11 !
1%
#220547
10
#220789
1.
#221110
0"
#221142
1#
#221262
13
#221522
1$
#221760
b10 !
0%
#222582
03
#222724
1/
11
#223047
00
#223080
b11 !
1%
#223782
0#
#223902
13
#224162
0$
#224400
b10 !
0%
#225222
03
#225364
01
#225720
b11 !
1%
#225825
0.
#225826
1,
#226390
1"
#226542
13
#226802
1$
#227040
b10 !
0%
#227862
03
#228004
1-
0/
#228327
0,
#228360
b11 !
1%
#228467
10
#229030
0"
#229182
13
#229680
b10 !
0%
#230502
03
#230644
0-
11
#230967
00
#231000
b11 !
1%
#231105
1.
#231106
1,
#231702
1#
#231822
13
#232082
0$
#232320
b10 !
0%
#233142
03
#233284
1-
1/
01
#233640
b11 !
1%
#233745
0.
#233746
0,
#234310
1"
#234342
0#
#234462
13
#234960
b10 !
0%
#235782
03
#235924
0-
0/
#236280
b11 !
1%
#236387
10
#236629
1.
#236950
0"
#236982
1#
#237102
13
#237362
1$
#237600
b10 !
0%
#238422
03
#238564
1/
11
#238887
00
#238920
b11 !
1%
#239622
0#
#239742
13
#240002
0$
#240240
b10 !
0%
#241062
03
#241204
01
#241560
b11 !
1%
#241665
0.
#241666
1,
#242230
1"
#242382
13
#242642
1$
#242880
b10 !
0%
#243702
03
#243844
1-
0/
#244167
0,
#244200
b11 !
1%
#244307
10
#244870
0"
#245022
13
#245520
b10 !
0%
#246342
03
#246484
0-
11
#246807
00
#246840
b11 !
1%
#246945
1.
#246946
1,
#247542
1#
#247662
13
#247922
0$
#248160
b10 !
0%
#248982
03
#249124
1-
1/
01
#249480
b11 !
1%
#249585
0.
#249586
0,
#250150
1"
#250182
0#
#250302
13
#250800
b10 !
0%
#251622
03
#251764
0-
0/
#252120
b11 !
1%
#252227
10
#252469
1.
#252790
0"
#252822
1#
#252942
13
#253202
1$
#253440
b10 !
0%
#254262
03
#254404
1/
11
#254727
00
#254760
b11 !
1%
#255462
0#
#255582
13
#255842
0$
#256080
b10 !
0%
#256902
03
#257044
01
#257400
b11 !
1%
#257505
0.
#257506
1,
#258070
1"
#258222
13
#258482
1$
#258720
b10 !
0%
#259542
03
#259684
1-
0/
#260007
0,
#260040
b11 !
1%
#260147
10
#260710
0"
#260862
13
#261360
b10 !
0%
#262182
03
#262324
0-
11
#262647
00
#262680
b11 !
1%
#262785
1.
#262786
1,
#263382
1#
#263502
13
#263762
0$
#264000
b10 !
0%
#264822
03
#264964
1-
1/
01
#265320
b11 !
1%
#265425
0.
#265426
0,
#265990
1"
#266022
0#
#266142
13
#266640
b10 !
0%
#267462
03
#267604
0-
0/
#267960
b11 !
1%
#268067
10
#268309
1.
#268630
0"
#268662
1#
#268782
13
#269042
1$
#269280
b10 !
0%
#270102
03
#270244
1/
11
#270567
00
#270600
b11 !
1%
#271302
0#
#271422
13
#271682
0$
#271920
b10 !
0%
#272742
03
#272884
01
#273240
b11 !
1%
#273345
0.
#273346
1,
#273910
1"
#274062
13
#274322
1$
#274560
b10 !
0%
#275382
03
#275524
1-
0/
#275847
0,
#275880
b11 !
1%
#275987
10
#276550
0"
#276702
13
#277200
b10 !
0%
#278022
03
#278164
0-
11
#278487
00
#278520
b11 !
1%
#278625
1.
#278626
1,
#279222
1#
#279342
13
#279602
0$
#279840
b10 !
0%
#280662
03
#280804
1-
1/
01
#281160
b11 !
1%
#281265
0.
#281266
0,
#281830
1"
#281862
0#
#281982
13
#282480
b10 !
0%
#283302
03
#283444
0-
0/
#283800
b11 !
1%
#283907
10
#284149
1.
#284470
0"
#284502
1#
#284622
13
#284882
1$
#285120
b10 !
0%
#285942
03
#286084
1/
11
#286407
00
#286440
b11 !
1%
#287142
0#
#287262
13
#287522
0$
#287760
b10 !
0%
#288582
03
#288724
01
#289080
b11 !
1%
#289185
0.
#289186
1,
#289750
1"
#289902
13
#290162
1$
#290400
b10 !
0%
#291222
03
#291364
1-
0/
#291687
0,
#291720
b11 !
1%
#291827
10
#292390
0"
#292542
13
#293040
b10 !
0%
#293862
03
#294004
0-
11
#294327
00
#294360
b11 !
1%
#294465
1.
#294466
1,
#295062
1#
#295182
13
#295442
0$
#295680
b10 !
0%
#296502
03
#296644
1-
1/
01
#297000
b11 !
1%
#297105
0.
#297106
0,
#297670
1"
#297702
0#
#297822
13
#298320
b10 !
0%
#299142
03
#299284
0-
0/
#299640
b11 !
1%
#299747
10
#299989
1.
#300310
0"
#300342
1#
#300462
13
#300722
1$
#300960
b10 !
0%
#301782
03
#301924
1/
11
#302247
00
#302280
b11 !
1%
#302982
0#
#303102
13
#303362
0$
#303600
b10 !
0%
#304422
03
#304564
01
#304920
b11 !
1%
#305025
0.
#305026
1,
#305590
1"
#305742
13
#306002
1$
#306240
b10 !
0%
#307062
03
#307204
1-
0/
#307527
0,
#307560
b11 !
1%
#307667
10
#308230
0"
#308382
13
#308880
b10 !
0%
#309702
03
#309844
0-
11
#310167
00
#310200
b11 !
1%
#310305
1.
#310306
1,
#310902
1#
#311022
13
#311282
0$
#311520
b10 !
0%
#312342
03
#312484
1-
1/
01
#312840
b11 !
1%
#312945
0.
#312946
0,
#313510
1"
#313542
0#
#313662
13
#314160
b10 !
0%
#314982
03
#315124
0-
0/
#315480
b11 !
1%
#315587
10
#315829
1.
#316150
0"
#316182
1#
#316302
13
#316562
1$
#316800
b10 !
0%
#317622
03
#317764
1/
11
#318087
00
#318120
b11 !
1%
#318822
0#
#318942
13
#319202
0$
#319440
b10 !
0%
#320262
03
#320404
01
#320760
b11 !
1%
#320865
0.
#320866
1,
#321430
1"
#321582
13
#321842
1$
#322080
b10 !
0%
#322902
03
#323044
1-
0/
#323367
0,
#323400
b11 !
1%
#323507
10
#324070
0"
#324222
13
#324720
b10 !
0%
#325542
03
#325684
0-
11
#326007
00
#326040
b11 !
1%
#326145
1.
#326146
1,
#326742
1#
#326862
13
#327122
0$
#327360
b10 !
0%
#328182
03
#328324
1-
1/
01
#328680
b11 !
1%
#328785
0.
#328786
0,
#329350
1"
#329382
0#
#329502
13
#330000
b10 !
0%
#330822
03
#330964
0-
0/
#331320
b11 !
1%
#331427
10
#331669
1.
#331990
0"
#332022
1#
#332142
13
#332402
1$
#332640
b10 !
0%
#333462
03
#333604
1/
11
#333927
00
#333960
b11 !
1%
#334662
0#
#334782
13
#335042
0$
#335280
b10 !
0%
#336102
03
#336244
01
#336600
b11 !
1%
#336705
0.
#336706
1,
#337270
1"
#337422
13
#337682
1$
#337920
b10 !
0%
#338742
03
#338884
1-
0/
#339207
0,
#339240
b11 !
1%
#339347
10
#339910
0"
#340062
13
#340560
b10 !
0%
#341382
03
#341524
0-
11
#341847
00
#341880
b11 !
1%
#341985
1.
#341986
1,
#342582
1#
#342702
13
#342962
0$
#343200
b10 !
0%
#344022
03
#344164
1-
1/
01
#344520
b11 !
1%
#344625
0.
#344626
0,
#345190
1"
#345222
0#
#345342
13
#345840
b10 !
0%
#346662
03
#346804
0-
0/
#347160
b11 !
1%
#347267
10
#347509
1.
#347830
0"
#347862
1#
#347982
13
#348242
1$
#348480
b10 !
0%
#349302
03
#349444
1/
11
#349767
00
#349800
b11 !
1%
#350502
0#
#350622
13
#350882
0$
#351120
b10 !
0%
#351942
03
#352084
01
#352440
b11 !
1%
#352545
0.
#352546
1,
#353110
1"
#353262
13
#353522
1$
#353760
b10 !
0%
#354582
03
#354724
1-
0/
#355047
0,
#355080
b11 !
1%
#355187
10
#355750
0"
#355902
13
#356400
b10 !
0%
#357222
03
#357364
0-
11
#357687
00
#357720
b11 !
1%
#357825
1.
#357826
1,
#358422
1#
#358542
13
#358802
0$
#359040
b10 !
0%
#359862
03
#360004
1-
1/
01
#360360
b11 !
1%
#360465
0.
#360466
0,
#361030
1"
#361062
0#
#361182
13
#361680
b10 !
0%
#362502
03
#362644
0-
0/
#363000
b11 !
1%
#363107
10
#363349
1.
#363670
0"
#363702
1#
#363822
13
#364082
1$
#364320
b10 !
0%
#365142
03
#365284
1/
11
#365607
00
#365640
b11 !
1%
#366342
0#
#366462
13
#366722
0$
#366960
b10 !
0%
#367782
03
#367924
01
#368280
b11 !
1%
#368385
0.
#368386
1,
#368950
1"
#369102
13
#369362
1$
#369600
b10 !
0%
#370422
03
#370564
1-
0/
#370887
0,
#370920
b11 !
1%
#371027
10
#371590
0"
#371742
13
#372240
b10 !
0%
#373062
03
#373204
0-
11
#373527
00
#373560
b11 !
1%
#373665
1.
#373666
1,
#374262
1#
#374382
13
#374642
0$
#374880
b10 !
0%
#375702
03
#375844
1-
1/
01
#376200
b11 !
1%
#376305
0.
#376306
0,
#376870
1"
#376902
0#
#377022
13
#377520
b10 !
0%
#378342
03
#378484
0-
0/
#378840
b11 !
1%
#378947
10
#379189
1.
#379510
0"
#379542
1#
#379662
13
#379922
1$
#380160
b10 !
0%
#380982
03
#381124
1/
11
#381447
00
#381480
b11 !
1%
#382182
0#
#382302
13
#382562
0$
#382800
b10 !
0%
#383622
03
#383764
01
#384120
b11 !
1%
#384225
0.
#384226
1,
#384790
1"
#384942
13
#385202
1$
#385440
b10 !
0%
#386262
03
#386404
1-
0/
#386727
0,
#386760
b11 !
1%
#386867
10
#387430
0"
#387582
13
#388080
b10 !
0%
#388902
03
#389044
0-
11
#389367
00
#389400
b11 !
1%
#389505
1.
#389506
1,
#390102
1#
#390222
13
#390482
0$
#390720
b10 !
0%
#391542
03
#391684
1-
1/
01
#392040
b11 !
1%
#392145
0.
#392146
0,
#392710
1"
#392742
0#
#392862
13
#393360
b10 !
0%
#394182
03
#394324
0-
0/
#394680
b11 !
1%
#394787
10
#395029
1.
#395350
0"
#395382
1#
#395502
13
#395762
1$
#396000
b10 !
0%
#396822
03
#396964
1/
11
#397287
00
#397320
b11 !
1%
#398022
0#
#398142
13
#398402
0$
#398640
b10 !
0%
#399462
03
#399604
01
#399960
b11 !
1%
#400065
0.
#400066
1,
#400630
1"
#400782
13
#401042
1$
#401280
b10 !
0%
#402102
03
#402244
1-
0/
#402567
0,
#402600
b11 !
1%
#402707
10
#403270
0"
#403422
13
#403920
b10 !
0%
#404742
03
#404884
0-
11
#405207
00
#405240
b11 !
1%
#405345
1.
#405346
1,
#405942
1#
#406062
13
#406322
0$
#406560
b10 !
0%
#407382
03
#407524
1-
1/
01
#407880
b11 !
1%
#407985
0.
#407986
0,
#408550
1"
#408582
0#
#408702
13
#409200
b10 !
0%
#410022
03
#410164
0-
0/
#410520
b11 !
1%
#410627
10
#410869
1.
#411190
0"
#411222
1#
#411342
13
#411602
1$
#411840
b10 !
0%
#412662
03
#412804
1/
11
#413127
00
#413160
b11 !
1%
#413862
0#
#413982
13
#414242
0$
#414480
b10 !
0%
#415302
03
#415444
01
#415800
b11 !
1%
#415905
0.
#415906
1,
#416470
1"
#416622
13
#416882
1$
#417120
b10 !
0%
#417942
03
#418084
1-
0/
#418407
0,
#418440
b11 !
1%
#418547
10
#419110
0"
#419262
13
#419760
b10 !
0%
#420582
03
#420724
0-
11
#421047
00
#421080
b11 !
1%
#421185
1.
#421186
1,
#421782
1#
#421902
13
#422162
0$
#422400
b10 !
0%
#423222
03
#423364
1-
1/
01
#423720
b11 !
1%
#423825
0.
#423826
0,
#424390
1"
#424422
0#
#424542
13
#425040
b10 !
0%
#425862
03
#426004
0-
0/
#426360
b11 !
1%
#426467
10
#426709
1.
#427030
0"
#427062
1#
#427182
13
#427442
1$
#427680
b10 !
0%
#428502
03
#428644
1/
11
#428967
00
#429000
b11 !
1%
#429702
0#
#429822
13
#430082
0$
#430320
b10 !
0%
#431142
03
#431284
01
#431640
b11 !
1%
#431745
0.
#431746
1,
#432310
1"
#432462
13
#432722
1$
#432960
b10 !
0%
#433782
03
#433924
1-
0/
#434247
0,
#434280
b11 !
1%
#434387
10
#434950
0"
#435102
13
#435600
b10 !
0%
#436422
03
#436564
0-
11
#436887
00
#436920
b11 !
1%
#437025
1.
#437026
1,
#437622
1#
#437742
13
#438002
0$
#438240
b10 !
0%
#439062
03
#439204
1-
1/
01
#439560
b11 !
1%
#439665
0.
#439666
0,
#440230
1"
#440262
0#
#440382
13
#440880
b10 !
0%
#441702
03
#441844
0-
0/
#442200
b11 !
1%
#442307
10
#442549
1.
#442870
0"
#442902
1#
#443022
13
#443282
1$
#443520
b10 !
0%
#444342
03
#444484
1/
11
#444807
00
#444840
b11 !
1%
#445542
0#
#445662
13
#445922
0$
#446160
b10 !
0%
#446982
03
#447124
01
#447480
b11 !
1%
#447585
0.
#447586
1,
#448150
1"
#448302
13
#448562
1$
#448800
b10 !
0%
#449622
03
#449764
1-
0/
#450087
0,
#450120
b11 !
1%
#450227
10
#450790
0"
#450942
13
#451440
b10 !
0%
#452262
03
#452404
0-
11
#452727
00
#452760
b11 !
1%
#452865
1.
#452866
1,
#453462
1#
#453582
13
#453842
0$
#454080
b10 !
0%
#454902
03
#455044
1-
1/
01
#455400
b11 !
1%
#455505
0.
#455506
0,
#456070
1"
#456102
0#
#456222
13
#456720
b10 !
0%
#457542
03
#457684
0-
0/
#458040
b11 !
1%
#458147
10
#458389
1.
#458710
0"
#458742
1#
#458862
13
#459122
1$
#459360
b10 !
0%
#460182
03
#460324
1/
11
#460647
00
#460680
b11 !
1%
#461382
0#
#461502
13
#461762
0$
#462000
b10 !
0%
#462822
03
#462964
01
#463320
b11 !
1%
#463425
0.
#463426
1,
#463990
1"
#464142
13
#464402
1$
#464640
b10 !
0%
#465462
03
#465604
1-
0/
#465927
0,
#465960
b11 !
1%
#466067
10
#466630
0"
#466782
13
#467280
b10 !
0%
#468102
03
#468244
0-
11
#468567
00
#468600
b11 !
1%
#468705
1.
#468706
1,
#469302
1#
#469422
13
#469682
0$
#469920
b10 !
0%
#470742
03
#470884
1-
1/
01
#471240
b11 !
1%
#471345
0.
#471346
0,
#471910
1"
#471942
0#
#472062
13
#472560
b10 !
0%
#473382
03
#473524
0-
0/
#473880
b11 !
1%
#473987
10
#474229
1.
#474550
0"
#474582
1#
#474702
13
#474962
1$
#475200
b10 !
0%
#476022
03
#476164
1/
11
#476487
00
#476520
b11 !
1%
#477222
0#
#477342
13
#477602
0$
#477840
b10 !
0%
#478662
03
#478804
01
#479160
b11 !
1%
#479265
0.
#479266
1,
#479830
1"
#479982
13
#480242
1$
#480480
b10 !
0%
#481302
03
#481444
1-
0/
#481767
0,
#481800
b11 !
1%
#481907
10
#482470
0"
#482622
13
#483120
b10 !
0%
#483942
03
#484084
0-
11
#484407
00
#484440
b11 !
1%
#484545
1.
#484546
1,
#485142
1#
#485262
13
#485522
0$
#485760
b10 !
0%
#486582
03
#486724
1-
1/
01
#487080
b11 !
1%
#487185
0.
#487186
0,
#487750
1"
#487782
0#
#487902
13
#488400
b10 !
0%
#489222
03
#489364
0-
0/
#489720
b11 !
1%
#489827
10
#490069
1.
#490390
0"
#490422
1#
#490542
13
#490802
1$
#491040
b10 !
0%
#491862
03
#492004
1/
11
#492327
00
#492360
b11 !
1%
#493062
0#
#493182
13
#493442
0$
#493680
b10 !
0%
#494502
03
#494644
01
#495000
b11 !
1%
#495105
0.
#495106
1,
#495670
1"
#495822
13
#496082
1$
#496320
b10 !
0%
#497142
03
#497284
1-
0/
#497607
0,
#497640
b11 !
1%
#497747
10
#498310
0"
#498462
13
#498960
b10 !
0%
#499782
03
#499924
0-
11
#500247
00
#500280
b11 !
1%
#500385
1.
#500386
1,
#500982
1#
#501102
13
#501362
0$
#501600
b10 !
0%
#502422
03
#502564
1-
1/
01
#502920
b11 !
1%
#503025
0.
#503026
0,
#503590
1"
#503622
0#
#503742
13
#504240
b10 !
0%
#505062
03
#505204
0-
0/
#505560
b11 !
1%
#505667
10
#505909
1.
#506230
0"
#506262
1#
#506382
13
#506642
1$
#506880
b10 !
0%
#507702
03
#507844
1/
11
#508167
00
#508200
b11 !
1%
#508902
0#
#509022
13
#509282
0$
#509520
b10 !
0%
#510342
03
#510484
01
#510840
b11 !
1%
#510945
0.
#510946
1,
#511510
1"
#511662
13
#511922
1$
#512160
b10 !
0%
#512982
03
#513124
1-
0/
#513447
0,
#513480
b11 !
1%
#513587
10
#514150
0"
#514302
13
#514800
b10 !
0%
#515622
03
#515764
0-
11
#516087
00
#516120
b11 !
1%
#516225
1.
#516226
1,
#516822
1#
#516942
13
#517202
0$
#517440
b10 !
0%
#518262
03
#518404
1-
1/
01
#518760
b11 !
1%
#518865
0.
#518866
0,
#519430
1"
#519462
0#
#519582
13
#520080
b10 !
0%
#520902
03
#521044
0-
0/
#521400
b11 !
1%
#521507
10
#521749
1.
#522070
0"
#522102
1#
#522222
13
#522482
1$
#522720
b10 !
0%
#523542
03
#523684
1/
11
#524007
00
#524040
b11 !
1%
#524742
0#
#524862
13
#525122
0$
#525360
b10 !
0%
#526182
03
#526324
01
#526680
b11 !
1%
#526785
0.
#526786
1,
#527350
1"
#527502
13
#527762
1$
#528000
b10 !
0%
#528822
03
#528964
1-
0/
