PTC/Cwiczenie3_1/simulation/qsim/Cwiczenie3_1.msim.vcd
$comment
	File created using the following command:
		vcd file Cwiczenie3_1.msim.vcd -direction
$end
$date
	Tue Nov 14 14:16:39 2017
$end
$version
	ModelSim Version 10.1d
$end
$timescale
	1ps
$end
$scope module Cwiczenie3_1_vlg_vec_tst $end
$var reg 2 ! iSW [1:0] $end
$var wire 1 " oLEDG [7] $end
$var wire 1 # oLEDG [6] $end
$var wire 1 $ oLEDG [5] $end
$var wire 1 % oLEDG [4] $end
$var wire 1 & oLEDG [3] $end
$var wire 1 ' oLEDG [2] $end
$var wire 1 ( oLEDG [1] $end
$var wire 1 ) oLEDG [0] $end
$var wire 1 * sampler $end
$scope module i1 $end
$var wire 1 + gnd $end
$var wire 1 , vcc $end
$var wire 1 - unknown $end
$var tri1 1 . devclrn $end
$var tri1 1 / devpor $end
$var tri1 1 0 devoe $end
$var wire 1 1 inst1|16~0_combout $end
$var wire 1 2 inst1|15~0_combout $end
$var wire 1 3 inst1|15~regout $end
$var wire 1 4 inst1|14~0_combout $end
$var wire 1 5 inst1|14~regout $end
$var wire 1 6 inst3~1_combout $end
$var wire 1 7 inst|15~0_combout $end
$var wire 1 8 inst|15~regout $end
$var wire 1 9 inst|14~0_combout $end
$var wire 1 : inst|14~regout $end
$var wire 1 ; inst|16~0_combout $end
$var wire 1 < inst|16~regout $end
$var wire 1 = inst3~0_combout $end
$var wire 1 > instxd~combout $end
$var wire 1 ? inst1|16~regout $end
$var wire 1 @ inst1|16~clkctrl_outclk $end
$var wire 1 A inst1|13~0_combout $end
$var wire 1 B inst1|13~regout $end
$var wire 1 C inst|16~clkctrl_outclk $end
$var wire 1 D inst|13~0_combout $end
$var wire 1 E inst|13~regout $end
$var wire 1 F iSW~combout [1] $end
$var wire 1 G iSW~combout [0] $end
$upscope $end
$upscope $end
$enddefinitions $end
#0
$dumpvars
b10 !
x)
x(
x'
x&
x%
x$
x#
x"
x*
0+
1,
x-
1.
1/
10
x1
x2
x3
x4
x5
x6
x7
x8
x9
x:
x;
x<
x=
x>
x?
x@
xA
xB
xC
xD
xE
0G
1F
$end
#218
03
05
08
0:
0<
0?
0B
0E
#541
11
1;
17
12
#685
0=
#689
04
#691
0A
#693
09
#961
06
#965
0D
#1765
0@
#1771
0C
#2500
b11 !
0*
#3322
1G
#3494
0'
#3516
0#
#3802
0(
#3822
0%
#3833
0$
#3970
0&
#4104
0"
#4241
0)
#5000
b10 !
1*
#5429
1>
#5822
0G
#7500
b11 !
0*
#8322
1G
#10000
b1 !
b0 !
1*
#10822
0G
#10832
0F
#12500
b1 !
0*
#13322
1G
#15000
b0 !
1*
#15822
0G
#16261
0>
#17500
b1 !
0*
#17883
1<
#18206
0;
#18322
1G
#19436
1C
#20000
b0 !
1*
#20822
0G
#21906
1)
#22500
b1 !
0*
#22883
0<
#23206
1;
#23322
1G
#24436
0C
#25000
b0 !
1*
#25822
0G
#26433
18
#26756
07
#26906
0)
#26908
19
#27500
b1 !
0*
#27883
1<
#28206
0;
#28322
1G
#29436
1C
#30000
b0 !
1*
#30017
1(
#30822
0G
#31906
1)
#32500
b1 !
0*
#32883
0<
#33206
1;
#33322
1G
#34436
0C
#35000
b0 !
1*
#35822
0G
#36433
1:
08
#36756
17
09
#36906
0)
#36908
19
#37500
b1 !
0*
#37883
1<
#38206
0;
#38322
1G
#38350
1=
#39436
1C
#39709
1'
#40000
b0 !
1*
#40017
0(
#40822
0G
#41906
1)
#42500
b1 !
0*
#42883
0<
#43206
1;
#43322
1G
#43350
0=
#44436
0C
#45000
b0 !
1*
#45822
0G
#46433
18
#46756
07
#46906
0)
#46908
09
#47180
1D
#47500
b1 !
0*
#47883
1<
#48206
0;
#48322
1G
#49436
1C
#50000
b0 !
1*
#50017
1(
#50822
0G
#51906
1)
#52500
b1 !
0*
#52883
0<
#53206
1;
#53322
1G
#54436
0C
#55000
b0 !
1*
#55822
0G
#56433
1E
0:
08
#56756
17
19
0D
#56906
0)
#56908
09
#57180
1D
#57500
b1 !
0*
#57883
1<
#58206
0;
#58322
1G
#59436
1C
#59709
0'
#60000
b0 !
1*
#60017
0(
#60185
1&
#60822
0G
#61906
1)
#62500
b1 !
0*
#62883
0<
#63206
1;
#63322
1G
#64436
0C
#65000
b0 !
1*
#65822
0G
#66433
18
#66756
07
#66906
0)
#66908
19
#67500
b1 !
0*
#67883
1<
#68206
0;
#68322
1G
#69436
1C
#70000
b0 !
1*
#70017
1(
#70822
0G
#71906
1)
#72500
b1 !
0*
#72883
0<
#73206
1;
#73322
1G
#74436
0C
#75000
b0 !
1*
#75822
0G
#76433
1:
08
#76756
17
09
#76906
0)
#76908
19
#77500
b1 !
0*
#77883
1<
#78206
0;
#78322
1G
#79436
1C
#79709
1'
#80000
b0 !
1*
#80017
0(
#80822
0G
#81906
1)
#82500
b1 !
0*
#82883
0<
#83206
1;
#83322
1G
#84436
0C
#85000
b0 !
1*
#85822
0G
#86433
18
#86756
07
#86906
0)
#86908
09
#87180
0D
#87500
b1 !
0*
#87883
1<
#88206
0;
#88322
1G
#89436
1C
#90000
b0 !
1*
#90017
1(
#90822
0G
#91906
1)
#92500
b1 !
0*
#92883
0<
#93206
1;
#93322
1G
#94436
0C
#95000
b0 !
1*
#95822
0G
#96433
0E
0:
08
#96756
17
19
1D
#96906
0)
#96908
09
#97180
0D
#97500
b1 !
0*
#97700
1?
#97883
1<
#98023
01
#98206
0;
#98322
1G
#99247
1@
#99436
1C
#99709
0'
#100000
b0 !
1*
#100017
0(
#100185
0&
#100822
0G
#101304
1%
#101906
1)
#102500
b1 !
0*
#102883
0<
#103206
1;
#103322
1G
#104436
0C
#105000
b0 !
1*
#105822
0G
#106433
18
#106756
07
#106906
0)
#106908
19
#107500
b1 !
0*
#107883
1<
#108206
0;
#108322
1G
#109436
1C
#110000
b0 !
1*
#110017
1(
#110822
0G
#111906
1)
#112500
b1 !
0*
#112883
0<
#113206
1;
#113322
1G
#114436
0C
#115000
b0 !
1*
#115822
0G
#116433
1:
08
#116756
17
09
#116906
0)
#116908
19
#117500
b1 !
0*
#117883
1<
#118206
0;
#118322
1G
#118350
1=
#119436
1C
#119709
1'
#120000
b0 !
1*
#120017
0(
#120822
0G
#121906
1)
#122500
b1 !
0*
#122883
0<
#123206
1;
#123322
1G
#123350
0=
#124436
0C
#125000
b0 !
1*
#125822
0G
#126433
18
#126756
07
#126906
0)
#126908
09
#127180
1D
#127500
b1 !
0*
#127883
1<
#128206
0;
#128322
1G
#129436
1C
#130000
b0 !
1*
#130017
1(
#130822
0G
#131906
1)
#132500
b1 !
0*
#132883
0<
#133206
1;
#133322
1G
#134436
0C
#135000
b0 !
1*
#135822
0G
#136433
1E
0:
08
#136756
17
19
0D
#136906
0)
#136908
09
#137180
1D
#137500
b1 !
0*
#137883
1<
#138206
0;
#138322
1G
#139436
1C
#139709
0'
#140000
b0 !
1*
#140017
0(
#140185
1&
#140822
0G
#141906
1)
#142500
b1 !
0*
#142883
0<
#143206
1;
#143322
1G
#144436
0C
#145000
b0 !
1*
#145822
0G
#146433
18
#146756
07
#146906
0)
#146908
19
#147500
b1 !
0*
#147883
1<
#148206
0;
#148322
1G
#149436
1C
#150000
b0 !
1*
#150017
1(
#150822
0G
#151906
1)
#152500
b1 !
0*
#152883
0<
#153206
1;
#153322
1G
#154436
0C
#155000
b0 !
1*
#155822
0G
#156433
1:
08
#156756
17
09
#156906
0)
#156908
19
#157500
b1 !
0*
#157883
1<
#158206
0;
#158322
1G
#159436
1C
#159709
1'
#160000
b0 !
1*
#160017
0(
#160822
0G
#161906
1)
#162500
b1 !
0*
#162883
0<
#163206
1;
#163322
1G
#164436
0C
#165000
b0 !
1*
#165822
0G
#166433
18
#166756
07
#166906
0)
#166908
09
#167180
0D
#167500
b1 !
0*
#167883
1<
#168206
0;
#168322
1G
#169436
1C
#170000
b0 !
1*
#170017
1(
#170822
0G
#171906
1)
#172500
b1 !
0*
#172883
0<
#173206
1;
#173322
1G
#174436
0C
#175000
b0 !
1*
#175822
0G
#176433
0E
0:
08
#176756
17
19
1D
#176906
0)
#176908
09
#177180
0D
#177500
b1 !
0*
#177700
0?
#177883
1<
#178023
11
#178206
0;
#178322
1G
#179247
0@
#179436
1C
#179709
0'
#180000
b0 !
1*
#180017
0(
#180185
0&
#180822
0G
#181243
13
#181304
0%
#181566
02
#181714
14
#181906
1)
#182500
b1 !
0*
#182883
0<
#183206
1;
#183322
1G
#184436
0C
#184858
1$
#185000
b0 !
1*
#185822
0G
#186433
18
#186756
07
#186906
0)
#186908
19
#187500
b1 !
0*
#187883
1<
#188206
0;
#188322
1G
#189436
1C
#190000
b0 !
1*
#190017
1(
#190822
0G
#191906
1)
#192500
b1 !
0*
#192883
0<
#193206
1;
#193322
1G
#194436
0C
#195000
b0 !
1*
#195822
0G
#196433
1:
08
#196756
17
09
#196906
0)
#196908
19
#197500
b1 !
0*
#197883
1<
#198206
0;
#198322
1G
#198350
1=
#199436
1C
#199709
1'
#200000
b0 !
1*
#200017
0(
#200822
0G
#201906
1)
#202500
b1 !
0*
#202883
0<
#203206
1;
#203322
1G
#203350
0=
#204436
0C
#205000
b0 !
1*
#205822
0G
#206433
18
#206756
07
#206906
0)
#206908
09
#207180
1D
#207500
b1 !
0*
#207883
1<
#208206
0;
#208322
1G
#209436
1C
#210000
b0 !
1*
#210017
1(
#210822
0G
#211906
1)
#212500
b1 !
0*
#212883
0<
#213206
1;
#213322
1G
#214436
0C
#215000
b0 !
1*
#215822
0G
#216433
1E
0:
08
#216756
17
19
0D
#216906
0)
#216908
09
#217180
1D
#217500
b1 !
0*
#217883
1<
#218206
0;
#218322
1G
#219436
1C
#219709
0'
#220000
b0 !
1*
#220017
0(
#220185
1&
#220822
0G
#221906
1)
#222500
b1 !
0*
#222883
0<
#223206
1;
#223322
1G
#224436
0C
#225000
b0 !
1*
#225822
0G
#226433
18
#226756
07
#226906
0)
#226908
19
#227500
b1 !
0*
#227883
1<
#228206
0;
#228322
1G
#229436
1C
#230000
b0 !
1*
#230017
1(
#230822
0G
#231906
1)
#232500
b1 !
0*
#232883
0<
#233206
1;
#233322
1G
#234436
0C
#235000
b0 !
1*
#235822
0G
#236433
1:
08
#236756
17
09
#236906
0)
#236908
19
#237500
b1 !
0*
#237883
1<
#238206
0;
#238322
1G
#239436
1C
#239709
1'
#240000
b0 !
1*
#240017
0(
#240822
0G
#241906
1)
#242500
b1 !
0*
#242883
0<
#243206
1;
#243322
1G
#244436
0C
#245000
b0 !
1*
#245822
0G
#246433
18
#246756
07
#246906
0)
#246908
09
#247180
0D
#247500
b1 !
0*
#247883
1<
#248206
0;
#248322
1G
#249436
1C
#250000
b0 !
1*
#250017
1(
#250822
0G
#251906
1)
#252500
b1 !
0*
#252883
0<
#253206
1;
#253322
1G
#254436
0C
#255000
b0 !
1*
#255822
0G
#256433
0E
0:
08
#256756
17
19
1D
#256906
0)
#256908
09
#257180
0D
#257500
b1 !
0*
#257700
1?
#257883
1<
#258023
01
#258206
0;
#258322
1G
#259247
1@
#259436
1C
#259709
0'
#260000
b0 !
1*
#260017
0(
#260185
0&
#260822
0G
#261304
1%
#261906
1)
#262500
b1 !
0*
#262883
0<
#263206
1;
#263322
1G
#264436
0C
#265000
b0 !
1*
#265822
0G
#266433
18
#266756
07
#266906
0)
#266908
19
#267500
b1 !
0*
#267883
1<
#268206
0;
#268322
1G
#269436
1C
#270000
b0 !
1*
#270017
1(
#270822
0G
#271906
1)
#272500
b1 !
0*
#272883
0<
#273206
1;
#273322
1G
#274436
0C
#275000
b0 !
1*
#275822
0G
#276433
1:
08
#276756
17
09
#276906
0)
#276908
19
#277500
b1 !
0*
#277883
1<
#278206
0;
#278322
1G
#278350
1=
#279436
1C
#279709
1'
#280000
b0 !
1*
#280017
0(
#280822
0G
#281906
1)
#282500
b1 !
0*
#282883
0<
#283206
1;
#283322
1G
#283350
0=
#284436
0C
#285000
b0 !
1*
#285822
0G
#286433
18
#286756
07
#286906
0)
#286908
09
#287180
1D
#287500
b1 !
0*
#287883
1<
#288206
0;
#288322
1G
#289436
1C
#290000
b0 !
1*
#290017
1(
#290822
0G
#291906
1)
#292500
b1 !
0*
#292883
0<
#293206
1;
#293322
1G
#294436
0C
#295000
b0 !
1*
#295822
0G
#296433
1E
0:
08
#296756
17
19
0D
#296906
0)
#296908
09
#297180
1D
#297500
b1 !
0*
#297883
1<
#298206
0;
#298322
1G
#299436
1C
#299709
0'
#300000
b0 !
1*
#300017
0(
#300185
1&
#300822
0G
#301906
1)
#302500
b1 !
0*
#302883
0<
#303206
1;
#303322
1G
#304436
0C
#305000
b0 !
1*
#305822
0G
#306433
18
#306756
07
#306906
0)
#306908
19
#307500
b1 !
0*
#307883
1<
#308206
0;
#308322
1G
#309436
1C
#310000
b0 !
1*
#310017
1(
#310822
0G
#311906
1)
#312500
b1 !
0*
#312883
0<
#313206
1;
#313322
1G
#314436
0C
#315000
b0 !
1*
#315822
0G
#316433
1:
08
#316756
17
09
#316906
0)
#316908
19
#317500
b1 !
0*
#317883
1<
#318206
0;
#318322
1G
#319436
1C
#319709
1'
#320000
b0 !
1*
#320017
0(
#320822
0G
#321906
1)
#322500
b1 !
0*
#322883
0<
#323206
1;
#323322
1G
#324436
0C
#325000
b0 !
1*
#325822
0G
#326433
18
#326756
07
#326906
0)
#326908
09
#327180
0D
#327500
b1 !
0*
#327883
1<
#328206
0;
#328322
1G
#329436
1C
#330000
b0 !
1*
#330017
1(
#330822
0G
#331906
1)
#332500
b1 !
0*
#332883
0<
#333206
1;
#333322
1G
#334436
0C
#335000
b0 !
1*
#335822
0G
#336433
0E
0:
08
#336756
17
19
1D
#336906
0)
#336908
09
#337180
0D
#337500
b1 !
0*
#337700
0?
#337883
1<
#338023
11
#338206
0;
#338322
1G
#339247
0@
#339436
1C
#339709
0'
#340000
b0 !
1*
#340017
0(
#340185
0&
#340822
0G
#341243
15
03
#341304
0%
#341566
12
#341906
1)
#341983
16
#342500
b1 !
0*
#342883
0<
#343206
1;
#343322
1G
#344436
0C
#344541
1#
#344858
0$
#345000
b0 !
1*
#345822
0G
#346433
18
#346756
07
#346906
0)
#346908
19
#347500
b1 !
0*
#347883
1<
#348206
0;
#348322
1G
#349436
1C
#350000
b0 !
1*
#350017
1(
#350822
0G
#351906
1)
#352500
b1 !
0*
#352883
0<
#353206
1;
#353322
1G
#354436
0C
#355000
b0 !
1*
#355822
0G
#356433
1:
08
#356756
17
09
#356906
0)
#356908
19
#357500
b1 !
0*
#357883
1<
#358206
0;
#358322
1G
#358350
1=
#358889
1>
#359436
1C
#359709
1'
#359887
05
#360000
b0 !
1*
#360017
0(
0:
0<
#360210
04
#360340
1;
09
#360484
0=
#360630
06
#360822
0G
#361023
0>
#361570
0C
#362500
b1 !
0*
#362883
1<
#363185
0#
#363206
0;
#363293
0'
#363322
1G
#363567
18
#363890
07
#364042
19
#364436
1C
#365000
b0 !
1*
#365822
0G
#366906
1)
#367151
1(
#367500
b1 !
0*
#367883
0<
#368206
1;
#368322
1G
#369436
0C
#370000
b0 !
1*
#370822
0G
#371433
1:
08
#371756
17
09
#371906
0)
#371908
19
#372500
b1 !
0*
#372883
1<
#373206
0;
#373322
1G
#373350
1=
#374436
1C
#374709
1'
#375000
b0 !
1*
#375017
0(
#375822
0G
#376906
1)
#377500
b1 !
0*
#377883
0<
#378206
1;
#378322
1G
#378350
0=
#379436
0C
#380000
b0 !
1*
#380822
0G
#381433
18
#381756
07
#381906
0)
#381908
09
#382180
1D
#382500
b1 !
0*
#382883
1<
#383206
0;
#383322
1G
#384436
1C
#385000
b0 !
1*
#385017
1(
#385822
0G
#386906
1)
#387500
b1 !
0*
#387883
0<
#388206
1;
#388322
1G
#389436
0C
#390000
b0 !
1*
#390822
0G
#391433
1E
0:
08
#391756
17
19
0D
#391906
0)
#391908
09
#392180
1D
#392500
b1 !
0*
#392883
1<
#393206
0;
#393322
1G
#394436
1C
#394709
0'
#395000
b0 !
1*
#395017
0(
#395185
1&
#395822
0G
#396906
1)
#397500
b1 !
0*
#397883
0<
#398206
1;
#398322
1G
#399436
0C
#400000
b0 !
1*
#400822
0G
#401433
18
#401756
07
#401906
0)
#401908
19
#402500
b1 !
0*
#402883
1<
#403206
0;
#403322
1G
#404436
1C
#405000
b0 !
1*
#405017
1(
#405822
0G
#406906
1)
#407500
b1 !
0*
#407883
0<
#408206
1;
#408322
1G
#409436
0C
#410000
b0 !
1*
#410822
0G
#411433
1:
08
#411756
17
09
#411906
0)
#411908
19
#412500
b1 !
0*
#412883
1<
#413206
0;
#413322
1G
#414436
1C
#414709
1'
#415000
b0 !
1*
#415017
0(
#415822
0G
#416906
1)
#417500
b1 !
0*
#417883
0<
#418206
1;
#418322
1G
#419436
0C
#420000
b0 !
1*
#420822
0G
#421433
18
#421756
07
#421906
0)
#421908
09
#422180
0D
#422500
b1 !
0*
#422883
1<
#423206
0;
#423322
1G
#424436
1C
#425000
b0 !
1*
#425017
1(
#425822
0G
#426906
1)
#427500
b1 !
0*
#427883
0<
#428206
1;
#428322
1G
#429436
0C
#430000
b0 !
1*
#430822
0G
#431433
0E
0:
08
#431756
17
19
1D
#431906
0)
#431908
09
#432180
0D
#432500
b1 !
0*
#432700
1?
#432883
1<
#433023
01
#433206
0;
#433322
1G
#434247
1@
#434436
1C
#434709
0'
#435000
b0 !
1*
#435017
0(
#435185
0&
#435822
0G
#436304
1%
#436906
1)
#437500
b1 !
0*
#437883
0<
#438206
1;
#438322
1G
#439436
0C
#440000
b0 !
1*
#440822
0G
#441433
18
#441756
07
#441906
0)
#441908
19
#442500
b1 !
0*
#442883
1<
#443206
0;
#443322
1G
#444436
1C
#445000
b0 !
1*
#445017
1(
#445822
0G
#446906
1)
#447500
b1 !
0*
#447883
0<
#448206
1;
#448322
1G
#449436
0C
#450000
b0 !
1*
#450822
0G
#451433
1:
08
#451756
17
09
#451906
0)
#451908
19
#452500
b1 !
0*
#452883
1<
#453206
0;
#453322
1G
#453350
1=
#454436
1C
#454709
1'
#455000
b0 !
1*
#455017
0(
#455822
0G
#456906
1)
#457500
b1 !
0*
#457883
0<
#458206
1;
#458322
1G
#458350
0=
#459436
0C
#460000
b0 !
1*
#460822
0G
#461433
18
#461756
07
#461906
0)
#461908
09
#462180
1D
#462500
b1 !
0*
#462883
1<
#463206
0;
#463322
1G
#464436
1C
#465000
b0 !
1*
#465017
1(
#465822
0G
#466906
1)
#467500
b1 !
0*
#467883
0<
#468206
1;
#468322
1G
#469436
0C
#470000
b0 !
1*
#470822
0G
#471433
1E
0:
08
#471756
17
19
0D
#471906
0)
#471908
09
#472180
1D
#472500
b1 !
0*
#472883
1<
#473206
0;
#473322
1G
#474436
1C
#474709
0'
#475000
b0 !
1*
#475017
0(
#475185
1&
#475822
0G
#476906
1)
#477500
b1 !
0*
#477883
0<
#478206
1;
#478322
1G
#479436
0C
#480000
b0 !
1*
#480822
0G
#481433
18
#481756
07
#481906
0)
#481908
19
#482500
b1 !
0*
#482883
1<
#483206
0;
#483322
1G
#484436
1C
#485000
b0 !
1*
#485017
1(
#485822
0G
#486906
1)
#487500
b1 !
0*
#487883
0<
#488206
1;
#488322
1G
#489436
0C
#490000
b0 !
1*
#490822
0G
#491433
1:
08
#491756
17
09
#491906
0)
#491908
19
#492500
b1 !
0*
#492883
1<
#493206
0;
#493322
1G
#494436
1C
#494709
1'
#495000
b0 !
1*
#495017
0(
#495822
0G
#496906
1)
#497500
b1 !
0*
#497883
0<
#498206
1;
#498322
1G
#499436
0C
#500000
b0 !
1*
#500822
0G
#501433
18
#501756
07
#501906
0)
#501908
09
#502180
0D
#502500
b1 !
0*
#502883
1<
#503206
0;
#503322
1G
#504436
1C
#505000
b0 !
1*
#505017
1(
#505822
0G
#506906
1)
#507500
b1 !
0*
#507883
0<
#508206
1;
#508322
1G
#509436
0C
#510000
b0 !
1*
#510822
0G
#511433
0E
0:
08
#511756
17
19
1D
#511906
0)
#511908
09
#512180
0D
#512500
b1 !
0*
#512700
0?
#512883
1<
#513023
11
#513206
0;
#513322
1G
#514247
0@
#514436
1C
#514709
0'
#515000
b0 !
1*
#515017
0(
#515185
0&
#515822
0G
#516243
13
#516304
0%
#516566
02
#516714
14
#516906
1)
#517500
b1 !
0*
#517883
0<
#518206
1;
#518322
1G
#519436
0C
#519858
1$
#520000
b0 !
1*
#520822
0G
#521433
18
#521756
07
#521906
0)
#521908
19
#522500
b1 !
0*
#522883
1<
#523206
0;
#523322
1G
#524436
1C
#525000
b0 !
1*
#525017
1(
#525822
0G
#526906
1)
#527500
b1 !
0*
#527883
0<
#528206
1;
#528322
1G
#529436
0C
#530000
b0 !
1*
#530822
0G
#531433
1:
08
#531756
17
09
#531906
0)
#531908
19
#532500
b1 !
0*
#532883
1<
#533206
0;
#533322
1G
#533350
1=
#534436
1C
#534709
1'
#535000
b0 !
1*
#535017
0(
#535822
0G
#536906
1)
#537500
b1 !
0*
#537883
0<
#538206
1;
#538322
1G
#538350
0=
#539436
0C
#540000
b0 !
1*
#540822
0G
#541433
18
#541756
07
#541906
0)
#541908
09
#542180
1D
#542500
b1 !
0*
#542883
1<
#543206
0;
#543322
1G
#544436
1C
#545000
b0 !
1*
#545017
1(
#545822
0G
#546906
1)
#547500
b1 !
0*
#547883
0<
#548206
1;
#548322
1G
#549436
0C
#550000
b0 !
1*
#550822
0G
#551433
1E
0:
08
#551756
17
19
0D
#551906
0)
#551908
09
#552180
1D
#552500
b1 !
0*
#552883
1<
#553206
0;
#553322
1G
#554436
1C
#554709
0'
#555000
b0 !
1*
#555017
0(
#555185
1&
#555822
0G
#556906
1)
#557500
b1 !
0*
#557883
0<
#558206
1;
#558322
1G
#559436
0C
#560000
b0 !
1*
#560822
0G
#561433
18
#561756
07
#561906
0)
#561908
19
#562500
b1 !
0*
#562883
1<
#563206
0;
#563322
1G
#564436
1C
#565000
b0 !
1*
#565017
1(
#565822
0G
#566906
1)
#567500
b1 !
0*
#567883
0<
#568206
1;
#568322
1G
#569436
0C
#570000
b0 !
1*
#570822
0G
#571433
1:
08
#571756
17
09
#571906
0)
#571908
19
#572500
b1 !
0*
#572883
1<
#573206
0;
#573322
1G
#574436
1C
#574709
1'
#575000
b0 !
1*
#575017
0(
#575822
0G
#576906
1)
#577500
b1 !
0*
#577883
0<
#578206
1;
#578322
1G
#579436
0C
#580000
b0 !
1*
#580822
0G
#581433
18
#581756
07
#581906
0)
#581908
09
#582180
0D
#582500
b1 !
0*
#582883
1<
#583206
0;
#583322
1G
#584436
1C
#585000
b0 !
1*
#585017
1(
#585822
0G
#586906
1)
#587500
b1 !
0*
#587883
0<
#588206
1;
#588322
1G
#589436
0C
#590000
b0 !
1*
#590822
0G
#591433
0E
0:
08
#591756
17
19
1D
#591906
0)
#591908
09
#592180
0D
#592500
b1 !
0*
#592700
1?
#592883
1<
#593023
01
#593206
0;
#593322
1G
#594247
1@
#594436
1C
#594709
0'
#595000
b0 !
1*
#595017
0(
#595185
0&
#595822
0G
#596304
1%
#596906
1)
#597500
b1 !
0*
#597883
0<
#598206
1;
#598322
1G
#599436
0C
#600000
b0 !
1*
#600822
0G
#601433
18
#601756
07
#601906
0)
#601908
19
#602500
b1 !
0*
#602883
1<
#603206
0;
#603322
1G
#604436
1C
#605000
b0 !
1*
#605017
1(
#605822
0G
#606906
1)
#607500
b1 !
0*
#607883
0<
#608206
1;
#608322
1G
#609436
0C
#610000
b0 !
1*
#610822
0G
#611433
1:
08
#611756
17
09
#611906
0)
#611908
19
#612500
b1 !
0*
#612883
1<
#613206
0;
#613322
1G
#613350
1=
#614436
1C
#614709
1'
#615000
b0 !
1*
#615017
0(
#615822
0G
#616906
1)
#617500
b1 !
0*
#617883
0<
#618206
1;
#618322
1G
#618350
0=
#619436
0C
#620000
b0 !
1*
#620822
0G
#621433
18
#621756
07
#621906
0)
#621908
09
#622180
1D
#622500
b1 !
0*
#622883
1<
#623206
0;
#623322
1G
#624436
1C
#625000
b0 !
1*
#625017
1(
#625822
0G
#626906
1)
#627500
b1 !
0*
#627883
0<
#628206
1;
#628322
1G
#629436
0C
#630000
b0 !
1*
#630822
0G
#631433
1E
0:
08
#631756
17
19
0D
#631906
0)
#631908
09
#632180
1D
#632500
b1 !
0*
#632883
1<
#633206
0;
#633322
1G
#634436
1C
#634709
0'
#635000
b0 !
1*
#635017
0(
#635185
1&
#635822
0G
#636906
1)
#637500
b1 !
0*
#637883
0<
#638206
1;
#638322
1G
#639436
0C
#640000
b0 !
1*
#640822
0G
#641433
18
#641756
07
#641906
0)
#641908
19
#642500
b1 !
0*
#642883
1<
#643206
0;
#643322
1G
#644436
1C
#645000
b0 !
1*
#645017
1(
#645822
0G
#646906
1)
#647500
b1 !
0*
#647883
0<
#648206
1;
#648322
1G
#649436
0C
#650000
b0 !
1*
#650822
0G
#651433
1:
08
#651756
17
09
#651906
0)
#651908
19
#652500
b1 !
0*
#652883
1<
#653206
0;
#653322
1G
#654436
1C
#654709
1'
#655000
b0 !
1*
#655017
0(
#655822
0G
#656906
1)
#657500
b1 !
0*
#657883
0<
#658206
1;
#658322
1G
#659436
0C
#660000
b0 !
1*
#660822
0G
#661433
18
#661756
07
#661906
0)
#661908
09
#662180
0D
#662500
b1 !
0*
#662883
1<
#663206
0;
#663322
1G
#664436
1C
#665000
b0 !
1*
#665017
1(
#665822
0G
#666906
1)
#667500
b1 !
0*
#667883
0<
#668206
1;
#668322
1G
#669436
0C
#670000
b0 !
1*
#670822
0G
#671433
0E
0:
08
#671756
17
19
1D
#671906
0)
#671908
09
#672180
0D
#672500
b1 !
0*
#672700
0?
#672883
1<
#673023
11
#673206
0;
#673322
1G
#674247
0@
#674436
1C
#674709
0'
#675000
b0 !
1*
#675017
0(
#675185
0&
#675822
0G
#676243
15
03
#676304
0%
#676566
12
#676906
1)
#676983
16
#677500
b1 !
0*
#677883
0<
#678206
1;
#678322
1G
#679436
0C
#679541
1#
#679858
0$
#680000
b0 !
1*
#680822
0G
#681433
18
#681756
07
#681906
0)
#681908
19
#682500
b1 !
0*
#682883
1<
#683206
0;
#683322
1G
#684436
1C
#685000
b0 !
1*
#685017
1(
#685822
0G
#686906
1)
#687500
b1 !
0*
#687883
0<
#688206
1;
#688322
1G
#689436
0C
#690000
b0 !
1*
#690822
0G
#691433
1:
08
#691756
17
09
#691906
0)
#691908
19
#692500
b1 !
0*
#692883
1<
#693206
0;
#693322
1G
#693350
1=
#693889
1>
#694436
1C
#694709
1'
#694887
05
#695000
b0 !
1*
#695017
0(
0:
0<
#695210
04
#695340
1;
09
#695484
0=
#695630
06
#695822
0G
#696023
0>
#696570
0C
#697500
b1 !
0*
#697883
1<
#698185
0#
#698206
0;
#698293
0'
#698322
1G
#698567
18
#698890
07
#699042
19
#699436
1C
#700000
b0 !
1*
#700822
0G
#701906
1)
#702151
1(
#702500
b1 !
0*
#702883
0<
#703206
1;
#703322
1G
#704436
0C
#705000
b0 !
1*
#705822
0G
#706433
1:
08
#706756
17
09
#706906
0)
#706908
19
#707500
b1 !
0*
#707883
1<
#708206
0;
#708322
1G
#708350
1=
#709436
1C
#709709
1'
#710000
b0 !
1*
#710017
0(
#710822
0G
#711906
1)
#712500
b1 !
0*
#712883
0<
#713206
1;
#713322
1G
#713350
0=
#714436
0C
#715000
b0 !
1*
#715822
0G
#716433
18
#716756
07
#716906
0)
#716908
09
#717180
1D
#717500
b1 !
0*
#717883
1<
#718206
0;
#718322
1G
#719436
1C
#720000
b0 !
1*
#720017
1(
#720822
0G
#721906
1)
#722500
b1 !
0*
#722883
0<
#723206
1;
#723322
1G
#724436
0C
#725000
b0 !
1*
#725822
0G
#726433
1E
0:
08
#726756
17
19
0D
#726906
0)
#726908
09
#727180
1D
#727500
b1 !
0*
#727883
1<
#728206
0;
#728322
1G
#729436
1C
#729709
0'
#730000
b0 !
1*
#730017
0(
#730185
1&
#730822
0G
#731906
1)
#732500
b1 !
0*
#732883
0<
#733206
1;
#733322
1G
#734436
0C
#735000
b0 !
1*
#735822
0G
#736433
18
#736756
07
#736906
0)
#736908
19
#737500
b1 !
0*
#737883
1<
#738206
0;
#738322
1G
#739436
1C
#740000
b0 !
1*
#740017
1(
#740822
0G
#741906
1)
#742500
b1 !
0*
#742883
0<
#743206
1;
#743322
1G
#744436
0C
#745000
b0 !
1*
#745822
0G
#746433
1:
08
#746756
17
09
#746906
0)
#746908
19
#747500
b1 !
0*
#747883
1<
#748206
0;
#748322
1G
#749436
1C
#749709
1'
#750000
b0 !
1*
#750017
0(
#750822
0G
#751906
1)
#752500
b1 !
0*
#752883
0<
#753206
1;
#753322
1G
#754436
0C
#755000
b0 !
1*
#755822
0G
#756433
18
#756756
07
#756906
0)
#756908
09
#757180
0D
#757500
b1 !
0*
#757883
1<
#758206
0;
#758322
1G
#759436
1C
#760000
b0 !
1*
#760017
1(
#760822
0G
#761906
1)
#762500
b1 !
0*
#762883
0<
#763206
1;
#763322
1G
#764436
0C
#765000
b0 !
1*
#765822
0G
#766433
0E
0:
08
#766756
17
19
1D
#766906
0)
#766908
09
#767180
0D
#767500
b1 !
0*
#767700
1?
#767883
1<
#768023
01
#768206
0;
#768322
1G
#769247
1@
#769436
1C
#769709
0'
#770000
b0 !
1*
#770017
0(
#770185
0&
#770822
0G
#771304
1%
#771906
1)
#772500
b1 !
0*
#772883
0<
#773206
1;
#773322
1G
#774436
0C
#775000
b0 !
1*
#775822
0G
#776433
18
#776756
07
#776906
0)
#776908
19
#777500
b1 !
0*
#777883
1<
#778206
0;
#778322
1G
#779436
1C
#780000
b0 !
1*
#780017
1(
#780822
0G
#781906
1)
#782500
b1 !
0*
#782883
0<
#783206
1;
#783322
1G
