PTC/Cwiczenie5_2/simulation/qsim/Cwiczenie5_2.msim.vcd
$comment
	File created using the following command:
		vcd file Cwiczenie5_2.msim.vcd -direction
$end
$date
	Sat Dec 16 13:29:45 2017
$end
$version
	ModelSim Version 10.1d
$end
$timescale
	1ps
$end
$scope module Cwiczenie5_2_vlg_vec_tst $end
$var reg 8 ! a [0:7] $end
$var reg 8 " b [0:7] $end
$var reg 1 # cin $end
$var reg 1 $ clk $end
$var wire 1 % sout $end
$var wire 1 & sum [0] $end
$var wire 1 ' sum [1] $end
$var wire 1 ( sum [2] $end
$var wire 1 ) sum [3] $end
$var wire 1 * sum [4] $end
$var wire 1 + sum [5] $end
$var wire 1 , sum [6] $end
$var wire 1 - sum [7] $end
$var wire 1 . sampler $end
$scope module i1 $end
$var wire 1 / gnd $end
$var wire 1 0 vcc $end
$var wire 1 1 unknown $end
$var tri1 1 2 devclrn $end
$var tri1 1 3 devpor $end
$var tri1 1 4 devoe $end
$var wire 1 5 clk~combout $end
$var wire 1 6 clk~clkctrl_outclk $end
$var wire 1 7 R0|dff6|q~1_combout $end
$var wire 1 8 R1|dff6|q~1_combout $end
$var wire 1 9 R0|dff5|q~1_combout $end
$var wire 1 : R1|dff4|q~1_combout $end
$var wire 1 ; R0|dff3|q~1_combout $end
$var wire 1 < R1|dff3|q~1_combout $end
$var wire 1 = SUMUJ|SUM3|cout~0_combout $end
$var wire 1 > R0|dff4|q~1_combout $end
$var wire 1 ? SUMUJ|SUM5|cout~0_combout $end
$var wire 1 @ R1|dff5|q~1_combout $end
$var wire 1 A SUMUJ|SUM5|cout~1_combout $end
$var wire 1 B SUMUJ|SUM6|cout~0_combout $end
$var wire 1 C R1|dff7|q~1_combout $end
$var wire 1 D R0|dff7|q~1_combout $end
$var wire 1 E SUMUJ|SUM7|s~combout $end
$var wire 1 F SUMUJ|SUM6|s~combout $end
$var wire 1 G SUMUJ|SUM5|s~combout $end
$var wire 1 H R1|dff0|q~1_combout $end
$var wire 1 I cin~combout $end
$var wire 1 J SUMUJ|SUM0|cout~0_combout $end
$var wire 1 K R1|dff1|q~1_combout $end
$var wire 1 L SUMUJ|SUM1|cout~0_combout $end
$var wire 1 M SUMUJ|SUM3|cout~1_combout $end
$var wire 1 N R1|dff2|q~1_combout $end
$var wire 1 O SUMUJ|SUM3|cout~2_combout $end
$var wire 1 P SUMUJ|SUM4|s~combout $end
$var wire 1 Q R0|dff2|q~1_combout $end
$var wire 1 R SUMUJ|SUM3|s~0_combout $end
$var wire 1 S SUMUJ|SUM3|s~combout $end
$var wire 1 T SUMUJ|SUM2|s~combout $end
$var wire 1 U R0|dff1|q~1_combout $end
$var wire 1 V SUMUJ|SUM1|s~combout $end
$var wire 1 W R0|dff0|q~1_combout $end
$var wire 1 X SUMUJ|SUM0|s~0_combout $end
$var wire 1 Y SUMUJ|SUM7|cout~0_combout $end
$var wire 1 Z b~combout [0] $end
$var wire 1 [ b~combout [1] $end
$var wire 1 \ b~combout [2] $end
$var wire 1 ] b~combout [3] $end
$var wire 1 ^ b~combout [4] $end
$var wire 1 _ b~combout [5] $end
$var wire 1 ` b~combout [6] $end
$var wire 1 a b~combout [7] $end
$var wire 1 b a~combout [0] $end
$var wire 1 c a~combout [1] $end
$var wire 1 d a~combout [2] $end
$var wire 1 e a~combout [3] $end
$var wire 1 f a~combout [4] $end
$var wire 1 g a~combout [5] $end
$var wire 1 h a~combout [6] $end
$var wire 1 i a~combout [7] $end
$upscope $end
$upscope $end
$enddefinitions $end
#0
$dumpvars
b0 !
b0 "
0#
0$
x%
x-
x,
x+
x*
x)
x(
x'
x&
x.
0/
10
x1
12
13
14
05
x6
x7
x8
x9
x:
x;
x<
x=
x>
x?
x@
xA
xB
xC
xD
xE
xF
xG
xH
0I
xJ
xK
xL
xM
xN
xO
xP
xQ
xR
xS
xT
xU
xV
xW
xX
xY
0a
0`
0_
0^
0]
0\
0[
0Z
0i
0h
0g
0f
0e
0d
0c
0b
$end
#114
06
#3500
1$
0.
#4489
15
#4603
16
#5000
b10000000 !
1.
#5880
1b
#6309
0K
#6312
0W
#6367
0H
#6368
0;
0Q
0U
#6369
0<
#6370
0N
#6408
09
#6410
0>
0@
0D
#6412
08
#6413
07
0:
0C
#6820
0A
#6827
0?
#6897
0M
#6902
0L
#6935
0R
#6971
0Y
#6973
0B
#7000
0$
0.
#7046
0J
#7070
0=
#7103
0O
#7231
0F
#7364
0G
#7420
0X
#7578
0V
0T
#7646
0S
#7684
0E
#7989
05
#8103
06
#10000
b0 !
1.
#10339
0%
#10500
1$
0.
#10731
0+
#10775
0,
#10841
0&
#10880
0b
#10978
0'
#11011
0)
#11052
0-
#11113
0(
#11283
0P
#11489
15
#11603
16
#13312
1W
#14000
0$
1.
#14420
1X
#14891
0*
#14989
05
#15000
b10000000 !
0.
#15103
06
#15880
1b
#16127
0W
#17235
0X
#17500
1$
1.
#17841
1&
#18489
15
#18603
16
#20000
b0 !
0.
#20656
0&
#20880
0b
#21000
0$
1.
#21127
1W
#21989
05
#22103
06
#22235
1X
#24500
1$
0.
#25000
b10000000 !
1.
#25489
15
#25603
16
#25656
1&
#25880
1b
#27312
0W
#28000
0$
0.
#28420
0X
#28989
05
#29103
06
#30000
b0 !
1.
#30880
0b
#31500
1$
0.
#31841
0&
#32489
15
#32603
16
#34312
1W
#35000
b10000000 !
0$
1.
#35420
1X
#35880
1b
#35989
05
#36103
06
#36127
0W
#37235
0X
#38500
1$
0.
#39489
15
#39603
16
#40000
b0 !
1.
#40880
0b
#41312
1W
#42000
0$
0.
#42420
1X
#42989
05
#43103
06
#45000
b10000000 !
1.
#45500
1$
0.
#45841
1&
#45880
1b
#46489
15
#46603
16
#48312
0W
#49000
0$
1.
#49420
0X
#49989
05
#50000
b0 !
0.
#50103
06
#50880
0b
#51127
1W
#52235
1X
#52500
1$
1.
#52841
0&
#53489
15
#53603
16
#55000
b10000000 !
0.
#55656
1&
#55880
1b
#56000
0$
1.
#56127
0W
#56989
05
#57103
06
#57235
0X
#59500
1$
0.
#60000
b0 !
1.
#60489
15
#60603
16
#60656
0&
#60880
0b
#62312
1W
#63000
0$
0.
#63420
1X
#63989
05
#64103
06
#65000
b10000000 !
1.
#65880
1b
#66500
1$
0.
#66841
1&
#67489
15
#67603
16
#69312
0W
#70000
b0 !
0$
1.
#70420
0X
#70880
0b
#70989
05
#71103
06
#71127
1W
#72235
1X
#73500
1$
0.
#74489
15
#74603
16
#75000
b10000000 !
1.
#75880
1b
#76312
0W
#77000
0$
0.
#77420
0X
#77989
05
#78103
06
#80000
b0 !
1.
#80500
1$
0.
#80841
0&
#80880
0b
#81489
15
#81603
16
#83312
1W
#84000
0$
1.
#84420
1X
#84989
05
#85000
b10000000 !
0.
#85103
06
#85880
1b
#86127
0W
#87235
0X
#87500
1$
1.
#87841
1&
#88489
15
#88603
16
#90000
b0 !
0.
#90656
0&
#90880
0b
#91000
0$
1.
#91127
1W
#91989
05
#92103
06
#92235
1X
#94500
1$
0.
#95000
b10000000 !
1.
#95489
15
#95603
16
#95656
1&
#95880
1b
#97312
0W
#98000
0$
0.
#98420
0X
#98989
05
#99103
06
#100000
b0 !
1.
#100880
0b
#101500
1$
0.
#101841
0&
#102489
15
#102603
16
#104312
1W
#105000
b10000000 !
0$
1.
#105420
1X
#105880
1b
#105989
05
#106103
06
#106127
0W
#107235
0X
#108500
1$
0.
#109489
15
#109603
16
#110000
b0 !
1.
#110880
0b
#111312
1W
#112000
0$
0.
#112420
1X
#112989
05
#113103
06
#115000
b10000000 !
1.
#115500
1$
0.
#115841
1&
#115880
1b
#116489
15
#116603
16
#118312
0W
#119000
0$
1.
#119420
0X
#119989
05
#120000
b0 !
0.
#120103
06
#120880
0b
#121127
1W
#122235
1X
#122500
1$
1.
#122841
0&
#123489
15
#123603
16
#125000
b10000000 !
0.
#125656
1&
#125880
1b
#126000
0$
1.
#126127
0W
#126989
05
#127103
06
#127235
0X
#129500
1$
0.
#130000
b0 !
1.
#130489
15
#130603
16
#130656
0&
#130880
0b
#132312
1W
#133000
0$
0.
#133420
1X
#133989
05
#134103
06
#135000
b10000000 !
1.
#135880
1b
#136500
1$
0.
#136841
1&
#137489
15
#137603
16
#139312
0W
#140000
b0 !
0$
1.
#140420
0X
#140880
0b
#140989
05
#141103
06
#141127
1W
#142235
1X
#143500
1$
0.
#144489
15
#144603
16
#145000
b10000000 !
1.
#145880
1b
#146312
0W
#147000
0$
0.
#147420
0X
#147989
05
#148103
06
#150000
b0 !
1.
#150500
1$
0.
#150841
0&
#150880
0b
#151489
15
#151603
16
#153312
1W
#154000
0$
1.
#154420
1X
#154989
05
#155000
b10000000 !
0.
#155103
06
#155880
1b
#156127
0W
#157235
0X
#157500
1$
1.
#157841
1&
#158489
15
#158603
16
#160000
b0 !
0.
#160656
0&
#160880
0b
#161000
0$
1.
#161127
1W
#161989
05
#162103
06
#162235
1X
#164500
1$
0.
#165000
b10000000 !
1.
#165489
15
#165603
16
#165656
1&
#165880
1b
#167312
0W
#168000
0$
0.
#168420
0X
#168989
05
#169103
06
#170000
b0 !
1.
#170880
0b
#171500
1$
0.
#171841
0&
#172489
15
#172603
16
#174312
1W
#175000
b10000000 !
0$
1.
#175420
1X
#175880
1b
#175989
05
#176103
06
#176127
0W
#177235
0X
#178500
1$
0.
#179489
15
#179603
16
#180000
b0 !
1.
#180880
0b
#181312
1W
#182000
0$
0.
#182420
1X
#182989
05
#183103
06
#185000
b10000000 !
1.
#185500
1$
0.
#185841
1&
#185880
1b
#186489
15
#186603
16
#188312
0W
#189000
0$
1.
#189420
0X
#189989
05
#190000
b0 !
0.
#190103
06
#190880
0b
#191127
1W
#192235
1X
#192500
1$
1.
#192841
0&
#193489
15
#193603
16
#195000
b10000000 !
0.
#195656
1&
#195880
1b
#196000
0$
1.
#196127
0W
#196989
05
#197103
06
#197235
0X
#199500
1$
0.
#200000
b0 !
1.
#200489
15
#200603
16
#200656
0&
#200880
0b
#202312
1W
#203000
0$
0.
#203420
1X
#203989
05
#204103
06
#205000
b10000000 !
1.
#205880
1b
#206500
1$
0.
#206841
1&
#207489
15
#207603
16
#209312
0W
#210000
b0 !
0$
1.
#210420
0X
#210880
0b
#210989
05
#211103
06
#211127
1W
#212235
1X
#213500
1$
0.
#214489
15
#214603
16
#215000
b10000000 !
1.
#215880
1b
#216312
0W
#217000
0$
0.
#217420
0X
#217989
05
#218103
06
#220000
b0 !
1.
#220500
1$
0.
#220841
0&
#220880
0b
#221489
15
#221603
16
#223312
1W
#224000
0$
1.
#224420
1X
#224989
05
#225000
b10000000 !
0.
#225103
06
#225880
1b
#226127
0W
#227235
0X
#227500
1$
1.
#227841
1&
#228489
15
#228603
16
#230000
b0 !
0.
#230656
0&
#230880
0b
#231000
0$
1.
#231127
1W
#231989
05
#232103
06
#232235
1X
#234500
1$
0.
#235000
b10000000 !
1.
#235489
15
#235603
16
#235656
1&
#235880
1b
#237312
0W
#238000
0$
0.
#238420
0X
#238989
05
#239103
06
#240000
b0 !
1.
#240880
0b
#241500
1$
0.
#241841
0&
#242489
15
#242603
16
#244312
1W
#245000
b10000000 !
0$
1.
#245420
1X
#245880
1b
#245989
05
#246103
06
#246127
0W
#247235
0X
#248500
1$
0.
#249489
15
#249603
16
#250000
b0 !
1.
#250880
0b
#251312
1W
#252000
0$
0.
#252420
1X
#252989
05
#253103
06
#255000
b10000000 !
1.
#255500
1$
0.
#255841
1&
#255880
1b
#256489
15
#256603
16
#258312
0W
#259000
0$
1.
#259420
0X
#259989
05
#260000
b0 !
0.
#260103
06
#260880
0b
#261127
1W
#262235
1X
#262500
1$
1.
#262841
0&
#263489
15
#263603
16
#265000
b10000000 !
0.
#265656
1&
#265880
1b
#266000
0$
1.
#266127
0W
#266989
05
#267103
06
#267235
0X
#269500
1$
0.
#270000
b0 !
1.
#270489
15
#270603
16
#270656
0&
#270880
0b
#272312
1W
#273000
0$
0.
#273420
1X
#273989
05
#274103
06
#275000
b10000000 !
1.
#275880
1b
#276500
1$
0.
#276841
1&
#277489
15
#277603
16
#279312
0W
#280000
b0 !
0$
1.
#280420
0X
#280880
0b
#280989
05
#281103
06
#281127
1W
#282235
1X
#283500
1$
0.
#284489
15
#284603
16
#285000
b10000000 !
1.
#285880
1b
#286312
0W
#287000
0$
0.
#287420
0X
#287989
05
#288103
06
#290000
b0 !
1.
#290500
1$
0.
#290841
0&
#290880
0b
#291489
15
#291603
16
#293312
1W
#294000
0$
1.
#294420
1X
#294989
05
#295000
b10000000 !
0.
#295103
06
#295880
1b
#296127
0W
#297235
0X
#297500
1$
1.
#297841
1&
#298489
15
#298603
16
#300000
b0 !
0.
#300656
0&
#300880
0b
#301000
0$
1.
#301127
1W
#301989
05
#302103
06
#302235
1X
#304500
1$
0.
#305000
b10000000 !
1.
#305489
15
#305603
16
#305656
1&
#305880
1b
#307312
0W
#308000
0$
0.
#308420
0X
#308989
05
#309103
06
#310000
b0 !
1.
#310880
0b
#311500
1$
0.
#311841
0&
#312489
15
#312603
16
#314312
1W
#315000
b10000000 !
0$
1.
#315420
1X
#315880
1b
#315989
05
#316103
06
#316127
0W
#317235
0X
#318500
1$
0.
#319489
15
#319603
16
#320000
b0 !
1.
#320880
0b
#321312
1W
#322000
0$
0.
#322420
1X
#322989
05
#323103
06
#325000
b10000000 !
1.
#325500
1$
0.
#325841
1&
#325880
1b
#326489
15
#326603
16
#328312
0W
#329000
0$
1.
#329420
0X
#329989
05
#330000
b0 !
0.
#330103
06
#330880
0b
#331127
1W
#332235
1X
#332500
1$
1.
#332841
0&
#333489
15
#333603
16
#335000
b10000000 !
0.
#335656
1&
#335880
1b
#336000
0$
1.
#336127
0W
#336989
05
#337103
06
#337235
0X
#339500
1$
0.
#340000
b0 !
1.
#340489
15
#340603
16
#340656
0&
#340880
0b
#342312
1W
#343000
0$
0.
#343420
1X
#343989
05
#344103
06
#345000
b10000000 !
1.
#345880
1b
#346500
1$
0.
#346841
1&
#347489
15
#347603
16
#349312
0W
#350000
b0 !
0$
1.
#350420
0X
#350880
0b
#350989
05
#351103
06
#351127
1W
#352235
1X
#353500
1$
0.
#354489
15
#354603
16
#355000
b10000000 !
1.
#355880
1b
#356312
0W
#357000
0$
0.
#357420
0X
#357989
05
#358103
06
#360000
b0 !
1.
#360500
1$
0.
#360841
0&
#360880
0b
#361489
15
#361603
16
#363312
1W
#364000
0$
1.
#364420
1X
#364989
05
#365000
b10000000 !
0.
#365103
06
#365880
1b
#366127
0W
#367235
0X
#367500
1$
1.
#367841
1&
#368489
15
#368603
16
#370000
b0 !
0.
#370656
0&
#370880
0b
#371000
0$
1.
#371127
1W
#371989
05
#372103
06
#372235
1X
#374500
1$
0.
#375000
b10000000 !
1.
#375489
15
#375603
16
#375656
1&
#375880
1b
#377312
0W
#378000
0$
0.
#378420
0X
#378989
05
#379103
06
#380000
b0 !
1.
#380880
0b
#381500
1$
0.
#381841
0&
#382489
15
#382603
16
#384312
1W
#385000
b10000000 !
0$
1.
#385420
1X
#385880
1b
#385989
05
#386103
06
#386127
0W
#387235
0X
#388500
1$
0.
#389489
15
#389603
16
#390000
b0 !
1.
#390880
0b
#391312
1W
#392000
0$
0.
#392420
1X
#392989
05
#393103
06
#395000
b10000000 !
1.
#395500
1$
0.
#395841
1&
#395880
1b
#396489
15
#396603
16
#398312
0W
#399000
0$
1.
#399420
0X
#399989
05
#400000
b0 !
0.
#400103
06
#400880
0b
#401127
1W
#402235
1X
#402500
1$
1.
#402841
0&
#403489
15
#403603
16
#405000
b10000000 !
0.
#405656
1&
#405880
1b
#406000
0$
1.
#406127
0W
#406989
05
#407103
06
#407235
0X
#409500
1$
0.
#410000
b0 !
1.
#410489
15
#410603
16
#410656
0&
#410880
0b
#412312
1W
#413000
0$
0.
#413420
1X
#413989
05
#414103
06
#415000
b10000000 !
1.
#415880
1b
#416500
1$
0.
#416841
1&
#417489
15
#417603
16
#419312
0W
#420000
b0 !
0$
1.
#420420
0X
#420880
0b
#420989
05
#421103
06
#421127
1W
#422235
1X
#423500
1$
0.
#424489
15
#424603
16
#425000
b10000000 !
1.
#425880
1b
#426312
0W
#427000
0$
0.
#427420
0X
#427989
05
#428103
06
#430000
b0 !
1.
#430500
1$
0.
#430841
0&
#430880
0b
#431489
15
#431603
16
#433312
1W
#434000
0$
1.
#434420
1X
#434989
05
#435000
b10000000 !
0.
#435103
06
#435880
1b
#436127
0W
#437235
0X
#437500
1$
1.
#437841
1&
#438489
15
#438603
16
#440000
b0 !
0.
#440656
0&
#440880
0b
#441000
0$
1.
#441127
1W
#441989
05
#442103
06
#442235
1X
#444500
1$
0.
#445000
b10000000 !
1.
#445489
15
#445603
16
#445656
1&
#445880
1b
#447312
0W
#448000
0$
0.
#448420
0X
#448989
05
#449103
06
#450000
b0 !
1.
#450880
0b
#451500
1$
0.
#451841
0&
#452489
15
#452603
16
#454312
1W
#455000
b10000000 !
0$
1.
#455420
1X
#455880
1b
#455989
05
#456103
06
#456127
0W
#457235
0X
#458500
1$
0.
#459489
15
#459603
16
#460000
b0 !
1.
#460880
0b
#461312
1W
#462000
0$
0.
#462420
1X
#462989
05
#463103
06
#465000
b10000000 !
1.
#465500
1$
0.
#465841
1&
#465880
1b
#466489
15
#466603
16
#468312
0W
#469000
0$
1.
#469420
0X
#469989
05
#470000
b0 !
0.
#470103
06
#470880
0b
#471127
1W
#472235
1X
#472500
1$
1.
#472841
0&
#473489
15
#473603
16
#475000
b10000000 !
0.
#475656
1&
#475880
1b
#476000
0$
1.
#476127
0W
#476989
05
#477103
06
#477235
0X
#479500
1$
0.
#480000
b0 !
1.
#480489
15
#480603
16
#480656
0&
#480880
0b
#482312
1W
#483000
0$
0.
#483420
1X
#483989
05
#484103
06
#485000
b10000000 !
1.
#485880
1b
#486500
1$
0.
#486841
1&
#487489
15
#487603
16
#489312
0W
#490000
b0 !
0$
1.
#490420
0X
#490880
0b
#490989
05
#491103
06
#491127
1W
#492235
1X
#493500
1$
0.
#494489
15
#494603
16
#495000
b10000000 !
1.
#495880
1b
#496312
0W
#497000
0$
0.
#497420
0X
#497989
05
#498103
06
#500000
b0 !
1.
#500500
1$
0.
#500841
0&
#500880
0b
#501489
15
#501603
16
#503312
1W
#504000
0$
1.
#504420
1X
#504989
05
#505000
b10000000 !
0.
#505103
06
#505880
1b
#506127
0W
#507235
0X
#507500
1$
1.
#507841
1&
#508489
15
#508603
16
#510000
b0 !
0.
#510656
0&
#510880
0b
#511000
0$
1.
#511127
1W
#511989
05
#512103
06
#512235
1X
#514500
1$
0.
#515000
b10000000 !
1.
#515489
15
#515603
16
#515656
1&
#515880
1b
#517312
0W
#518000
0$
0.
#518420
0X
#518989
05
#519103
06
#520000
b0 !
1.
#520880
0b
#521500
1$
0.
#521841
0&
#522489
15
#522603
16
#524312
1W
#525000
b10000000 !
0$
1.
#525420
1X
#525880
1b
#525989
05
#526103
06
#526127
0W
#527235
0X
#528500
1$
0.
#529489
15
#529603
16
#530000
b0 !
1.
#530880
0b
#531312
1W
#532000
0$
0.
#532420
1X
#532989
05
#533103
06
#535000
b10000000 !
1.
#535500
1$
0.
#535841
1&
#535880
1b
#536489
15
#536603
16
#538312
0W
#539000
0$
1.
#539420
0X
#539989
05
#540000
b0 !
0.
#540103
06
#540880
0b
#541127
1W
#542235
1X
#542500
1$
1.
#542841
0&
#543489
15
#543603
16
#545000
b10000000 !
0.
#545656
1&
#545880
1b
#546000
0$
1.
#546127
0W
#546989
05
#547103
06
#547235
0X
#549500
1$
0.
#550000
b0 !
1.
#550489
15
#550603
16
#550656
0&
#550880
0b
#552312
1W
#553000
0$
0.
#553420
1X
#553989
05
#554103
06
#555000
b10000000 !
1.
#555880
1b
#556500
1$
0.
#556841
1&
#557489
15
#557603
16
#559312
0W
#560000
b0 !
0$
1.
#560420
0X
#560880
0b
#560989
05
#561103
06
#561127
1W
#562235
1X
#563500
1$
0.
#564489
15
#564603
16
#565000
b10000000 !
1.
#565880
1b
#566312
0W
#567000
0$
0.
#567420
0X
#567989
05
#568103
06
#570000
b0 !
1.
#570500
1$
0.
#570841
0&
#570880
0b
#571489
15
#571603
16
#573312
1W
#574000
0$
1.
#574420
1X
#574989
05
#575000
b10000000 !
0.
#575103
06
#575880
1b
#576127
0W
#577235
0X
#577500
1$
1.
#577841
1&
#578489
15
#578603
16
#580000
b0 !
0.
#580656
0&
#580880
0b
#581000
0$
1.
#581127
1W
#581989
05
#582103
06
#582235
1X
#584500
1$
0.
#585000
b10000000 !
1.
#585489
15
#585603
16
#585656
1&
#585880
1b
#587312
0W
#588000
0$
0.
#588420
0X
#588989
05
#589103
06
#590000
b0 !
1.
#590880
0b
#591500
1$
0.
#591841
0&
#592489
15
#592603
16
#594312
1W
#595000
b10000000 !
0$
1.
#595420
1X
#595880
1b
#595989
05
#596103
06
#596127
0W
#597235
0X
#598500
1$
0.
#599489
15
#599603
16
#600000
b0 !
1.
#600880
0b
#601312
1W
#602000
0$
0.
#602420
1X
#602989
05
#603103
06
#605000
b10000000 !
1.
#605500
1$
0.
#605841
1&
#605880
1b
#606489
15
#606603
16
#608312
0W
#609000
0$
1.
#609420
0X
#609989
05
#610000
b0 !
0.
#610103
06
#610880
0b
#611127
1W
#612235
1X
#612500
1$
1.
#612841
0&
#613489
15
#613603
16
#615000
b10000000 !
0.
#615656
1&
#615880
1b
#616000
0$
1.
#616127
0W
#616989
05
#617103
06
#617235
0X
#619500
1$
0.
#620000
b0 !
1.
#620489
15
#620603
16
#620656
0&
#620880
0b
#622312
1W
#623000
0$
0.
#623420
1X
#623989
05
#624103
06
#625000
b10000000 !
1.
#625880
1b
#626500
1$
0.
#626841
1&
#627489
15
#627603
16
#629312
0W
#630000
b0 !
0$
1.
#630420
0X
#630880
0b
#630989
05
#631103
06
#631127
1W
#632235
1X
#633500
1$
0.
#634489
15
#634603
16
#635000
b10000000 !
1.
#635880
1b
#636312
0W
#637000
0$
0.
#637420
0X
#637989
05
#638103
06
#640000
b0 !
1.
#640500
1$
0.
#640841
0&
#640880
0b
#641489
15
#641603
16
#643312
1W
#644000
0$
1.
#644420
1X
#644989
05
#645000
b10000000 !
0.
#645103
06
#645880
1b
#646127
0W
#647235
0X
#647500
1$
1.
#647841
1&
#648489
15
#648603
16
#650000
b0 !
0.
#650656
0&
#650880
0b
#651000
0$
1.
#651127
1W
#651989
05
#652103
06
#652235
1X
#654500
1$
0.
#655000
b10000000 !
1.
#655489
15
#655603
16
#655656
1&
#655880
1b
#657312
0W
#658000
0$
0.
#658420
0X
#658989
05
#659103
06
#660000
b0 !
1.
#660880
0b
#661500
1$
0.
#661841
0&
#662489
15
#662603
16
#664312
1W
#665000
b10000000 !
0$
1.
#665420
1X
#665880
1b
#665989
05
#666103
06
#666127
0W
#667235
0X
#668500
1$
0.
#669489
15
#669603
16
#670000
b0 !
1.
#670880
0b
#671312
1W
#672000
0$
0.
#672420
1X
#672989
05
#673103
06
#675000
b10000000 !
1.
#675500
1$
0.
#675841
1&
#675880
1b
#676489
15
#676603
16
#678312
0W
#679000
0$
1.
#679420
0X
#679989
05
#680000
b0 !
0.
#680103
06
#680880
0b
#681127
1W
#682235
1X
#682500
1$
1.
#682841
0&
#683489
15
#683603
16
#685000
b10000000 !
0.
#685656
1&
#685880
1b
#686000
0$
1.
#686127
0W
#686989
05
#687103
06
#687235
0X
#689500
1$
0.
#690000
b0 !
1.
#690489
15
#690603
16
#690656
0&
#690880
0b
#692312
1W
#693000
0$
0.
#693420
1X
#693989
05
#694103
06
#695000
b10000000 !
1.
#695880
1b
#696500
1$
0.
#696841
1&
#697489
15
#697603
16
#699312
0W
#700000
b0 !
0$
1.
#700420
0X
#700880
0b
#700989
05
#701103
06
#701127
1W
#702235
1X
#703500
1$
0.
#704489
15
#704603
16
#705000
b10000000 !
1.
#705880
1b
#706312
0W
#707000
0$
0.
#707420
0X
#707989
05
#708103
06
#710000
b0 !
1.
#710500
1$
0.
#710841
0&
#710880
0b
#711489
15
#711603
16
#713312
1W
#714000
0$
1.
#714420
1X
#714989
05
#715000
b10000000 !
0.
#715103
06
#715880
1b
#716127
0W
#717235
0X
#717500
1$
1.
#717841
1&
#718489
15
#718603
16
#720000
b0 !
0.
#720656
0&
#720880
0b
#721000
0$
1.
#721127
1W
#721989
05
#722103
06
#722235
1X
#724500
1$
0.
#725000
b10000000 !
1.
#725489
15
#725603
16
#725656
1&
#725880
1b
#727312
0W
#728000
0$
0.
#728420
0X
#728989
05
#729103
06
#730000
b0 !
1.
#730880
0b
#731500
1$
0.
#731841
0&
#732489
15
#732603
16
#734312
1W
#735000
b10000000 !
0$
1.
#735420
1X
#735880
1b
#735989
05
#736103
06
#736127
0W
#737235
0X
#738500
1$
0.
#739489
15
#739603
16
#740000
b0 !
1.
#740880
0b
#741312
1W
#742000
0$
0.
#742420
1X
#742989
05
#743103
06
#745000
b10000000 !
1.
#745500
1$
0.
#745841
1&
#745880
1b
#746489
15
#746603
16
#748312
0W
#749000
0$
1.
#749420
0X
#749989
05
#750000
b0 !
0.
#750103
06
#750880
0b
#751127
1W
#752235
1X
#752500
1$
1.
#752841
0&
#753489
15
#753603
16
#755000
b10000000 !
0.
#755656
1&
#755880
1b
#756000
0$
1.
#756127
0W
#756989
05
#757103
06
#757235
0X
#759500
1$
0.
#760000
b0 !
1.
#760489
15
#760603
16
#760656
0&
#760880
0b
#762312
1W
#763000
0$
0.
#763420
1X
#763989
05
#764103
06
#765000
b10000000 !
1.
#765880
1b
#766500
1$
0.
#766841
1&
#767489
15
#767603
16
#769312
0W
#770000
b0 !
0$
1.
#770420
0X
#770880
0b
#770989
05
#771103
06
#771127
1W
#772235
1X
#773500
1$
0.
#774489
15
#774603
16
#775000
b10000000 !
1.
#775880
1b
#776312
0W
#777000
0$
0.
#777420
0X
#777989
05
#778103
06
#780000
b0 !
1.
#780500
1$
0.
#780841
0&
#780880
0b
#781489
15
#781603
16
#783312
1W
#784000
0$
1.
#784420
1X
#784989
05
#785000
b10000000 !
0.
#785103
06
#785880
1b
#786127
0W
#787235
0X
#787500
1$
1.
#787841
1&
#788489
15
#788603
16
#790000
b0 !
0.
#790656
0&
#790880
0b
#791000
0$
1.
#791127
1W
#791989
05
#792103
06
#792235
1X
#794500
1$
0.
#795000
b10000000 !
1.
#795489
15
#795603
16
#795656
1&
#795880
1b
#797312
0W
#798000
0$
0.
#798420
0X
#798989
05
#799103
06
#800000
b0 !
1.
#800880
0b
#801500
1$
0.
#801841
0&
#802489
15
#802603
16
#804312
1W
#805000
b10000000 !
0$
1.
#805420
1X
#805880
1b
#805989
05
#806103
06
#806127
0W
#807235
0X
#808500
1$
0.
#809489
15
#809603
16
#810000
b0 !
1.
#810880
0b
#811312
1W
#812000
0$
0.
#812420
1X
#812989
05
#813103
06
#815000
b10000000 !
1.
#815500
1$
0.
#815841
1&
#815880
1b
#816489
15
#816603
16
#818312
0W
#819000
0$
1.
#819420
0X
#819989
05
#820000
b0 !
0.
#820103
06
#820880
0b
#821127
1W
#822235
1X
#822500
1$
1.
#822841
0&
#823489
15
#823603
16
#825000
b10000000 !
0.
#825656
1&
#825880
1b
#826000
0$
1.
#826127
0W
#826989
05
#827103
06
#827235
0X
#829500
1$
0.
#830000
b0 !
1.
#830489
15
#830603
16
#830656
0&
#830880
0b
#832312
1W
#833000
0$
0.
#833420
1X
#833989
05
#834103
06
#835000
b10000000 !
1.
#835880
1b
#836500
1$
0.
#836841
1&
#837489
15
#837603
16
#839312
0W
#840000
b0 !
0$
1.
#840420
0X
#840880
0b
#840989
05
#841103
06
#841127
1W
#842235
1X
#843500
1$
0.
#844489
15
#844603
16
#845000
b10000000 !
1.
#845880
1b
#846312
0W
#847000
0$
0.
#847420
0X
#847989
05
#848103
06
#850000
b0 !
1.
#850500
1$
0.
#850841
0&
#850880
0b
#851489
15
#851603
16
#853312
1W
#854000
0$
1.
#854420
1X
#854989
05
#855000
b10000000 !
0.
#855103
06
#855880
1b
#856127
0W
#857235
0X
#857500
1$
1.
#857841
1&
#858489
15
#858603
16
#860000
b0 !
0.
#860656
0&
#860880
0b
#861000
0$
1.
#861127
1W
#861989
05
#862103
06
#862235
1X
#864500
1$
0.
#865000
b10000000 !
1.
#865489
15
#865603
16
#865656
1&
#865880
1b
#867312
0W
#868000
0$
0.
#868420
0X
#868989
05
#869103
06
#870000
b0 !
1.
#870880
0b
#871500
1$
0.
#871841
0&
#872489
15
#872603
16
#874312
1W
#875000
b10000000 !
0$
1.
#875420
1X
#875880
1b
#875989
05
#876103
06
#876127
0W
#877235
0X
#878500
1$
0.
#879489
15
#879603
16
#880000
b0 !
1.
#880880
0b
#881312
1W
#882000
0$
0.
#882420
1X
#882989
05
#883103
06
#885000
b10000000 !
1.
#885500
1$
0.
#885841
1&
#885880
1b
#886489
15
#886603
16
#888312
0W
#889000
0$
1.
#889420
0X
#889989
05
#890000
b0 !
0.
#890103
06
#890880
0b
#891127
1W
#892235
1X
#892500
1$
1.
#892841
0&
#893489
15
#893603
16
#895000
b10000000 !
0.
#895656
1&
#895880
1b
#896000
0$
1.
#896127
0W
#896989
05
#897103
06
#897235
0X
#899500
1$
0.
#900000
b0 !
1.
#900489
15
#900603
16
#900656
0&
#900880
0b
#902312
1W
#903000
0$
0.
#903420
1X
#903989
05
#904103
06
#905000
b10000000 !
1.
#905880
1b
#906500
1$
0.
#906841
1&
#907489
15
#907603
16
#909312
0W
#910000
b0 !
0$
1.
#910420
0X
#910880
0b
#910989
05
#911103
06
#911127
1W
#912235
1X
#913500
1$
0.
#914489
15
#914603
16
#915000
b10000000 !
1.
#915880
1b
#916312
0W
#917000
0$
0.
#917420
0X
#917989
05
#918103
06
#920000
b0 !
1.
