PTC/Cwiczenie5_3/simulation/qsim/Cwiczenie5_3.msim.vcd
$comment
	File created using the following command:
		vcd file Cwiczenie5_3.msim.vcd -direction
$end
$date
	Wed Dec 13 16:13:06 2017
$end
$version
	ModelSim Version 10.1d
$end
$timescale
	1ps
$end
$scope module Cwiczenie5_3_vlg_vec_tst $end
$var reg 1 ! clk $end
$var reg 8 " in1 [0:7] $end
$var reg 8 # in2 [0:7] $end
$var wire 1 $ out0 [0] $end
$var wire 1 % out0 [1] $end
$var wire 1 & out0 [2] $end
$var wire 1 ' out0 [3] $end
$var wire 1 ( out0 [4] $end
$var wire 1 ) out0 [5] $end
$var wire 1 * out0 [6] $end
$var wire 1 + out0 [7] $end
$var wire 1 , overf $end
$var wire 1 - sampler $end
$scope module i1 $end
$var wire 1 . gnd $end
$var wire 1 / vcc $end
$var wire 1 0 unknown $end
$var tri1 1 1 devclrn $end
$var tri1 1 2 devpor $end
$var tri1 1 3 devoe $end
$var wire 1 4 sum|sumator|SUM1|cout~0_combout $end
$var wire 1 5 sum|sumator|SUM3|cout~1_combout $end
$var wire 1 6 sum|sumator|SUM3|cout~2_combout $end
$var wire 1 7 sum|sumator|SUM3|cout~0_combout $end
$var wire 1 8 sum|sumator|SUM4|cout~0_combout $end
$var wire 1 9 sum|sumator|SUM5|cout~0_combout $end
$var wire 1 : sum|rejestrout|dff7|q~1_combout $end
$var wire 1 ; clk~combout $end
$var wire 1 < clk~clkctrl_outclk $end
$var wire 1 = sum|rejestrout|dff7|q~2_combout $end
$var wire 1 > sum|sumator|SUM6|s~0_combout $end
$var wire 1 ? sum|rejestrout|dff6|q~1_combout $end
$var wire 1 @ sum|sumator|SUM5|s~0_combout $end
$var wire 1 A sum|rejestrout|dff5|q~1_combout $end
$var wire 1 B sum|sumator|SUM4|s~combout $end
$var wire 1 C sum|rejestrout|dff4|q~1_combout $end
$var wire 1 D sum|sumator|SUM3|s~0_combout $end
$var wire 1 E sum|rejestrout|dff3|q~1_combout $end
$var wire 1 F sum|rejestrout|dff2|q~1_combout $end
$var wire 1 G sum|rejestrout|dff2|q~2_combout $end
$var wire 1 H sum|sumator|SUM1|s~0_combout $end
$var wire 1 I sum|rejestrout|dff1|q~1_combout $end
$var wire 1 J sum|rejestrout|dff0|q~1_combout $end
$var wire 1 K sum|overflowout|q~1_combout $end
$var wire 1 L sum|overflowout|q~2_combout $end
$var wire 1 M sum|overflowout|q~3_combout $end
$var wire 1 N in2~combout [0] $end
$var wire 1 O in2~combout [1] $end
$var wire 1 P in2~combout [2] $end
$var wire 1 Q in2~combout [3] $end
$var wire 1 R in2~combout [4] $end
$var wire 1 S in2~combout [5] $end
$var wire 1 T in2~combout [6] $end
$var wire 1 U in2~combout [7] $end
$var wire 1 V in1~combout [0] $end
$var wire 1 W in1~combout [1] $end
$var wire 1 X in1~combout [2] $end
$var wire 1 Y in1~combout [3] $end
$var wire 1 Z in1~combout [4] $end
$var wire 1 [ in1~combout [5] $end
$var wire 1 \ in1~combout [6] $end
$var wire 1 ] in1~combout [7] $end
$upscope $end
$upscope $end
$enddefinitions $end
#0
$dumpvars
0!
b100000 "
b1100000 #
x+
x*
x)
x(
x'
x&
x%
x$
x,
x-
0.
1/
x0
11
12
13
x4
x5
x6
x7
x8
x9
x:
0;
x<
x=
x>
x?
x@
xA
xB
xC
xD
xE
xF
xG
xH
xI
xJ
xK
xL
xM
0U
0T
0S
0R
0Q
1P
1O
0N
0]
0\
0[
0Z
0Y
1X
0W
0V
$end
#114
0<
#1363
0L
#3208
0F
#4978
0>
#5000
1!
0-
#5070
07
#5241
1D
#5245
08
#5279
0:
0K
#5290
05
#5488
09
0@
#5520
04
#5524
1H
#5989
1;
#6007
06
#6103
1<
#6683
0B
#7856
0=
#7857
0A
#7858
0?
0M
#7879
0C
1E
1I
0J
#9194
0G
#10000
0!
1-
#10989
0;
#11103
0<
#11191
0,
#11213
0(
#11220
0+
0*
#11440
0)
#11481
0$
#11482
1'
#11512
1%
#12528
0&
#15000
1!
0-
#15989
1;
#16103
1<
#20000
b1110000 #
0!
1-
#20840
1Q
#20989
0;
#21103
0<
#25000
1!
0-
#25989
1;
#26103
1<
#26130
15
#26847
16
#27523
1B
#27879
0E
#28199
1C
#30000
0!
1-
#30989
0;
#31103
0<
#31482
0'
#31533
1(
#35000
1!
0-
#35989
1;
#36103
1<
#40000
b1111000 #
0!
1-
#40860
1R
#40989
0;
#41103
0<
#45000
1!
0-
#45989
1;
#46103
1<
#46105
18
0B
#47879
0C
#48178
1A
#50000
b1011000 #
0!
1-
#50840
0P
#50989
0;
#51103
0<
#51213
0(
#51761
1)
#55000
1!
0-
#55989
1;
#56079
06
#56081
0D
#56103
1<
#56755
1B
#56760
08
#57879
1C
1E
#58833
0A
#59197
1F
#59873
1G
#60000
b0 "
0!
1-
#60860
0X
#60989
0;
#61103
0<
#61213
1(
#61482
1'
#62416
0)
#63207
1&
#64197
0F
#65000
1!
0-
#65989
1;
#66103
1<
#69194
0G
#70000
b1001000 #
0!
1-
#70840
0Q
#70989
0;
#71103
0<
#72528
0&
#75000
1!
0-
#75989
1;
#76103
1<
#76130
05
#77879
0E
#80000
b1001100 #
0!
1-
#80810
1S
#80989
0;
#81103
0<
#81482
0'
#85000
1!
0-
#85989
1;
#86103
1<
#86298
1@
#87857
1A
#90000
b100000 "
0!
1-
#90860
1X
#90989
0;
#91103
0<
#91440
1)
#95000
1!
0-
#95989
1;
#96103
1<
#99197
1F
#99873
1G
#100000
b1000100 #
0!
1-
#100860
0R
#100989
0;
#101103
0<
#103207
1&
#104197
0F
#105000
1!
0-
#105989
1;
#106103
1<
#106105
0B
#107879
0C
#109194
0G
#109197
1F
#109873
1G
#110000
b1100000 "
b11100000 "
0!
1-
#110830
1V
#110860
1W
#110989
0;
#111103
0<
#111213
0(
#114197
0F
#115000
1!
0-
#115989
1;
#116103
1<
#116380
14
#116384
0H
#117096
1D
#117879
1E
0I
1J
#119194
0G
#120000
0!
1-
#120989
0;
#121103
0<
#121481
1$
#121482
1'
#121512
0%
#122528
0&
#125000
1!
0-
#125989
1;
#126103
1<
#130000
0!
1-
#130989
0;
#131103
0<
#135000
1!
0-
#135989
1;
#136103
1<
#140000
b1000110 #
0!
1-
#140820
1T
#140989
0;
#141103
0<
#145000
1!
0-
#145798
1>
#145989
1;
#146103
1<
#147858
1?
#150000
0!
1-
#150989
0;
#151103
0<
#151220
1*
#155000
1!
0-
#155989
1;
#156103
1<
#160000
b11100100 "
b11101100 "
b1000010 #
0!
1-
#160810
0S
#160820
1Z
1[
#160989
0;
#161103
0<
#165000
1!
0-
#165989
1;
#166103
1<
#166110
1B
#167879
1C
#170000
0!
1-
#170989
0;
#171103
0<
#171213
1(
#175000
1!
0-
#175989
1;
#176103
1<
#180000
b11101101 "
b10101101 "
b101101 "
0!
1-
#180830
0V
#180860
0W
#180959
1]
#180989
0;
#181103
0<
#182122
1:
#185000
1!
0-
#185989
1;
#186103
1<
#186380
04
#186384
1H
#187096
0D
#187856
1=
#187879
0E
1I
0J
#189197
1F
#189873
1G
#190000
0!
1-
#190989
0;
#191103
0<
#191220
1+
#191481
0$
#191482
0'
#191512
1%
#193207
1&
#194197
0F
#195000
1!
0-
#195989
1;
#196103
1<
#199194
0G
#199197
1F
#199873
1G
#200000
b101001 "
b100001 "
b100000 "
0!
1-
#200820
0Z
0[
#200959
0]
#200989
0;
#201103
0<
#202122
0:
#204197
0F
#205000
1!
0-
#205907
0@
#205989
1;
#206103
1<
#206110
0B
#207856
0=
#207857
0A
#207879
0C
#209194
0G
#209197
1F
#209873
1G
#210000
0!
1-
#210989
0;
#211103
0<
#211213
0(
#211220
0+
#211440
0)
#214197
0F
#215000
1!
0-
#215989
1;
#216103
1<
#219194
0G
#219197
1F
#219873
1G
#220000
b1000011 #
0!
1-
#220959
1U
#220989
0;
#221103
0<
#222324
1=
#224197
0F
#225000
1!
0-
#225688
1+
#225989
1;
#226103
1<
#229194
0G
#229197
1F
#229873
1G
#230000
0!
1-
#230989
0;
#231103
0<
#234197
0F
#235000
1!
0-
#235989
1;
#236103
1<
#239194
0G
#239197
1F
#239873
1G
#240000
b100010 "
0!
1-
#240840
1\
#240989
0;
#241103
0<
#244197
0F
#245000
1!
0-
#245942
0>
#245989
1;
#246103
1<
#246119
1:
1K
#246514
1L
#247856
0=
#247858
0?
1M
#249194
0G
#249197
1F
#249873
1G
#250000
0!
1-
#250989
0;
#251103
0<
#251191
1,
#251220
0+
0*
#254197
0F
#255000
1!
0-
#255989
1;
#256103
1<
#259194
0G
#259197
1F
#259873
1G
#260000
b1000001 #
0!
1-
#260820
0T
#260989
0;
#261103
0<
#264197
0F
#265000
1!
0-
#265798
1>
#265799
0:
#265800
0K
#265989
1;
#266103
1<
#266195
0L
#267856
1=
#267858
1?
0M
#269194
0G
#269197
1F
#269873
1G
#270000
0!
1-
#270989
0;
#271103
0<
#271191
0,
#271220
1+
1*
#274197
0F
#275000
1!
0-
#275989
1;
#276103
1<
#279194
0G
#279197
1F
#279873
1G
#280000
0!
1-
#280989
0;
#281103
0<
#284197
0F
#285000
1!
0-
#285989
1;
#286103
1<
#289194
0G
#289197
1F
#289873
1G
#290000
b100000 "
0!
1-
#290840
0\
#290989
0;
#291103
0<
#294197
0F
#295000
1!
0-
#295942
0>
#295989
1;
#296103
1<
#297858
0?
#299194
0G
#299197
1F
#299873
1G
#300000
0!
1-
#300989
0;
#301103
0<
#301220
0*
#304197
0F
#305000
1!
0-
#305989
1;
#306103
1<
#309194
0G
#309197
1F
#309873
1G
#310000
0!
1-
#310989
0;
#311103
0<
#314197
0F
#315000
1!
0-
#315989
1;
#316103
1<
#319194
0G
#319197
1F
#319873
1G
#320000
0!
1-
#320989
0;
#321103
0<
#324197
0F
#325000
1!
0-
#325989
1;
#326103
1<
#329194
0G
#329197
1F
#329873
1G
#330000
0!
1-
#330989
0;
#331103
0<
#334197
0F
#335000
1!
0-
#335989
1;
#336103
1<
#339194
0G
#339197
1F
#339873
1G
#340000
0!
1-
#340989
0;
#341103
0<
#344197
0F
#345000
1!
0-
#345989
1;
#346103
1<
#349194
0G
#349197
1F
#349873
1G
#350000
0!
1-
#350989
0;
#351103
0<
#354197
0F
#355000
1!
0-
#355989
1;
#356103
1<
#359194
0G
#359197
1F
#359873
1G
#360000
0!
1-
#360989
0;
#361103
0<
#364197
0F
#365000
1!
0-
#365989
1;
#366103
1<
#369194
0G
#369197
1F
#369873
1G
#370000
0!
1-
#370989
0;
#371103
0<
#374197
0F
#375000
1!
0-
#375989
1;
#376103
1<
#379194
0G
#379197
1F
#379873
1G
#380000
0!
1-
#380989
0;
#381103
0<
#384197
0F
#385000
1!
0-
#385989
1;
#386103
1<
#389194
0G
#389197
1F
#389873
1G
#390000
0!
1-
#390989
0;
#391103
0<
#394197
0F
#395000
1!
0-
#395989
1;
#396103
1<
#399194
0G
#399197
1F
#399873
1G
#400000
0!
1-
#400989
0;
#401103
0<
#404197
0F
#405000
1!
0-
#405989
1;
#406103
1<
#409194
0G
#409197
1F
#409873
1G
#410000
b1000000 #
0!
1-
#410959
0U
#410989
0;
#411103
0<
#412324
0=
#414197
0F
#415000
1!
0-
#415688
0+
#415989
1;
#416103
1<
#419194
0G
#419197
1F
#419873
1G
#420000
0!
1-
#420989
0;
#421103
0<
#424197
0F
#425000
1!
0-
#425989
1;
#426103
1<
#429194
0G
#429197
1F
#429873
1G
#430000
0!
1-
#430989
0;
#431103
0<
#434197
0F
#435000
1!
0-
#435989
1;
#436103
1<
#439194
0G
#439197
1F
#439873
1G
#440000
0!
1-
#440989
0;
#441103
0<
#444197
0F
#445000
1!
0-
#445989
1;
#446103
1<
#449194
0G
#449197
1F
#449873
1G
#450000
0!
1-
#450989
0;
#451103
0<
#454197
0F
#455000
1!
0-
#455989
1;
#456103
1<
#459194
0G
#459197
1F
#459873
1G
#460000
0!
1-
#460989
0;
#461103
0<
#464197
0F
#465000
1!
0-
#465989
1;
#466103
1<
#469194
0G
#469197
1F
#469873
1G
#470000
0!
1-
#470989
0;
#471103
0<
#474197
0F
#475000
1!
0-
#475989
1;
#476103
1<
#479194
0G
#479197
1F
#479873
1G
#480000
0!
1-
#480989
0;
#481103
0<
#484197
0F
#485000
1!
0-
#485989
1;
#486103
1<
#489194
0G
#489197
1F
#489873
1G
#490000
0!
1-
#490989
0;
#491103
0<
#494197
0F
#495000
1!
0-
#495989
1;
#496103
1<
#499194
0G
#499197
1F
#499873
1G
#500000
0!
1-
#500989
0;
#501103
0<
#504197
0F
#505000
1!
0-
#505989
1;
#506103
1<
#509194
0G
#509197
1F
#509873
1G
#510000
0!
1-
#510989
0;
#511103
0<
#514197
0F
#515000
1!
0-
#515989
1;
#516103
1<
#519194
0G
#519197
1F
#519873
1G
#520000
0!
1-
#520989
0;
#521103
0<
#524197
0F
#525000
1!
0-
#525989
1;
#526103
1<
#529194
0G
#529197
1F
#529873
1G
#530000
0!
1-
#530989
0;
#531103
0<
#534197
0F
#535000
1!
0-
#535989
1;
#536103
1<
#539194
0G
#539197
1F
#539873
1G
#540000
0!
1-
#540989
0;
#541103
0<
#544197
0F
#545000
1!
0-
#545989
1;
#546103
1<
#549194
0G
#549197
1F
#549873
1G
#550000
0!
1-
#550989
0;
#551103
0<
#554197
0F
#555000
1!
0-
#555989
1;
#556103
1<
#559194
0G
#559197
1F
#559873
1G
#560000
0!
1-
#560989
0;
#561103
0<
#564197
0F
#565000
1!
0-
#565989
1;
#566103
1<
#569194
0G
#569197
1F
#569873
1G
#570000
0!
1-
#570989
0;
#571103
0<
#574197
0F
#575000
1!
0-
#575989
1;
#576103
1<
#579194
0G
#579197
1F
#579873
1G
#580000
0!
1-
#580989
0;
#581103
0<
#584197
0F
#585000
1!
0-
#585989
1;
#586103
1<
#589194
0G
#589197
1F
#589873
1G
#590000
0!
1-
#590989
0;
#591103
0<
#594197
0F
#595000
1!
0-
#595989
1;
#596103
1<
#599194
0G
#599197
1F
#599873
1G
#600000
0!
1-
#600989
0;
#601103
0<
#604197
0F
#605000
1!
0-
#605989
1;
#606103
1<
#609194
0G
#609197
1F
#609873
1G
#610000
0!
1-
#610989
0;
#611103
0<
#614197
0F
#615000
1!
0-
#615989
1;
#616103
1<
#619194
0G
#619197
1F
#619873
1G
#620000
0!
1-
#620989
0;
#621103
0<
#624197
0F
#625000
1!
0-
#625989
1;
#626103
1<
#629194
0G
#629197
1F
#629873
1G
#630000
0!
1-
#630989
0;
#631103
0<
#634197
0F
#635000
1!
0-
#635989
1;
#636103
1<
#639194
0G
#639197
1F
#639873
1G
#640000
0!
1-
#640989
0;
#641103
0<
#644197
0F
#645000
1!
0-
#645989
1;
#646103
1<
#649194
0G
#649197
1F
#649873
1G
#650000
0!
1-
#650989
0;
#651103
0<
#654197
0F
#655000
1!
0-
#655989
1;
#656103
1<
#659194
0G
#659197
1F
#659873
1G
#660000
0!
1-
#660989
0;
#661103
0<
#664197
0F
#665000
1!
0-
#665989
1;
#666103
1<
#669194
0G
#669197
1F
#669873
1G
#670000
0!
1-
#670989
0;
#671103
0<
#674197
0F
#675000
1!
0-
#675989
1;
#676103
1<
#679194
0G
#679197
1F
#679873
1G
#680000
0!
1-
#680989
0;
#681103
0<
#684197
0F
#685000
1!
0-
#685989
1;
#686103
1<
#689194
0G
#689197
1F
#689873
1G
#690000
0!
1-
#690989
0;
#691103
0<
#694197
0F
#695000
1!
0-
#695989
1;
#696103
1<
#699194
0G
#699197
1F
#699873
1G
#700000
0!
1-
#700989
0;
#701103
0<
#704197
0F
#705000
1!
0-
#705989
1;
#706103
1<
#709194
0G
#709197
1F
#709873
1G
#710000
0!
1-
#710989
0;
#711103
0<
#714197
0F
#715000
1!
0-
#715989
1;
#716103
1<
#719194
0G
#719197
1F
#719873
1G
#720000
0!
1-
#720989
0;
#721103
0<
#724197
0F
#725000
1!
0-
#725989
1;
#726103
1<
#729194
0G
#729197
1F
#729873
1G
#730000
0!
1-
#730989
0;
#731103
0<
#734197
0F
#735000
1!
0-
#735989
1;
#736103
1<
#739194
0G
#739197
1F
#739873
1G
#740000
0!
1-
#740989
0;
#741103
0<
#744197
0F
#745000
1!
0-
#745989
1;
#746103
1<
#749194
0G
#749197
1F
#749873
1G
#750000
0!
1-
#750989
0;
#751103
0<
#754197
0F
#755000
1!
0-
#755989
1;
#756103
1<
#759194
0G
#759197
1F
#759873
1G
#760000
0!
1-
#760989
0;
#761103
0<
#764197
0F
#765000
1!
0-
#765989
1;
#766103
1<
#769194
0G
#769197
1F
#769873
1G
#770000
0!
1-
#770989
0;
#771103
0<
#774197
0F
#775000
1!
0-
#775989
1;
#776103
1<
#779194
0G
#779197
1F
#779873
1G
#780000
0!
1-
#780989
0;
#781103
0<
#784197
0F
#785000
1!
0-
#785989
1;
#786103
1<
#789194
0G
#789197
1F
#789873
1G
#790000
0!
1-
#790989
0;
#791103
0<
#794197
0F
#795000
1!
0-
#795989
1;
#796103
1<
#799194
0G
#799197
1F
#799873
1G
#800000
0!
1-
#800989
0;
#801103
0<
#804197
0F
#805000
1!
0-
#805989
1;
#806103
1<
#809194
0G
#809197
1F
#809873
1G
#810000
0!
1-
#810989
0;
#811103
0<
#814197
0F
#815000
1!
0-
#815989
1;
#816103
1<
#819194
0G
#819197
1F
#819873
1G
#820000
0!
1-
#820989
0;
#821103
0<
#824197
0F
#825000
1!
0-
#825989
1;
#826103
1<
#829194
0G
#829197
1F
#829873
1G
#830000
0!
1-
#830989
0;
#831103
0<
#834197
0F
#835000
1!
0-
#835989
1;
#836103
1<
#839194
0G
#839197
1F
#839873
1G
#840000
0!
1-
#840989
0;
#841103
0<
#844197
0F
#845000
1!
0-
#845989
1;
#846103
1<
#849194
0G
#849197
1F
#849873
1G
#850000
0!
1-
#850989
0;
#851103
0<
#854197
0F
#855000
1!
0-
#855989
1;
#856103
1<
#859194
0G
#859197
1F
#859873
1G
#860000
0!
1-
#860989
0;
#861103
0<
#864197
0F
#865000
1!
0-
#865989
1;
#866103
1<
#869194
0G
#869197
1F
#869873
1G
#870000
0!
1-
#870989
0;
#871103
0<
#874197
0F
#875000
1!
0-
#875989
1;
#876103
1<
#879194
0G
#879197
1F
#879873
1G
#880000
0!
1-
#880989
0;
#881103
0<
#884197
0F
#885000
1!
0-
#885989
1;
#886103
1<
#889194
0G
#889197
1F
#889873
1G
#890000
0!
1-
#890989
0;
#891103
0<
#894197
0F
#895000
1!
0-
#895989
1;
#896103
1<
#899194
0G
#899197
1F
#899873
1G
#900000
0!
1-
#900989
0;
#901103
0<
#904197
0F
#905000
1!
0-
#905989
1;
#906103
1<
#909194
0G
#909197
1F
#909873
1G
#910000
0!
1-
#910989
0;
#911103
0<
#914197
0F
#915000
1!
0-
#915989
1;
#916103
1<
#919194
0G
#919197
1F
#919873
1G
#920000
0!
1-
#920989
0;
#921103
0<
#924197
0F
#925000
1!
0-
#925989
1;
#926103
1<
#929194
0G
#929197
1F
#929873
1G
#930000
0!
1-
#930989
0;
#931103
0<
#934197
0F
#935000
1!
0-
#935989
1;
#936103
1<
#939194
0G
#939197
1F
#939873
1G
#940000
0!
1-
#940989
0;
#941103
0<
#944197
0F
#945000
1!
0-
#945989
1;
#946103
1<
#949194
0G
#949197
1F
#949873
1G
#950000
0!
1-
#950989
0;
#951103
0<
#954197
0F
#955000
1!
0-
#955989
1;
#956103
1<
#959194
0G
#959197
1F
#959873
1G
#960000
0!
1-
#960989
0;
#961103
0<
#964197
0F
#965000
1!
0-
#965989
1;
#966103
1<
#969194
0G
#969197
1F
#969873
1G
#970000
0!
1-
#970989
0;
#971103
0<
#974197
0F
#975000
1!
0-
#975989
1;
#976103
1<
#979194
0G
#979197
1F
#979873
1G
#980000
0!
1-
#980989
0;
#981103
0<
#984197
0F
#985000
1!
0-
#985989
1;
#986103
1<
#989194
0G
#989197
1F
#989873
1G
#990000
0!
1-
#990989
0;
#991103
0<
#994197
0F
#995000
1!
0-
#995989
1;
#996103
1<
#999194
0G
#999197
1F
#999873
1G
