PTC/Cwiczenie3_2/simulation/qsim/Cwiczenie3_2.msim.vcd
$comment
	File created using the following command:
		vcd file Cwiczenie3_2.msim.vcd -direction
$end
$date
	Wed Nov 15 15:45:43 2017
$end
$version
	ModelSim Version 10.1d
$end
$timescale
	1ps
$end
$scope module Cwiczenie3_2_vlg_vec_tst $end
$var reg 2 ! iSW [1:0] $end
$var wire 1 " oLEDG [7] $end
$var wire 1 # oLEDG [6] $end
$var wire 1 $ oLEDG [5] $end
$var wire 1 % oLEDG [4] $end
$var wire 1 & oLEDG [3] $end
$var wire 1 ' oLEDG [2] $end
$var wire 1 ( oLEDG [1] $end
$var wire 1 ) oLEDG [0] $end
$var wire 1 * sampler $end
$scope module i1 $end
$var wire 1 + gnd $end
$var wire 1 , vcc $end
$var wire 1 - unknown $end
$var tri1 1 . devclrn $end
$var tri1 1 / devpor $end
$var tri1 1 0 devoe $end
$var wire 1 1 inst|sub|9~0_combout $end
$var wire 1 2 inst|sub|87~0_combout $end
$var wire 1 3 inst|sub|87~regout $end
$var wire 1 4 inst3~0_combout $end
$var wire 1 5 inst1|sub|99~0_combout $end
$var wire 1 6 inst1|sub|99~regout $end
$var wire 1 7 inst3~1_combout $end
$var wire 1 8 instnor~combout $end
$var wire 1 9 inst|sub|9~regout $end
$var wire 1 : inst|sub|99~0_combout $end
$var wire 1 ; inst|sub|99~regout $end
$var wire 1 < inst1|sub|89~0_combout $end
$var wire 1 = inst1|sub|9~0_combout $end
$var wire 1 > inst1|sub|9~regout $end
$var wire 1 ? inst1|sub|87~0_combout $end
$var wire 1 @ inst1|sub|87~regout $end
$var wire 1 A inst1|sub|110~0_combout $end
$var wire 1 B inst1|sub|110~1_combout $end
$var wire 1 C inst1|sub|110~regout $end
$var wire 1 D inst|sub|110~0_combout $end
$var wire 1 E inst|sub|110~regout $end
$var wire 1 F iSW~combout [1] $end
$var wire 1 G iSW~combout [0] $end
$upscope $end
$upscope $end
$enddefinitions $end
#0
$dumpvars
b10 !
x)
x(
x'
x&
x%
x$
x#
x"
x*
0+
1,
x-
1.
1/
10
x1
x2
x3
x4
x5
x6
x7
x8
x9
x:
x;
x<
x=
x>
x?
x@
xA
xB
xC
xD
xE
0G
1F
$end
#218
03
06
09
0;
0>
0@
0C
0E
#541
11
#682
0:
#685
07
#698
0D
#829
1A
#937
04
#944
0<
#969
0?
#972
05
#1153
02
#1170
0B
#1361
0=
#3000
b11 !
0*
#3353
0"
#3592
0$
#3822
1G
#3830
0%
#3921
0#
#3966
0'
#3975
0(
#4253
0)
#4434
0&
#5148
18
#5301
19
#5624
01
#6000
b10 !
1*
#6143
09
#6236
12
#6466
11
#6822
0G
#7078
02
#9000
b11 !
0*
#9822
1G
#10000
b1 !
1*
#10832
0F
#12000
b0 !
0*
#12822
0G
#15000
b1 !
1*
#15822
1G
#15980
08
#17301
19
#17624
01
#18000
b0 !
0*
#18236
12
#18822
0G
#21000
b1 !
1*
#21336
1)
#21822
1G
#23301
13
09
#23624
11
02
#23765
1:
#24000
b0 !
0*
#24235
0:
#24236
12
#24822
0G
#27000
b1 !
1*
#27058
1(
#27336
0)
#27822
1G
#29301
19
#29624
01
#30000
b0 !
0*
#30235
1:
#30236
02
#30822
0G
#33000
b1 !
1*
#33336
1)
#33822
1G
#35301
03
09
1;
#35624
11
12
#35781
1D
#36000
b0 !
0*
#36236
02
#36238
0D
#36822
0G
#39000
b1 !
1*
#39049
1'
#39058
0(
#39336
0)
#39822
1G
#41301
19
#41624
01
#41789
14
#42000
b0 !
0*
#42236
12
#42822
0G
#45000
b1 !
1*
#45336
1)
#45822
1G
#47301
13
09
#47624
11
02
#47765
0:
#47789
04
#48000
b0 !
0*
#48235
1:
#48236
12
#48822
0G
#51000
b1 !
1*
#51058
1(
#51336
0)
#51822
1G
#53301
19
#53624
01
#54000
b0 !
0*
#54235
0:
#54236
02
#54238
1D
#54822
0G
#57000
b1 !
1*
#57336
1)
#57822
1G
#59301
03
09
0;
1E
#59624
0D
11
12
#59781
1D
#60000
b0 !
0*
#60236
02
#60822
0G
#63000
b1 !
1*
#63049
0'
#63058
0(
#63336
0)
#63517
1&
#63822
1G
#65301
19
#65624
01
#66000
b0 !
0*
#66236
12
#66822
0G
#69000
b1 !
1*
#69336
1)
#69822
1G
#71301
13
09
#71624
11
02
#71765
1:
#72000
b0 !
0*
#72235
0:
#72236
12
#72822
0G
#75000
b1 !
1*
#75058
1(
#75336
0)
#75822
1G
#77301
19
#77624
01
#78000
b0 !
0*
#78235
1:
#78236
02
#78822
0G
#81000
b1 !
1*
#81336
1)
#81822
1G
#83301
03
09
1;
#83624
11
12
#83781
0D
#84000
b0 !
0*
#84236
02
#84238
1D
#84822
0G
#87000
b1 !
1*
#87049
1'
#87058
0(
#87336
0)
#87822
1G
#89301
19
#89624
01
#90000
b0 !
0*
#90236
12
#90822
0G
#93000
b1 !
1*
#93336
1)
#93822
1G
#95301
13
09
#95624
11
02
#95765
0:
#96000
b0 !
0*
#96235
1:
#96236
12
#96822
0G
#99000
b1 !
1*
#99058
1(
#99336
0)
#99822
1G
#101301
19
#101624
01
#101786
1<
#102000
b0 !
0*
#102203
1=
#102235
0:
#102236
02
#102238
0D
#102822
0G
#105000
b1 !
1*
#105336
1)
#105822
1G
#107301
03
09
0;
1>
0E
#107624
1D
0=
11
12
#107781
0D
#108000
b0 !
0*
#108027
0<
#108052
1?
#108236
02
#108444
1=
#108445
0?
#108822
0G
#110913
1%
#111000
b1 !
1*
#111049
0'
#111058
0(
#111336
0)
#111517
0&
#111822
1G
#113301
19
#113624
01
#114000
b0 !
0*
#114236
12
#114822
0G
#117000
b1 !
1*
#117336
1)
#117822
1G
#119301
13
09
#119624
11
02
#119765
1:
#120000
b0 !
0*
#120235
0:
#120236
12
#120822
0G
#123000
b1 !
1*
#123058
1(
#123336
0)
#123822
1G
#125301
19
#125624
01
#126000
b0 !
0*
#126235
1:
#126236
02
#126822
0G
#129000
b1 !
1*
#129336
1)
#129822
1G
#131301
03
09
1;
#131624
11
12
#131781
1D
#132000
b0 !
0*
#132236
02
#132238
0D
#132822
0G
#135000
b1 !
1*
#135049
1'
#135058
0(
#135336
0)
#135822
1G
#137301
19
#137624
01
#137789
14
#138000
b0 !
0*
#138236
12
#138822
0G
#141000
b1 !
1*
#141336
1)
#141822
1G
#143301
13
09
#143624
11
02
#143765
0:
#143789
04
#144000
b0 !
0*
#144235
1:
#144236
12
#144822
0G
#147000
b1 !
1*
#147058
1(
#147336
0)
#147822
1G
#149301
19
#149624
01
#150000
b0 !
0*
#150235
0:
#150236
02
#150238
1D
#150822
0G
#153000
b1 !
1*
#153336
1)
#153822
1G
#155301
03
09
0;
1E
#155624
0D
11
12
#155781
1D
#156000
b0 !
0*
#156236
02
#156822
0G
#159000
b1 !
1*
#159049
0'
#159058
0(
#159336
0)
#159517
1&
#159822
1G
#161301
19
#161624
01
#162000
b0 !
0*
#162236
12
#162822
0G
#165000
b1 !
1*
#165336
1)
#165822
1G
#167301
13
09
#167624
11
02
#167765
1:
#168000
b0 !
0*
#168235
0:
#168236
12
#168822
0G
#171000
b1 !
1*
#171058
1(
#171336
0)
#171822
1G
#173301
19
#173624
01
#174000
b0 !
0*
#174235
1:
#174236
02
#174822
0G
#177000
b1 !
1*
#177336
1)
#177822
1G
#179301
03
09
1;
#179624
11
12
#179781
0D
#180000
b0 !
0*
#180236
02
#180238
1D
#180822
0G
#183000
b1 !
1*
#183049
1'
#183058
0(
#183336
0)
#183822
1G
#185301
19
#185624
01
#186000
b0 !
0*
#186236
12
#186822
0G
#189000
b1 !
1*
#189336
1)
#189822
1G
#191301
13
09
#191624
11
02
#191765
0:
#192000
b0 !
0*
#192235
1:
#192236
12
#192822
0G
#195000
b1 !
1*
#195058
1(
#195336
0)
#195822
1G
#197301
19
#197624
01
#197786
1<
#198000
b0 !
0*
#198203
0=
#198204
1?
#198235
0:
#198236
02
#198238
0D
#198822
0G
#201000
b1 !
1*
#201336
1)
#201822
1G
#203301
03
09
0;
0>
1@
0E
#203624
1D
0?
1=
11
12
#203781
0D
#204000
b0 !
0*
#204027
0<
#204052
1?
#204236
02
#204444
0=
#204822
0G
#206675
1$
#206913
0%
#207000
b1 !
1*
#207049
0'
#207058
0(
#207336
0)
#207517
0&
#207822
1G
#209301
19
#209624
01
#210000
b0 !
0*
#210236
12
#210822
0G
#213000
b1 !
1*
#213336
1)
#213822
1G
#215301
13
09
#215624
11
02
#215765
1:
#216000
b0 !
0*
#216235
0:
#216236
12
#216822
0G
#219000
b1 !
1*
#219058
1(
#219336
0)
#219822
1G
#221301
19
#221624
01
#222000
b0 !
0*
#222235
1:
#222236
02
#222822
0G
#225000
b1 !
1*
#225336
1)
#225822
1G
#227301
03
09
1;
#227624
11
12
#227781
1D
#228000
b0 !
0*
#228236
02
#228238
0D
#228822
0G
#231000
b1 !
1*
#231049
1'
#231058
0(
#231336
0)
#231822
1G
#233301
19
#233624
01
#233789
14
#234000
b0 !
0*
#234236
12
#234822
0G
#237000
b1 !
1*
#237336
1)
#237822
1G
#239301
13
09
#239624
11
02
#239765
0:
#239789
04
#240000
b0 !
0*
#240235
1:
#240236
12
#240822
0G
#243000
b1 !
1*
#243058
1(
#243336
0)
#243822
1G
#245301
19
#245624
01
#246000
b0 !
0*
#246235
0:
#246236
02
#246238
1D
#246822
0G
#249000
b1 !
1*
#249336
1)
#249822
1G
#251301
03
09
0;
1E
#251624
0D
11
12
#251781
1D
#252000
b0 !
0*
#252236
02
#252822
0G
#255000
b1 !
1*
#255049
0'
#255058
0(
#255336
0)
#255517
1&
#255822
1G
#257301
19
#257624
01
#258000
b0 !
0*
#258236
12
#258822
0G
#261000
b1 !
1*
#261336
1)
#261822
1G
#263301
13
09
#263624
11
02
#263765
1:
#264000
b0 !
0*
#264235
0:
#264236
12
#264822
0G
#267000
b1 !
1*
#267058
1(
#267336
0)
#267822
1G
#269301
19
#269624
01
#270000
b0 !
0*
#270235
1:
#270236
02
#270822
0G
#273000
b1 !
1*
#273336
1)
#273822
1G
#275301
03
09
1;
#275624
11
12
#275781
0D
#276000
b0 !
0*
#276236
02
#276238
1D
#276822
0G
#279000
b1 !
1*
#279049
1'
#279058
0(
#279336
0)
#279822
1G
#281301
19
#281624
01
#282000
b0 !
0*
#282236
12
#282822
0G
#285000
b1 !
1*
#285336
1)
#285822
1G
#287301
13
09
#287624
11
02
#287765
0:
#288000
b0 !
0*
#288235
1:
#288236
12
#288822
0G
#291000
b1 !
1*
#291058
1(
#291336
0)
#291822
1G
#293301
19
#293624
01
#293786
1<
#294000
b0 !
0*
#294203
1=
#294235
0:
#294236
02
#294238
0D
#294822
0G
#297000
b1 !
1*
#297336
1)
#297822
1G
#299301
03
09
0;
1>
0E
#299624
1D
0=
11
12
#299781
0D
#299911
0A
#300000
b0 !
0*
#300027
0<
#300052
0?
#300055
15
#300236
02
#300444
1=
#300445
1?
#300447
05
#300822
0G
#302913
1%
#303000
b1 !
1*
#303049
0'
#303058
0(
#303336
0)
#303517
0&
#303822
1G
#305301
19
#305624
01
#306000
b0 !
0*
#306236
12
#306822
0G
#309000
b1 !
1*
#309336
1)
#309822
1G
#311301
13
09
#311624
11
02
#311765
1:
#312000
b0 !
0*
#312235
0:
#312236
12
#312822
0G
#315000
b1 !
1*
#315058
1(
#315336
0)
#315822
1G
#317301
19
#317624
01
#318000
b0 !
0*
#318235
1:
#318236
02
#318822
0G
#321000
b1 !
1*
#321336
1)
#321822
1G
#323301
03
09
1;
#323624
11
12
#323781
1D
#324000
b0 !
0*
#324236
02
#324238
0D
#324822
0G
#327000
b1 !
1*
#327049
1'
#327058
0(
#327336
0)
#327822
1G
#329301
19
#329624
01
#329789
14
#330000
b0 !
0*
#330236
12
#330822
0G
#333000
b1 !
1*
#333336
1)
#333822
1G
#335301
13
09
#335624
11
02
#335765
0:
#335789
04
#336000
b0 !
0*
#336235
1:
#336236
12
#336822
0G
#339000
b1 !
1*
#339058
1(
#339336
0)
#339822
1G
#341301
19
#341624
01
#342000
b0 !
0*
#342235
0:
#342236
02
#342238
1D
#342822
0G
#345000
b1 !
1*
#345336
1)
#345822
1G
#347301
03
09
0;
1E
#347624
0D
11
12
#347781
1D
#348000
b0 !
0*
#348236
02
#348822
0G
#351000
b1 !
1*
#351049
0'
#351058
0(
#351336
0)
#351517
1&
#351822
1G
#353301
19
#353624
01
#354000
b0 !
0*
#354236
12
#354822
0G
#357000
b1 !
1*
#357336
1)
#357822
1G
#359301
13
09
#359624
11
02
#359765
1:
#360000
b0 !
0*
#360235
0:
#360236
12
#360822
0G
#363000
b1 !
1*
#363058
1(
#363336
0)
#363822
1G
#365301
19
#365624
01
#366000
b0 !
0*
#366235
1:
#366236
02
#366822
0G
#369000
b1 !
1*
#369336
1)
#369822
1G
#371301
03
09
1;
#371624
11
12
#371781
0D
#372000
b0 !
0*
#372236
02
#372238
1D
#372822
0G
#375000
b1 !
1*
#375049
1'
#375058
0(
#375336
0)
#375822
1G
#377301
19
#377624
01
#378000
b0 !
0*
#378236
12
#378822
0G
#381000
b1 !
1*
#381336
1)
#381822
1G
#383301
13
09
#383624
11
02
#383765
0:
#384000
b0 !
0*
#384235
1:
#384236
12
#384822
0G
#387000
b1 !
1*
#387058
1(
#387336
0)
#387822
1G
#389301
19
#389624
01
#389786
1<
#390000
b0 !
0*
#390203
0=
#390204
0?
#390206
15
#390235
0:
#390236
02
#390238
0D
#390822
0G
#393000
b1 !
1*
#393336
1)
#393822
1G
#395301
03
16
09
0;
0>
0@
0E
#395624
1D
1?
1=
11
05
12
#395781
0D
#395911
17
#395912
1A
#396000
b0 !
0*
#396027
0<
#396052
0?
#396055
15
#396236
02
#396444
0=
#396822
0G
#398675
0$
#398913
0%
#399000
b1 !
1*
#399004
1#
#399049
0'
#399058
0(
#399336
0)
#399517
0&
#399822
1G
#401301
19
#401624
01
#402000
b0 !
0*
#402236
12
#402822
0G
#405000
b1 !
1*
#405336
1)
#405822
1G
#407301
13
09
#407624
11
02
#407765
1:
#408000
b0 !
0*
#408235
0:
#408236
12
#408822
0G
#411000
b1 !
1*
#411058
1(
#411336
0)
#411822
1G
#413301
19
#413624
01
#414000
b0 !
0*
#414235
1:
#414236
02
#414822
0G
#417000
b1 !
1*
#417336
1)
#417822
1G
#419301
03
09
1;
#419624
11
12
#419781
1D
#420000
b0 !
0*
#420236
02
#420238
0D
#420822
0G
#423000
b1 !
1*
#423049
1'
#423058
0(
#423336
0)
#423822
1G
#425301
19
#425624
01
#425789
14
#426000
b0 !
0*
#426236
12
#426316
18
#426822
0G
#427311
06
09
0;
#427634
0:
11
05
#427778
07
#428030
04
#428183
08
#428246
02
#429000
b1 !
1*
#429822
1G
#431014
0#
#431059
0'
#431301
19
#431624
01
#432000
b0 !
0*
#432236
12
#432822
0G
#435000
b1 !
1*
#435336
1)
#435822
1G
#437301
13
09
#437624
11
02
#437765
1:
#438000
b0 !
0*
#438235
0:
#438236
12
#438822
0G
#441000
b1 !
1*
#441058
1(
#441336
0)
#441822
1G
#443301
19
#443624
01
#444000
b0 !
0*
#444235
1:
#444236
02
#444822
0G
#447000
b1 !
1*
#447336
1)
#447822
1G
#449301
03
09
1;
#449624
11
12
#449781
1D
#450000
b0 !
0*
#450236
02
#450238
0D
#450822
0G
#453000
b1 !
1*
#453049
1'
#453058
0(
#453336
0)
#453822
1G
#455301
19
#455624
01
#455789
14
#456000
b0 !
0*
#456236
12
#456822
0G
#459000
b1 !
1*
#459336
1)
#459822
1G
#461301
13
09
#461624
11
02
#461765
0:
#461789
04
#462000
b0 !
0*
#462235
1:
#462236
12
#462822
0G
#465000
b1 !
1*
#465058
1(
#465336
0)
#465822
1G
#467301
19
#467624
01
#468000
b0 !
0*
#468235
0:
#468236
02
#468238
1D
#468822
0G
#471000
b1 !
1*
#471336
1)
#471822
1G
#473301
03
09
0;
1E
#473624
0D
11
12
#473781
1D
#474000
b0 !
0*
#474236
02
#474822
0G
#477000
b1 !
1*
#477049
0'
#477058
0(
#477336
0)
#477517
1&
#477822
1G
#479301
19
#479624
01
#480000
b0 !
0*
#480236
12
#480822
0G
#483000
b1 !
1*
#483336
1)
#483822
1G
#485301
13
09
#485624
11
02
#485765
1:
#486000
b0 !
0*
#486235
0:
#486236
12
#486822
0G
#489000
b1 !
1*
#489058
1(
#489336
0)
#489822
1G
#491301
19
#491624
01
#492000
b0 !
0*
#492235
1:
#492236
02
#492822
0G
#495000
b1 !
1*
#495336
1)
#495822
1G
#497301
03
09
1;
#497624
11
12
#497781
0D
#498000
b0 !
0*
#498236
02
#498238
1D
#498822
0G
#501000
b1 !
1*
#501049
1'
#501058
0(
#501336
0)
#501822
1G
#503301
19
#503624
01
#504000
b0 !
0*
#504236
12
#504822
0G
#507000
b1 !
1*
#507336
1)
#507822
1G
#509301
13
09
#509624
11
02
#509765
0:
#510000
b0 !
0*
#510235
1:
#510236
12
#510822
0G
#513000
b1 !
1*
#513058
1(
#513336
0)
#513822
1G
#515301
19
#515624
01
#515786
1<
#516000
b0 !
0*
#516203
1=
#516235
0:
#516236
02
#516238
0D
#516822
0G
#519000
b1 !
1*
#519336
1)
#519822
1G
#521301
03
09
0;
1>
0E
#521624
1D
0=
11
12
#521781
0D
#522000
b0 !
0*
#522027
0<
#522052
1?
#522236
02
#522444
1=
#522445
0?
#522822
0G
#524913
1%
#525000
b1 !
1*
#525049
0'
#525058
0(
#525336
0)
#525517
0&
#525822
1G
#527301
19
#527624
01
#528000
b0 !
0*
#528236
12
#528822
0G
#531000
b1 !
1*
#531336
1)
#531822
1G
#533301
13
09
#533624
11
02
#533765
1:
#534000
b0 !
0*
#534235
0:
#534236
12
#534822
0G
#537000
b1 !
1*
#537058
1(
#537336
0)
#537822
1G
#539301
19
#539624
01
#540000
b0 !
0*
#540235
1:
#540236
02
#540822
0G
#543000
b1 !
1*
#543336
1)
#543822
1G
#545301
03
09
1;
#545624
11
12
#545781
1D
#546000
b0 !
0*
#546236
02
#546238
0D
#546822
0G
#549000
b1 !
1*
#549049
1'
#549058
0(
#549336
0)
#549822
1G
#551301
19
#551624
01
#551789
14
#552000
b0 !
0*
#552236
12
#552822
0G
#555000
b1 !
1*
#555336
1)
#555822
1G
#557301
13
09
#557624
11
02
#557765
0:
#557789
04
#558000
b0 !
0*
#558235
1:
#558236
12
#558822
0G
#561000
b1 !
1*
#561058
1(
#561336
0)
#561822
1G
#563301
19
#563624
01
#564000
b0 !
0*
#564235
0:
#564236
02
#564238
1D
#564822
0G
#567000
b1 !
1*
#567336
1)
#567822
1G
#569301
03
09
0;
1E
#569624
0D
11
12
#569781
1D
#570000
b0 !
0*
#570236
02
#570822
0G
#573000
b1 !
1*
#573049
0'
#573058
0(
#573336
0)
#573517
1&
#573822
1G
#575301
19
#575624
01
#576000
b0 !
0*
#576236
12
#576822
0G
#579000
b1 !
1*
#579336
1)
#579822
1G
#581301
13
09
#581624
11
02
#581765
1:
#582000
b0 !
0*
#582235
0:
#582236
12
#582822
0G
#585000
b1 !
1*
#585058
1(
#585336
0)
#585822
1G
#587301
19
#587624
01
#588000
b0 !
0*
#588235
1:
#588236
02
#588822
0G
#591000
b1 !
1*
#591336
1)
#591822
1G
#593301
03
09
1;
#593624
11
12
#593781
0D
#594000
b0 !
0*
#594236
02
#594238
1D
#594822
0G
#597000
b1 !
1*
#597049
1'
#597058
0(
#597336
0)
#597822
1G
#599301
19
#599624
01
#600000
b0 !
0*
#600236
12
#600822
0G
#603000
b1 !
1*
#603336
1)
#603822
1G
#605301
13
09
#605624
11
02
#605765
0:
#606000
b0 !
0*
#606235
1:
#606236
12
#606822
0G
#609000
b1 !
1*
#609058
1(
#609336
0)
#609822
1G
#611301
19
#611624
01
#611786
1<
#612000
b0 !
0*
#612203
0=
#612204
1?
#612235
0:
#612236
02
#612238
0D
#612822
0G
#615000
b1 !
1*
#615336
1)
#615822
1G
#617301
03
09
0;
0>
1@
0E
#617624
1D
0?
1=
11
12
#617781
0D
#618000
b0 !
0*
#618027
0<
#618052
1?
#618236
02
#618444
0=
#618822
0G
#620675
1$
#620913
0%
#621000
b1 !
1*
#621049
0'
#621058
0(
#621336
0)
#621517
0&
#621822
1G
#623301
19
#623624
01
#624000
b0 !
0*
#624236
12
#624822
0G
#627000
b1 !
1*
#627336
1)
#627822
1G
#629301
13
09
#629624
11
02
#629765
1:
#630000
b0 !
0*
#630235
0:
#630236
12
#630822
0G
#633000
b1 !
1*
#633058
1(
#633336
0)
#633822
1G
#635301
19
#635624
01
#636000
b0 !
0*
#636235
1:
#636236
02
#636822
0G
#639000
b1 !
1*
#639336
1)
#639822
1G
#641301
03
09
1;
#641624
11
12
#641781
1D
#642000
b0 !
0*
#642236
02
#642238
0D
#642822
0G
#645000
b1 !
1*
#645049
1'
#645058
0(
#645336
0)
#645822
1G
#647301
19
#647624
01
#647789
14
#648000
b0 !
0*
#648236
12
#648822
0G
#651000
b1 !
1*
#651336
1)
#651822
1G
#653301
13
09
#653624
11
02
#653765
0:
#653789
04
#654000
b0 !
0*
#654235
1:
#654236
12
#654822
0G
#657000
b1 !
1*
#657058
1(
#657336
0)
#657822
1G
#659301
19
#659624
01
#660000
b0 !
0*
#660235
0:
#660236
02
#660238
1D
#660822
0G
#663000
b1 !
1*
#663336
1)
#663822
1G
#665301
03
09
0;
1E
#665624
0D
11
12
#665781
1D
#666000
b0 !
0*
#666236
02
#666822
0G
#669000
b1 !
1*
#669049
0'
#669058
0(
#669336
0)
#669517
1&
#669822
1G
#671301
19
#671624
01
#672000
b0 !
0*
#672236
12
#672822
0G
#675000
b1 !
1*
#675336
1)
#675822
1G
#677301
13
09
#677624
11
02
#677765
1:
#678000
b0 !
0*
#678235
0:
#678236
12
#678822
0G
#681000
b1 !
1*
#681058
1(
#681336
0)
#681822
1G
#683301
19
#683624
01
#684000
b0 !
0*
#684235
1:
#684236
02
#684822
0G
#687000
b1 !
1*
#687336
1)
#687822
1G
#689301
03
09
1;
#689624
11
12
#689781
0D
#690000
b0 !
0*
#690236
02
#690238
1D
#690822
0G
#693000
b1 !
1*
#693049
1'
#693058
0(
#693336
0)
#693822
1G
#695301
19
#695624
01
#696000
b0 !
0*
#696236
12
#696822
0G
#699000
b1 !
1*
#699336
1)
#699822
1G
#701301
13
09
#701624
11
02
#701765
0:
#702000
b0 !
0*
#702235
1:
#702236
12
#702822
0G
#705000
b1 !
1*
#705058
1(
#705336
0)
#705822
1G
#707301
19
#707624
01
#707786
1<
#708000
b0 !
0*
#708203
1=
#708235
0:
#708236
02
#708238
0D
#708822
0G
#711000
b1 !
1*
#711336
1)
#711822
1G
#713301
03
09
0;
1>
0E
#713624
1D
0=
11
12
#713781
0D
#713911
0A
#714000
b0 !
0*
#714027
0<
#714052
0?
#714055
15
#714236
02
#714444
1=
#714445
1?
#714447
05
#714822
0G
#716913
1%
#717000
b1 !
1*
#717049
0'
#717058
0(
#717336
0)
#717517
0&
#717822
1G
#719301
19
#719624
01
#720000
b0 !
0*
#720236
12
#720822
0G
#723000
b1 !
1*
#723336
1)
#723822
1G
#725301
13
09
#725624
11
02
#725765
1:
#726000
b0 !
0*
#726235
0:
#726236
12
#726822
0G
#729000
b1 !
1*
#729058
1(
#729336
0)
#729822
1G
#731301
19
#731624
01
#732000
b0 !
0*
#732235
1:
#732236
02
#732822
0G
#735000
b1 !
1*
#735336
1)
#735822
1G
#737301
03
09
1;
#737624
11
12
#737781
1D
#738000
b0 !
0*
#738236
02
#738238
0D
#738822
0G
#741000
b1 !
1*
#741049
1'
#741058
0(
#741336
0)
#741822
1G
#743301
19
#743624
01
#743789
14
#744000
b0 !
0*
#744236
12
#744822
0G
#747000
b1 !
1*
#747336
1)
#747822
1G
#749301
13
09
#749624
11
02
#749765
0:
#749789
04
#750000
b0 !
0*
#750235
1:
#750236
12
#750822
0G
#753000
b1 !
1*
#753058
1(
#753336
0)
#753822
1G
#755301
19
#755624
01
#756000
b0 !
0*
#756235
0:
#756236
02
#756238
1D
#756822
0G
#759000
b1 !
1*
#759336
1)
#759822
1G
#761301
03
09
0;
1E
#761624
0D
11
12
#761781
1D
#762000
b0 !
0*
#762236
02
#762822
0G
#765000
b1 !
1*
#765049
0'
#765058
0(
#765336
0)
#765517
1&
#765822
1G
#767301
19
#767624
01
#768000
b0 !
0*
#768236
12
#768822
0G
#771000
b1 !
1*
#771336
1)
#771822
1G
#773301
13
09
#773624
11
02
#773765
1:
#774000
b0 !
0*
#774235
0:
#774236
12
#774822
0G
#777000
b1 !
1*
#777058
1(
#777336
0)
#777822
1G
#779301
19
#779624
01
#780000
b0 !
0*
#780235
1:
#780236
02
#780822
0G
#783000
b1 !
1*
#783336
1)
#783822
1G
#785301
03
09
1;
#785624
11
12
#785781
0D
#786000
b0 !
0*
#786236
02
#786238
1D
#786822
0G
#789000
b1 !
1*
#789049
1'
#789058
0(
#789336
0)
#789822
1G
#791301
19
#791624
01
#792000
b0 !
0*
#792236
12
#792822
0G
#795000
b1 !
1*
#795336
1)
#795822
1G
#797301
13
09
#797624
11
02
#797765
0:
#798000
b0 !
0*
#798235
1:
#798236
12
#798822
0G
#801000
b1 !
1*
#801058
1(
#801336
0)
#801822
1G
#803301
19
#803624
01
#803786
1<
#804000
b0 !
0*
#804203
0=
#804204
0?
#804206
15
#804235
0:
#804236
02
#804238
0D
#804822
0G
#807000
b1 !
1*
#807336
1)
#807822
1G
#809301
03
16
09
0;
0>
0@
0E
#809624
1D
1?
1=
11
05
12
#809781
0D
#809911
17
#809912
1A
#810000
b0 !
0*
#810027
0<
#810052
0?
#810055
15
#810236
02
#810444
0=
#810822
0G
#812675
0$
#812913
0%
#813000
b1 !
1*
#813004
1#
#813049
0'
#813058
0(
#813336
0)
#813517
0&
#813822
1G
#815301
19
#815624
01
#816000
b0 !
0*
#816236
12
#816822
0G
#819000
b1 !
1*
#819336
1)
#819822
1G
#821301
13
09
#821624
11
02
#821765
1:
#822000
b0 !
0*
#822235
0:
#822236
12
#822822
0G
#825000
b1 !
1*
#825058
1(
#825336
0)
#825822
1G
#827301
19
#827624
01
#828000
b0 !
0*
#828235
1:
#828236
02
#828822
0G
#831000
b1 !
1*
#831336
1)
#831822
1G
#833301
03
09
1;
#833624
11
12
#833781
1D
#834000
b0 !
0*
#834236
02
#834238
0D
#834822
0G
#837000
b1 !
1*
#837049
1'
#837058
0(
#837336
0)
#837822
1G
#839301
19
#839624
01
#839789
14
#840000
b0 !
0*
#840236
12
#840316
18
#840822
0G
#841311
06
09
0;
#841634
0:
11
05
#841778
07
#842030
04
#842183
08
#842246
02
#843000
b1 !
1*
#843822
1G
#845014
0#
#845059
0'
#845301
19
#845624
01
#846000
b0 !
0*
#846236
12
#846822
0G
#849000
b1 !
1*
#849336
1)
#849822
1G
#851301
13
09
#851624
11
02
#851765
1:
#852000
b0 !
0*
#852235
0:
#852236
12
#852822
0G
#855000
b1 !
1*
#855058
1(
#855336
0)
#855822
1G
#857301
19
#857624
01
#858000
b0 !
0*
#858235
1:
#858236
02
#858822
0G
#861000
b1 !
1*
#861336
1)
#861822
1G
#863301
03
09
1;
#863624
11
12
#863781
1D
#864000
b0 !
0*
#864236
02
#864238
0D
#864822
0G
#867000
b1 !
1*
#867049
1'
#867058
0(
#867336
0)
#867822
1G
#869301
19
#869624
01
#869789
14
#870000
b0 !
0*
#870236
12
#870822
0G
#873000
b1 !
1*
#873336
1)
#873822
1G
#875301
13
09
#875624
11
02
#875765
0:
#875789
04
#876000
b0 !
0*
#876235
1:
#876236
12
#876822
0G
#879000
b1 !
1*
#879058
1(
#879336
0)
#879822
1G
#881301
19
#881624
01
#882000
b0 !
0*
#882235
0:
#882236
02
#882238
1D
#882822
0G
#885000
b1 !
1*
#885336
1)
#885822
1G
#887301
03
09
0;
1E
#887624
0D
11
12
#887781
1D
#888000
b0 !
0*
#888236
02
#888822
0G
#891000
b1 !
1*
#891049
0'
#891058
0(
#891336
0)
#891517
1&
#891822
1G
#893301
19
#893624
01
#894000
b0 !
0*
#894236
12
#894822
0G
#897000
b1 !
1*
#897336
1)
#897822
1G
#899301
13
09
#899624
11
02
#899765
1:
#900000
b0 !
0*
#900235
0:
#900236
12
#900822
0G
#903000
b1 !
1*
#903058
1(
#903336
0)
#903822
1G
#905301
19
#905624
01
#906000
b0 !
0*
#906235
1:
#906236
02
#906822
0G
#909000
b1 !
1*
#909336
1)
#909822
1G
#911301
03
09
1;
#911624
11
12
#911781
0D
#912000
b0 !
0*
#912236
02
#912238
1D
#912822
0G
#915000
b1 !
1*
#915049
1'
#915058
0(
#915336
0)
#915822
1G
#917301
19
#917624
01
#918000
b0 !
0*
#918236
12
#918822
0G
#921000
b1 !
1*
#921336
1)
#921822
1G
#923301
13
09
#923624
11
02
#923765
0:
#924000
b0 !
0*
#924235
1:
#924236
12
#924822
0G
#927000
b1 !
1*
#927058
1(
#927336
0)
#927822
1G
#929301
19
#929624
01
#929786
1<
#930000
b0 !
0*
#930203
1=
#930235
0:
#930236
02
#930238
0D
#930822
0G
#933000
b1 !
1*
#933336
1)
#933822
1G
#935301
03
09
0;
1>
0E
#935624
1D
0=
11
12
#935781
0D
#936000
b0 !
0*
#936027
0<
#936052
1?
#936236
02
#936444
1=
#936445
0?
#936822
0G
#938913
1%
#939000
b1 !
1*
#939049
0'
#939058
0(
#939336
0)
#939517
0&
#939822
1G
#941301
19
#941624
01
#942000
b0 !
0*
#942236
12
#942822
0G
#945000
b1 !
1*
#945336
1)
#945822
1G
#947301
13
09
#947624
11
02
#947765
1:
#948000
b0 !
0*
#948235
0:
#948236
12
#948822
0G
#951000
b1 !
1*
#951058
1(
#951336
0)
#951822
1G
#953301
19
#953624
01
#954000
b0 !
0*
#954235
1:
